# Blender v2.76 (sub 0) OBJ File: 'cliff.blend'
# www.blender.org
mtllib cave.mtl
o Cube.006
v -1.234259 1.711757 2.186630
v -1.527551 1.622285 2.199939
v -1.062267 1.511271 2.103948
v -1.593864 -0.442769 2.453019
v -2.194568 0.090223 2.550883
v -1.754588 0.010135 2.675091
v -1.416613 0.587083 2.250608
v -1.804388 0.915740 2.323608
v -1.498251 0.826238 2.435902
v -1.552891 -0.623824 2.539431
v -2.400175 0.077243 2.671257
v -1.801502 -0.095688 2.857351
v -1.831347 -1.722061 2.673884
v -2.592323 -0.511004 2.729059
v -2.177361 -3.686699 2.709097
v -3.638440 -2.990202 3.090917
v -2.740599 -3.447364 3.400611
v -2.074790 -3.148613 2.689345
v -2.544008 -2.804382 3.357186
v -3.301217 -2.425641 2.984499
v -1.694292 -0.790079 2.803192
v -1.899370 -0.497965 2.989701
v -2.302798 -0.286584 2.897867
v -1.894275 -1.578815 2.899754
v -2.188775 -1.575277 3.269246
v -2.544976 -1.027991 2.970719
v -2.844061 -1.807997 3.148041
v -2.045392 -2.317505 2.902518
v -2.428004 -2.426464 3.365557
v -3.182565 -1.082682 2.798246
v -3.407902 -1.676313 2.928609
v -1.668467 -2.012327 2.431497
v -1.809426 -2.838329 2.440449
v -2.037402 -4.210263 2.724263
v -3.960565 -3.293492 3.226839
v -2.778770 -3.895236 3.634476
v -1.380102 1.753388 1.529241
v -1.360417 1.904348 1.880624
v -1.653976 1.658373 1.630075
v -1.548016 1.776617 1.914154
v -1.194702 1.549075 1.506999
v -0.957465 1.618796 1.773145
v -1.875802 -0.362290 1.182181
v -1.509798 -0.392685 1.768299
v -2.447371 0.162385 1.411368
v -2.102976 0.109582 1.104729
v -2.582749 0.135653 2.039794
v -1.602370 0.640108 1.413305
v -1.257857 0.668274 1.779593
v -1.975888 0.964695 1.550567
v -1.748058 0.897545 1.309891
v -1.904390 1.054164 1.947465
v -1.879892 -0.530482 1.065470
v -1.405447 -0.571086 1.733851
v -2.684819 0.158494 1.388218
v -2.225111 0.025231 0.947929
v -2.904821 0.137478 2.111362
v -2.218265 -1.611615 0.929847
v -1.409584 -1.102742 1.701100
v -2.899054 -0.423449 1.346467
v -3.618093 -1.026830 2.195870
v -3.125926 -0.124519 2.143822
v -2.599188 -3.566289 0.807707
v -1.904014 -3.701283 1.646232
v -4.065984 -2.868160 1.163760
v -3.394721 -3.260646 0.452152
v -4.427022 -2.837772 2.260650
v -2.483528 -3.031939 0.846959
v -1.842745 -3.511353 1.644667
v -3.181056 -2.622537 0.485688
v -4.024133 -2.377425 2.200421
v -3.700385 -2.311699 1.185247
v -2.123631 -0.667525 0.867946
v -2.380321 -0.360678 0.821811
v -2.701716 -0.172713 1.099738
v -2.366644 -1.443978 0.770544
v -2.789185 -1.403891 0.562892
v -2.971731 -0.906174 1.047118
v -3.338375 -1.666896 0.919919
v -2.524509 -2.180742 0.742892
v -3.069338 -2.243396 0.474739
v -3.478529 -0.998199 1.464184
v -3.753562 -1.577645 1.370541
v -3.986941 -2.047379 2.213071
v -1.976239 -1.924474 1.044212
v -1.420886 -1.658294 1.668426
v -2.129831 -2.746869 0.996217
v -1.766291 -2.898348 1.666526
v -2.492667 -4.080309 0.672151
v -1.627621 -4.243728 1.550562
v -4.423354 -3.161389 1.140810
v -3.539795 -3.678003 0.204147
v -4.948561 -3.107122 2.359297
v -3.288091 -3.675425 1.954930
vt 0.342931 0.820727
vt 0.373543 0.866041
vt 0.357989 0.867670
vt 0.325491 0.835751
vt 0.352625 0.801999
vt 0.381856 0.854351
vt 0.318970 0.737138
vt 0.307616 0.771558
vt 0.281129 0.788853
vt 0.378442 0.888511
vt 0.361422 0.888511
vt 0.403573 0.862902
vt 0.365411 0.727702
vt 0.387370 0.799578
vt 0.315159 0.862386
vt 0.249075 0.819139
vt 0.301665 0.638579
vt 0.288435 0.668368
vt 0.278699 0.661484
vt 0.294848 0.627820
vt 0.345469 0.631405
vt 0.345469 0.617959
vt 0.269994 0.689992
vt 0.254089 0.727232
vt 0.232059 0.726783
vt 0.256066 0.688057
vt 0.227301 0.666598
vt 0.217127 0.633417
vt 0.250513 0.664370
vt 0.209773 0.720326
vt 0.130757 0.578918
vt 0.173022 0.526684
vt 0.189236 0.548437
vt 0.180863 0.596871
vt 0.260229 0.567949
vt 0.337667 0.583706
vt 0.276930 0.433589
vt 0.217984 0.482870
vt 0.200752 0.448619
vt 0.271338 0.421624
vt 0.141636 0.486083
vt 0.074788 0.628063
vt 0.038636 0.609665
vt 0.092255 0.549710
vt 0.227988 0.539115
vt 0.147893 0.689064
vt 0.179075 0.651832
vt 0.264573 0.643190
vt 0.274948 0.622935
vt 0.271459 0.544093
vt 0.327678 0.548923
vt 0.223230 0.591275
vt 0.249903 0.581640
vt 0.089911 0.643873
vt 0.149130 0.626280
vt 0.247819 0.495943
vt 0.292862 0.471534
vt 0.191779 0.411861
vt 0.268743 0.380527
vt 0.120809 0.456419
vt 0.000235 0.598112
vt 0.063979 0.535332
vt 0.765950 0.923837
vt 0.715704 0.852837
vt 0.833665 0.853687
vt 0.844804 0.969004
vt 0.951627 0.852837
vt 0.909430 0.922512
vn 0.312300 0.144000 0.939000
vn 0.334700 0.606100 0.721500
vn -0.503500 0.509600 0.697700
vn -0.512600 0.430200 0.743000
vn 0.889600 -0.146300 0.432500
vn 0.870200 0.088600 0.484600
vn 0.947900 0.171500 0.268500
vn 0.560500 0.423500 0.711600
vn -0.198100 0.819100 0.538300
vn 0.064500 0.996700 0.048800
vn -0.637200 0.747200 0.188700
vn 0.930400 0.315400 -0.186400
vn 0.967100 0.150300 -0.205000
vn 0.941800 -0.250000 -0.224800
vn -0.847800 0.483000 0.218700
vn -0.344600 0.928900 0.135300
vn 0.482600 0.531100 0.696400
vn 0.935500 0.058700 0.348500
vn 0.967800 0.145300 -0.205500
vn -0.588500 0.788100 0.180500
vn -0.273700 0.752000 0.599500
vn -0.582800 0.348200 0.734200
vn -0.448500 0.300300 0.841800
vn -0.352300 0.339500 0.872200
vn -0.820900 0.528700 0.215600
vn -0.490300 0.221400 0.842900
vn 0.270900 -0.014800 0.962500
vn 0.253200 -0.040300 0.966600
vn -0.459000 0.257500 0.850300
vn 0.901200 -0.116900 0.417200
vn 0.973600 -0.061400 -0.219900
vn 0.944600 -0.239100 -0.224700
vn 0.853900 -0.200200 0.480400
vn 0.884000 0.068100 0.462400
vn 0.970000 0.127000 -0.207100
vn 0.363600 0.250600 0.897200
vn -0.901700 0.370100 0.223500
vn -0.605900 0.774100 0.183400
vn -0.333900 0.515000 0.789500
vn 0.830700 -0.169500 0.530300
vn -0.855400 0.469100 0.219500
vn -0.399300 0.325800 0.857000
vn 0.354300 0.206700 0.912000
vn 0.831300 -0.065600 0.552000
vn 0.904800 -0.109000 0.411700
vn 0.975500 -0.028400 -0.218200
vn 0.300600 0.080500 0.950300
vn 0.835200 -0.137000 0.532600
vn -0.965100 0.137500 0.222800
vn -0.463900 0.188900 0.865500
vn 0.901000 -0.215600 0.376400
vn 0.939400 -0.258800 -0.224800
vn 0.585200 -0.703900 0.402500
vn 0.773800 -0.597800 -0.209500
vn 0.142200 -0.488700 0.860800
vn -0.976100 -0.035700 0.214300
vn -0.591800 -0.151500 0.791700
vn -0.373400 -0.927400 0.024100
vn -0.108600 0.264200 -0.958300
vn -0.766300 0.502600 -0.400200
vn -0.736800 0.576200 -0.353800
vn 0.015600 0.697200 -0.716700
vn 0.620400 -0.069500 -0.781200
vn 0.587100 0.169400 -0.791600
vn 0.750700 0.227700 -0.620100
vn 0.219600 0.520800 -0.824900
vn -0.384500 0.872300 -0.301900
vn 0.702800 0.125200 -0.700300
vn 0.158200 0.623700 -0.765500
vn -0.480600 0.811100 -0.333200
vn -0.677700 0.432400 -0.594700
vn -0.753200 0.387200 -0.531700
vn -0.828300 0.418300 -0.372600
vn -0.793700 0.308000 -0.524500
vn -0.767400 0.345600 -0.540000
vn -0.178700 0.083000 -0.980400
vn -0.160300 0.108200 -0.981100
vn 0.638100 -0.041800 -0.768800
vn 0.608400 0.146800 -0.779900
vn 0.566300 -0.118100 -0.815600
vn -0.041600 0.366300 -0.929600
vn -0.621500 0.597100 -0.507000
vn 0.525100 -0.082300 -0.847000
vn -0.714300 0.415700 -0.563000
vn 0.519300 0.023400 -0.854300
vn -0.057500 0.324300 -0.944200
vn 0.643800 -0.034500 -0.764400
vn 0.529100 -0.049600 -0.847100
vn -0.125600 0.202200 -0.971200
vn -0.780100 0.279200 -0.559900
vn 0.652400 -0.144700 -0.743900
vn 0.342100 -0.634500 -0.693000
vn -0.246800 -0.377600 -0.892500
vn -0.874100 -0.070900 -0.480500
usemtl None
s 1
f 9/1/1 1/2/2 2/3/3 8/4/4
f 7/5/5 3/6/6 1/2/2 9/1/1
f 4/7/7 7/5/5 9/1/1 6/8/8
f 6/8/8 9/1/1 8/4/4 5/9/9
f 1/2/2 38/10/10 40/11/11 2/3/3
f 1/2/2 3/6/6 42/12/12 38/10/10
f 7/5/5 4/7/7 44/13/13 49/14/14
f 2/3/3 40/11/11 52/15/15 8/4/4
f 8/4/4 52/15/15 47/16/16 5/9/9
f 3/6/6 7/5/5 49/14/14 42/12/12
f 4/17/7 6/18/8 12/19/17 10/20/18
f 44/21/13 4/17/7 10/20/18 54/22/19
f 5/23/9 47/24/16 57/25/20 11/26/21
f 6/18/8 5/23/9 11/26/21 12/19/17
f 11/26/21 14/27/22 26/28/23 23/29/24
f 11/26/21 57/25/20 62/30/25 14/27/22
f 20/31/26 19/32/27 29/33/28 27/34/29
f 54/22/19 10/20/18 13/35/30 59/36/31
f 69/37/32 18/38/33 15/39/34 64/40/35
f 18/38/33 19/32/27 17/41/36 15/39/34
f 20/31/26 71/42/37 67/43/38 16/44/39
f 19/32/27 20/31/26 16/44/39 17/41/36
f 19/32/27 18/38/33 28/45/40 29/33/28
f 14/27/22 62/30/25 61/46/41 30/47/42
f 10/20/18 12/19/17 22/48/43 21/49/44
f 59/36/31 13/35/30 32/50/45 86/51/46
f 21/49/44 22/48/43 25/52/47 24/53/48
f 22/48/43 23/29/24 26/28/23 25/52/47
f 25/52/47 26/28/23 27/34/29 29/33/28
f 24/53/48 25/52/47 29/33/28 28/45/40
f 13/35/30 10/20/18 21/49/44 24/53/48
f 12/19/17 11/26/21 23/29/24 22/48/43
f 14/27/22 20/31/26 27/34/29 26/28/23
f 18/38/33 13/35/30 24/53/48 28/45/40
f 30/47/42 61/46/41 84/54/49 31/55/50
f 71/42/37 20/31/26 31/55/50 84/54/49
f 20/31/26 14/27/22 30/47/42 31/55/50
f 86/51/46 32/50/45 33/56/51 88/57/52
f 18/38/33 69/37/32 88/57/52 33/56/51
f 13/35/30 18/38/33 33/56/51 32/50/45
f 64/40/35 15/39/34 34/58/53 90/59/54
f 15/39/34 17/41/36 36/60/55 34/58/53
f 16/44/39 67/43/38 93/61/56 35/62/57
f 17/41/36 16/44/39 35/62/57 36/60/55
f 35/63/57 93/64/56 94/65/58 36/66/55
f 36/66/55 94/65/58 90/67/54 34/68/53
f 51/1/59 50/4/60 39/3/61 37/2/62
f 48/5/63 51/1/59 37/2/62 41/6/64
f 43/7/65 46/8/66 51/1/59 48/5/63
f 46/8/66 45/9/67 50/4/60 51/1/59
f 37/2/62 39/3/61 40/11/11 38/10/10
f 37/2/62 38/10/10 42/12/12 41/6/64
f 48/5/63 49/14/14 44/13/13 43/7/65
f 39/3/61 50/4/60 52/15/15 40/11/11
f 50/4/60 45/9/67 47/16/16 52/15/15
f 41/6/64 42/12/12 49/14/14 48/5/63
f 43/17/65 53/20/68 56/19/69 46/18/66
f 44/21/13 54/22/19 53/20/68 43/17/65
f 45/23/67 55/26/70 57/25/20 47/24/16
f 46/18/66 56/19/69 55/26/70 45/23/67
f 55/26/70 75/29/71 78/28/72 60/27/73
f 55/26/70 60/27/73 62/30/25 57/25/20
f 72/31/74 79/34/75 81/33/76 70/32/77
f 54/22/19 59/36/31 58/35/78 53/20/68
f 69/37/32 64/40/35 63/39/79 68/38/80
f 68/38/80 63/39/79 66/41/81 70/32/77
f 72/31/74 65/44/82 67/43/38 71/42/37
f 70/32/77 66/41/81 65/44/82 72/31/74
f 70/32/77 81/33/76 80/45/83 68/38/80
f 60/27/73 82/47/84 61/46/41 62/30/25
f 53/20/68 73/49/85 74/48/86 56/19/69
f 59/36/31 86/51/46 85/50/87 58/35/78
f 73/49/85 76/53/88 77/52/89 74/48/86
f 74/48/86 77/52/89 78/28/72 75/29/71
f 77/52/89 81/33/76 79/34/75 78/28/72
f 76/53/88 80/45/83 81/33/76 77/52/89
f 58/35/78 76/53/88 73/49/85 53/20/68
f 56/19/69 74/48/86 75/29/71 55/26/70
f 60/27/73 78/28/72 79/34/75 72/31/74
f 68/38/80 80/45/83 76/53/88 58/35/78
f 82/47/84 83/55/90 84/54/49 61/46/41
f 71/42/37 84/54/49 83/55/90 72/31/74
f 72/31/74 83/55/90 82/47/84 60/27/73
f 86/51/46 88/57/52 87/56/91 85/50/87
f 68/38/80 87/56/91 88/57/52 69/37/32
f 58/35/78 85/50/87 87/56/91 68/38/80
f 64/40/35 90/59/54 89/58/92 63/39/79
f 63/39/79 89/58/92 92/60/93 66/41/81
f 65/44/82 91/62/94 93/61/56 67/43/38
f 66/41/81 92/60/93 91/62/94 65/44/82
f 91/63/94 92/66/93 94/65/58 93/64/56
f 92/66/93 89/68/92 90/67/54 94/65/58
o Cube.005
v -2.365448 -1.273940 -1.402427
v -1.015854 0.200375 -1.693439
v -1.392792 -0.041200 -2.859223
v -1.515275 0.311826 -1.461306
v -1.266862 0.145303 -2.631433
v -1.443964 0.130246 -1.014586
v -1.541210 -0.504132 -0.619191
v -1.999690 -1.543105 -1.097767
v -2.794659 -1.577636 -2.655260
v -2.397629 -2.702667 -2.282174
v -2.134693 -2.076833 -2.419470
v -2.317518 -0.432435 -1.087901
v -1.490135 0.348670 -2.679553
v -2.088808 -2.476528 -0.551637
v -2.179335 -2.583003 -1.424458
v -1.625638 -1.333734 -0.273166
v -2.208050 -1.998943 -0.545508
v -1.271710 -0.540517 -0.207714
v -2.094691 -2.214027 -1.553825
v -2.631166 -3.535163 -1.705140
v -2.020604 -3.527709 -0.826178
v -1.449431 0.025046 -2.889103
v -2.240520 0.410454 -2.398787
v -2.851569 -0.106103 -2.839374
v -1.603335 0.384043 -3.281290
v -2.350654 -2.520274 -2.412685
v -2.604417 -3.295779 -2.000996
v -1.926501 -0.989763 -4.865525
v -2.456596 -1.844332 -3.325674
v -1.956211 -0.216770 -4.447936
v -2.603595 -2.704239 -3.364284
v -0.963864 -1.543105 -5.041507
v -2.261862 -2.130983 -3.274527
v -2.421584 -1.577636 -4.075685
v -1.892462 -2.702667 -4.205516
v -1.730930 -2.076833 -3.956733
v -1.280859 -2.583003 -4.845260
v -0.927878 -2.087843 -5.176775
v -1.210618 -2.214027 -4.919795
v -2.108737 -2.339770 -3.234309
v -1.812302 -3.535163 -4.822835
v -3.339314 -3.528214 -3.557520
v -2.011061 -0.144606 -4.464473
v -2.202558 -0.211766 -4.772194
v -2.830552 -0.450590 -4.153393
v -1.739907 0.170383 -3.871313
v -3.055314 -0.511835 -3.438599
v -1.758642 -0.129303 -4.438998
v -1.915683 -2.520274 -4.068766
v -2.306172 -2.478024 -3.286165
v -2.995985 -3.254712 -3.467345
v -1.934389 -3.295779 -4.552020
vt 0.396564 0.191883
vt 0.417029 0.136801
vt 0.453332 0.141605
vt 0.450040 0.218397
vt 0.204819 0.088790
vt 0.212759 0.078850
vt 0.307526 0.090869
vt 0.376504 0.055084
vt 0.343373 0.043995
vt 0.172911 0.123748
vt 0.391768 0.003649
vt 0.413826 0.000988
vt 0.433385 0.052144
vt 0.309121 0.216713
vt 0.326368 0.192592
vt 0.421921 0.257247
vt 0.573211 0.313136
vt 0.605685 0.276912
vt 0.636846 0.285443
vt 0.363605 0.000235
vt 0.139826 0.152948
vt 0.641173 0.223968
vt 0.583623 0.201430
vt 0.602937 0.172825
vt 0.579798 0.048393
vt 0.572899 0.120154
vt 0.530150 0.094935
vt 0.557432 0.058492
vt 0.558599 0.143393
vt 0.609108 0.140501
vt 0.518597 0.104777
vt 0.510949 0.139224
vt 0.455849 0.129035
vt 0.462003 0.113240
vt 0.642643 0.075783
vt 0.220214 0.045166
vt 0.220978 0.000235
vt 0.461592 0.072597
vt 0.463547 0.028910
vt 0.461831 0.097251
vt 0.461173 0.000235
vt 0.378703 0.131728
vt 0.584611 0.160660
vn -0.857100 0.347400 0.380300
vn -0.843100 -0.213700 0.493400
vn -0.925000 0.036100 0.378200
vn -0.716600 0.366100 0.593600
vn -0.302700 0.806100 0.508500
vn 0.397300 0.781000 0.481800
vn -0.127300 0.848100 0.514200
vn -0.907900 -0.351600 0.228200
vn -0.840200 0.537000 0.074900
vn -0.785900 0.565000 -0.251400
vn -0.783600 -0.601500 -0.155300
vn -0.797100 -0.568400 -0.203600
vn -0.870500 -0.470500 0.144200
vn 0.039400 0.998700 0.032900
vn -0.312800 0.921600 0.229600
vn -0.405600 0.806300 0.430500
vn -0.829800 0.323600 0.454500
vn -0.955900 0.200000 -0.215000
vn -0.321200 0.946900 -0.012500
vn -0.858100 0.366100 0.360000
vn -0.967500 0.246200 0.057600
vn -0.895300 0.348500 0.277400
vn -0.968900 0.153700 0.193900
vn -0.882200 0.436900 0.175700
vn -0.836200 0.502600 0.219400
vn -0.984000 0.176400 0.024100
vn -0.988200 0.007800 0.153100
vn -0.775200 0.629400 0.054600
vn -0.923900 0.304100 -0.232400
vn -0.927400 0.076100 0.366200
vn -0.307800 0.928400 -0.208300
vn -0.457800 0.849100 -0.263600
vn -0.781100 0.589600 -0.205100
vn -0.748100 0.633700 -0.196500
vn -0.686200 0.705000 -0.178900
vn -0.691900 0.698800 -0.181700
vn -0.476900 -0.403800 -0.780700
vn -0.117700 0.629400 -0.768100
vn 0.260800 0.933900 -0.244500
vn 0.750500 0.343100 -0.564800
vn -0.692300 -0.521500 -0.498600
vn -0.835700 0.316700 -0.448600
vn -0.710100 -0.420800 -0.564500
vn -0.719600 -0.191300 -0.667500
vn -0.628900 0.489100 -0.604400
vn -0.620500 0.502600 -0.602000
vn -0.701600 0.386700 -0.598500
vn -0.743000 0.226400 -0.629800
vn -0.674400 0.598100 -0.432800
vn -0.805200 0.206000 -0.556000
vn -0.817100 0.202600 -0.539700
vn -0.410600 0.899400 -0.149600
usemtl None
s 1
f 106/69/95 95/70/96 102/71/97 101/72/98
f 95/70/96 97/73/99 116/74/100 117/75/101
f 103/76/102 95/70/96 117/75/101 118/77/103
f 106/69/95 107/78/104 97/73/99 95/70/96
f 103/76/102 123/79/105 127/80/106 105/81/107
f 96/82/108 98/83/109 101/72/98 100/84/110
f 95/70/96 103/76/102 105/81/107 102/71/97
f 100/85/110 101/86/98 112/87/111
f 123/79/105 103/76/102 118/77/103 141/88/112
f 98/83/109 99/89/113 107/78/104 106/69/95
f 98/83/109 106/69/95 101/72/98
f 110/90/114 102/91/97 111/92/115
f 114/93/116 109/94/117 104/95/118 121/96/119
f 111/92/115 113/97/120 109/94/117 108/98/121
f 109/94/117 113/97/120 120/99/122 104/95/118
f 101/86/98 102/91/97 110/90/114 112/87/111
f 105/100/107 127/101/106 134/102/123 113/97/120
f 102/91/97 105/100/107 113/97/120 111/92/115
f 108/98/121 109/94/117 114/93/116 115/103/124
f 119/104/125 118/77/103 117/75/101 116/74/100
f 140/105/126 141/88/112 118/77/103 119/104/125
f 104/95/118 125/106/127 145/107/128 121/96/119
f 120/99/122 144/108/129 125/106/127 104/95/118
f 136/109/130 114/93/116 121/96/119 145/107/128
f 113/97/120 134/102/123 144/108/129 120/99/122
f 122/110/131 138/75/132 137/74/133 124/73/134
f 128/76/135 139/77/136 138/75/132 122/110/131
f 128/76/135 130/81/137 127/80/106 123/79/105
f 122/110/131 126/71/138 130/81/137 128/76/135
f 123/79/105 141/88/112 139/77/136 128/76/135
f 135/93/139 146/96/140 129/95/141 131/94/142
f 131/94/142 129/95/141 143/99/143 133/97/144
f 130/100/137 133/97/144 134/102/123 127/101/106
f 126/91/138 132/111/145 133/97/144 130/100/137
f 142/104/146 137/74/133 138/75/132 139/77/136
f 140/105/126 142/104/146 139/77/136 141/88/112
f 129/95/141 146/96/140 145/107/128 125/106/127
f 143/99/143 129/95/141 125/106/127 144/108/129
f 136/109/130 145/107/128 146/96/140 135/93/139
f 133/97/144 143/99/143 144/108/129 134/102/123
f 96/82/108 99/89/113 98/83/109
o Cube.003_Cube.002
v -0.929986 -0.989763 -2.820737
v -0.632016 0.645927 -2.820281
v 0.278121 1.038863 -1.722523
v 0.373055 0.430759 -1.662604
v -0.576417 0.141149 -3.009439
v 0.345931 1.043588 -1.802635
v -2.218786 0.130246 -3.563903
v -2.111319 -0.504132 -3.956642
v -1.665404 -1.543105 -3.466337
v -0.911095 -1.577636 -1.888751
v -1.298316 -2.702667 -2.272007
v -1.564724 -2.076833 -2.141577
v -0.540933 -0.356739 -2.952019
v 0.385634 0.740359 -1.802535
v -1.562152 -2.476528 -4.009972
v -1.494292 -2.583003 -3.135097
v -2.017944 -1.333734 -4.300361
v -1.658132 -1.998943 -4.018593
v -2.370055 -0.540517 -4.374970
v -1.582262 -2.214027 -3.007969
v -1.049892 -3.535163 -2.842792
v -1.637454 -3.527709 -3.737292
v 0.397146 0.343042 -1.647947
v 0.058066 -0.982965 -2.120167
v -0.431585 -1.624338 -1.692135
v 0.645888 -0.040613 -1.335999
v -1.348660 -2.520274 -2.142759
v -1.084305 -3.295779 -2.547729
v -1.836283 -0.989763 0.298256
v -1.266432 -1.844332 -1.227330
v -0.227769 1.038863 0.018479
v -0.115507 0.430759 0.018766
v -1.120483 -2.704239 -1.184921
v -0.213450 1.043588 0.122455
v -2.803160 -1.543105 0.449213
v -1.459773 -2.130983 -1.283509
v -1.320883 -1.577636 -0.478479
v -1.853194 -2.702667 -0.362414
v -2.008220 -2.076833 -0.615303
v -0.179876 0.740359 0.143647
v -2.481182 -2.583003 0.261253
v -2.842643 -2.087843 0.583502
v -2.553334 -2.214027 0.333941
v -1.611803 -2.339770 -1.327686
v -1.949337 -3.535163 0.252618
v -0.390023 -3.528214 -0.972668
v -0.087312 0.343042 0.019301
v -0.626654 -0.982965 0.236275
v -0.810675 -1.624338 -0.387508
v 0.469601 -0.114390 -0.722884
v -0.839564 -1.852413 -1.103293
v 0.289869 -0.040613 -0.110770
v -1.826434 -2.520274 -0.498516
v -1.415780 -2.478024 -1.270726
v -0.730898 -3.254712 -1.071718
v -1.820268 -3.295779 -0.014940
vt 0.340106 0.163889
vt 0.378703 0.131728
vt 0.453332 0.141605
vt 0.450040 0.218397
vt 0.204819 0.088790
vt 0.212759 0.078850
vt 0.307526 0.090869
vt 0.376504 0.055084
vt 0.343373 0.043995
vt 0.172911 0.123748
vt 0.306994 0.224697
vt 0.096754 0.191507
vt 0.139826 0.152948
vt 0.326819 0.194835
vt 0.391768 0.003649
vt 0.413826 0.000988
vt 0.433385 0.052144
vt 0.421921 0.257247
vt 0.573211 0.313136
vt 0.605685 0.276912
vt 0.636846 0.285443
vt 0.363605 0.000235
vt 0.641173 0.223968
vt 0.583623 0.201430
vt 0.602937 0.172825
vt 0.579798 0.048393
vt 0.572899 0.120154
vt 0.530150 0.094935
vt 0.557432 0.058492
vt 0.558599 0.143393
vt 0.609108 0.140501
vt 0.518597 0.104777
vt 0.510949 0.139224
vt 0.455849 0.129035
vt 0.462003 0.113240
vt 0.642643 0.075783
vt 0.220214 0.045166
vt 0.220978 0.000235
vt 0.461592 0.072597
vt 0.463547 0.028910
vt 0.461831 0.097251
vt 0.461173 0.000235
vt 0.584611 0.160660
vn 0.746600 -0.240900 -0.620100
vn 0.656100 -0.448700 -0.606700
vn 0.918800 -0.064400 -0.389300
vn 0.731300 0.270800 -0.625900
vn 0.801000 -0.248200 -0.544800
vn 0.746000 -0.040400 -0.664700
vn 0.736600 -0.333600 -0.588300
vn 0.450200 -0.811400 -0.372700
vn 0.546800 -0.803200 -0.236200
vn 0.829900 -0.155600 -0.535800
vn 0.431100 0.493200 -0.755500
vn 0.517700 0.501100 -0.693400
vn 0.641500 0.327100 -0.693800
vn 0.559800 0.229000 -0.796300
vn 0.395200 -0.911400 0.114800
vn 0.791600 -0.568400 0.224200
vn 0.873500 -0.468200 -0.133200
vn 0.376000 0.474400 -0.795900
vn 0.841300 0.323600 -0.432900
vn 0.312500 -0.945500 0.090800
vn 0.885100 0.291500 -0.362700
vn 0.961300 0.241200 -0.132700
vn 0.902200 0.348500 -0.254100
vn 0.956200 0.225700 -0.186300
vn 0.886400 0.436900 -0.152800
vn 0.841600 0.502600 -0.197600
vn 0.977600 0.199800 -0.066300
vn 0.973000 0.161400 -0.165000
vn 0.776300 0.629400 -0.034400
vn 0.917500 0.304100 0.256300
vn 0.936600 0.076100 -0.342000
vn 0.869000 -0.494400 -0.021500
vn 0.767500 -0.600900 0.223000
vn 0.775500 0.589600 0.225300
vn 0.742800 0.633700 0.215800
vn 0.681300 0.705000 0.196600
vn 0.686900 0.698800 0.199600
vn 0.227900 -0.564400 0.793400
vn 0.306600 -0.333600 0.891400
vn 0.273600 -0.040400 0.961000
vn 0.057700 0.131400 0.989600
vn 0.180300 -0.811400 0.556000
vn 0.335100 -0.803200 0.492400
vn 0.695200 -0.420800 0.582800
vn 0.702000 -0.191300 0.686000
vn 0.613000 0.489100 0.620500
vn 0.604700 0.502600 0.617900
vn 0.685800 0.386700 0.616500
vn 0.726400 0.226400 0.648900
vn 0.663000 0.598100 0.450100
vn 0.790500 0.206000 0.576800
vn 0.802900 0.202600 0.560700
vn 0.722100 -0.494400 0.483800
usemtl None
s 1
f 159/112/147 147/113/148 155/114/149 154/115/150
f 147/113/148 150/116/151 169/117/152 170/118/153
f 156/119/154 147/113/148 170/118/153 171/120/155
f 159/112/147 160/121/156 150/116/151 147/113/148
f 148/122/157 149/123/158 152/124/159 151/125/160
f 156/119/154 176/126/161 182/127/162 158/128/163
f 148/122/157 151/125/160 154/115/150 153/129/164
f 147/113/148 156/119/154 158/128/163 155/114/149
f 153/130/164 154/131/150 165/132/165
f 176/126/161 156/119/154 171/120/155 197/133/166
f 151/125/160 152/124/159 160/121/156 159/112/147
f 151/125/160 159/112/147 154/115/150
f 163/134/167 155/135/149 164/136/168
f 167/137/169 162/138/170 157/139/171 174/140/172
f 164/136/168 166/141/173 162/138/170 161/142/174
f 162/138/170 166/141/173 173/143/175 157/139/171
f 154/131/150 155/135/149 163/134/167 165/132/165
f 158/144/163 182/145/162 190/146/176 166/141/173
f 155/135/149 158/144/163 166/141/173 164/136/168
f 161/142/174 162/138/170 167/137/169 168/147/177
f 172/148/178 171/120/155 170/118/153 169/117/152
f 196/149/179 197/133/166 171/120/155 172/148/178
f 157/139/171 179/150/180 201/151/181 174/140/172
f 173/143/175 200/152/182 179/150/180 157/139/171
f 192/153/183 167/137/169 174/140/172 201/151/181
f 166/141/173 190/146/176 200/152/182 173/143/175
f 175/113/184 194/118/185 193/117/186 178/116/187
f 183/119/188 195/120/189 194/118/185 175/113/184
f 183/119/188 185/128/190 182/127/162 176/126/161
f 175/113/184 181/114/191 185/128/190 183/119/188
f 176/126/161 197/133/166 195/120/189 183/119/188
f 191/137/192 202/140/193 184/139/194 187/138/195
f 187/138/195 184/139/194 199/143/196 189/141/197
f 185/144/190 189/141/197 190/146/176 182/145/162
f 181/135/191 188/154/198 189/141/197 185/144/190
f 198/148/199 193/117/186 194/118/185 195/120/189
f 196/149/179 198/148/199 195/120/189 197/133/166
f 184/139/194 202/140/193 201/151/181 179/150/180
f 199/143/196 184/139/194 179/150/180 200/152/182
f 192/153/183 201/151/181 202/140/193 191/137/192
f 189/141/197 199/143/196 200/152/182 190/146/176
l 186 178
l 177 180
l 180 186
o Cube.002_Cube.001
v 0.082332 0.774457 -0.577149
v -1.073251 0.883960 -0.885831
v -0.965430 1.255475 -0.723926
v -0.782677 0.116263 -0.738589
v -1.343556 0.433783 -1.019808
v -0.955263 1.264328 -0.895036
v 0.345623 0.949681 -0.350872
v -2.396156 -1.689713 -0.161633
v -2.782732 -2.702667 0.080104
v -2.410547 -1.995132 -0.210939
v 0.533170 1.045760 -0.432250
v -1.475646 -0.046024 -0.950627
v 0.113422 1.429733 -0.863325
v -0.903276 0.696263 -0.933787
v 0.437453 1.447820 -0.578332
v 0.660507 1.540026 -0.528280
v -3.091495 -2.650247 -0.076601
v -3.030200 -2.349864 0.143461
v -2.926207 -3.535163 -0.525638
v -0.736837 -0.048064 -0.743026
v -1.606229 -0.982965 -0.611757
v 0.184042 0.658476 -0.353109
v -0.097318 0.449965 -0.494515
v -1.741399 -1.624338 0.024402
v -0.106246 -0.766799 -0.578933
v -2.745513 -2.520274 0.213725
v -2.776808 -3.295779 -0.268877
v -1.671952 -0.989763 2.459564
v 0.504875 0.774457 0.544436
v -1.374912 0.645927 2.436038
v -2.130762 -1.844332 0.896991
v 0.543747 0.956985 -0.110595
v -0.185588 1.255475 1.346067
v -0.038588 0.116263 1.236500
v -1.988535 -2.704239 0.843409
v -1.304833 0.141149 2.620324
v -0.065046 1.264328 1.467933
v -2.319173 -2.130983 0.967972
v 0.553414 0.949681 0.200682
v -1.725279 -1.577636 1.528913
v -2.081663 -2.702667 1.941001
v -1.742480 -2.076833 1.599938
v 0.720081 1.092289 -0.177026
v 0.748035 1.045760 0.138083
v -1.273902 -0.356739 2.560328
v 0.717062 1.429733 0.738960
v -0.000412 0.696263 1.462749
v 0.772500 1.447820 0.311009
v 0.869737 1.596250 -0.233407
v 0.907082 1.540026 0.126221
v -2.210276 -2.650247 2.262482
v -2.309420 -2.349864 2.056679
v -2.467326 -2.339770 1.023787
v -1.789790 -3.535163 2.490837
v -1.276703 -3.528214 0.575235
v -0.001216 -0.048064 1.209587
v -0.741109 -0.982965 1.684595
v 0.433474 0.658476 0.308977
v 0.315357 0.449965 0.600881
v -1.262432 -1.624338 1.295761
v 0.131794 -0.905011 0.044603
v 0.499489 0.592020 -0.093921
v -1.714780 -1.852413 0.740275
v 0.364350 -0.766799 0.670206
v -2.141863 -2.520274 1.816039
v -2.276301 -2.478024 0.951821
v -1.608885 -3.254712 0.700381
v -1.846946 -3.295779 2.199324
vt 0.306994 0.224697
vt 0.096754 0.191507
vt 0.139826 0.152948
vt 0.326819 0.194835
vt 0.376504 0.055084
vt 0.391768 0.003649
vt 0.413826 0.000988
vt 0.433385 0.052144
vt 0.343373 0.043995
vt 0.363605 0.000235
vt 0.082335 0.091996
vt 0.066622 0.062809
vt 0.101538 0.037560
vt 0.125483 0.057666
vt 0.204819 0.088790
vt 0.154417 0.052414
vt 0.212759 0.078850
vt 0.049959 0.052230
vt 0.037255 0.035590
vt 0.075225 0.020186
vt 0.084187 0.035796
vt 0.094158 0.018936
vt 0.172911 0.123748
vt 0.340106 0.163889
vt 0.579798 0.048393
vt 0.550031 0.107303
vt 0.530150 0.094935
vt 0.557432 0.058492
vt 0.530597 0.124805
vt 0.518597 0.104777
vt 0.510949 0.139224
vt 0.455849 0.129035
vt 0.462003 0.113240
vt 0.220214 0.045166
vt 0.307526 0.090869
vt 0.129012 0.036655
vt 0.121377 0.008525
vt 0.220978 0.000235
vt 0.461592 0.072597
vt 0.463547 0.028910
vt 0.461831 0.097251
vt 0.461173 0.000235
vt 0.378703 0.131728
vn -0.892800 0.285400 0.348500
vn -0.949200 0.312600 0.037200
vn 0.173800 -0.030300 -0.984300
vn 0.682300 -0.691100 -0.238300
vn 0.637900 -0.732900 -0.236600
vn 0.682200 -0.674200 -0.283000
vn 0.790600 -0.574900 -0.210500
vn 0.195300 -0.895400 -0.400200
vn 0.209000 -0.977600 -0.025400
vn 0.549500 -0.349200 -0.759000
vn 0.373600 -0.360700 -0.854500
vn 0.596500 -0.457300 -0.659600
vn 0.564000 -0.381200 -0.732500
vn 0.399700 -0.280900 -0.872500
vn 0.436200 -0.129200 -0.890500
vn 0.292000 -0.231100 -0.928000
vn 0.582500 -0.338600 -0.738900
vn 0.890400 -0.307700 -0.335400
vn 0.764700 -0.576400 -0.288100
vn 0.440000 -0.567000 -0.696300
vn 0.710400 -0.650900 -0.267600
vn 0.278000 -0.170100 -0.945400
vn 0.217300 -0.044900 -0.975100
vn 0.469900 0.555200 -0.686200
vn 0.474700 0.459400 -0.750700
vn 0.524600 0.500100 -0.688900
vn 0.492900 0.531600 -0.688700
vn 0.738500 0.034800 -0.673300
vn 0.531700 0.660700 -0.529900
vn 0.930600 -0.046500 -0.363000
vn 0.481400 -0.470300 -0.739600
vn 0.088400 -0.481000 -0.872200
vn 0.704100 -0.280600 -0.652300
vn 0.915400 -0.207600 -0.344900
vn 0.718200 -0.641000 -0.270600
vn 0.755800 0.589600 -0.284700
vn 0.723900 0.633700 -0.272700
vn 0.637400 0.732100 -0.240100
vn 0.669400 0.698800 -0.252200
vn 0.580000 -0.524000 0.623700
vn 0.601700 -0.411600 0.684500
vn 0.772500 -0.183200 0.608000
vn 0.800200 -0.283900 0.528200
vn 0.476800 -0.850800 0.220900
vn 0.397000 -0.850300 0.345600
vn 0.729600 -0.279500 0.624200
vn 0.768900 -0.217300 0.601300
vn 0.288400 0.580800 0.761200
vn 0.575900 0.196200 0.793600
vn 0.469900 0.366400 0.803100
vn 0.675400 -0.626400 -0.389100
vn 0.913700 -0.349200 0.207700
vn 0.907100 -0.381200 0.178300
vn 0.883400 -0.457300 0.102000
vn 0.844600 -0.360700 0.395600
vn 0.915400 -0.129200 0.381300
vn 0.925300 -0.338600 0.170900
vn 0.790100 -0.567000 0.232900
vn 0.805900 0.555200 0.205600
vn 0.824800 0.531600 0.192200
vn 0.848800 0.500100 0.171500
vn 0.852100 0.459400 0.250800
vn 0.749100 0.660700 0.047400
vn 0.981200 0.185900 0.051500
vn 0.849800 -0.470300 0.238100
vn 0.959500 -0.280600 0.025600
usemtl None
s 1
f 204/155/200 205/156/200 208/157/201 207/158/202
f 210/159/203 233/160/204 240/161/205 212/162/206
f 233/160/204 210/159/203 226/163/207 265/164/208
f 215/165/209 217/166/210 209/167/211 203/168/212
f 206/169/213 203/168/212 225/170/214 222/171/215
f 218/172/216 251/173/217 245/174/218 213/175/219
f 234/176/220 209/167/211 213/175/219 245/174/218
f 206/169/213 216/177/221 215/165/209 203/168/212
f 209/167/211 217/166/210 218/172/216 213/175/219
f 207/158/202 208/157/201 216/177/221 214/178/222
f 221/179/223 219/180/224 211/181/225 229/182/226
f 219/180/224 220/183/227 228/184/228 211/181/225
f 212/185/206 240/186/205 255/187/229 220/183/227
f 227/188/230 226/163/207 223/189/231 222/171/215
f 224/190/232 227/188/230 222/171/215 225/170/214
f 264/191/233 263/192/234 227/188/230 224/190/232
f 263/192/234 265/164/208 226/163/207 227/188/230
f 209/167/211 234/176/220 264/191/233 224/190/232
f 203/168/212 209/167/211 224/190/232 225/170/214
f 211/181/225 237/193/235 269/194/236 229/182/226
f 228/184/228 268/195/237 237/193/235 211/181/225
f 257/196/238 221/179/223 229/182/226 269/194/236
f 220/183/227 255/187/229 268/195/237 228/184/228
f 230/197/239 259/189/240 258/171/241 236/169/242
f 242/159/243 262/163/244 259/189/240 230/197/239
f 247/178/245 230/197/239 236/169/242 249/177/246
f 232/155/247 238/158/248 239/157/249 235/156/247
f 242/159/243 244/162/250 240/161/205 233/160/204
f 233/160/204 265/164/208 262/163/244 242/159/243
f 248/165/251 231/168/252 241/167/253 250/166/254
f 236/169/242 258/171/241 261/170/255 231/168/252
f 252/172/256 246/175/257 245/174/218 251/173/217
f 234/176/220 245/174/218 246/175/257 241/167/253
f 236/169/242 231/168/252 248/165/251 249/177/246
f 241/167/253 246/175/257 252/172/256 250/166/254
f 238/158/248 247/178/245 249/177/246 239/157/249
f 256/179/258 270/182/259 243/181/260 253/180/261
f 253/180/261 243/181/260 267/184/262 254/183/263
f 244/185/250 254/183/263 255/187/229 240/186/205
f 266/188/264 258/171/241 259/189/240 262/163/244
f 260/190/265 261/170/255 258/171/241 266/188/264
f 264/191/233 260/190/265 266/188/264 263/192/234
f 263/192/234 266/188/264 262/163/244 265/164/208
f 241/167/253 260/190/265 264/191/233 234/176/220
f 231/168/252 261/170/255 260/190/265 241/167/253
f 243/181/260 270/182/259 269/194/236 237/193/235
f 267/184/262 243/181/260 237/193/235 268/195/237
f 257/196/238 269/194/236 270/182/259 256/179/258
f 254/183/263 267/184/262 268/195/237 255/187/229
o Cube.001_Cube.000
v 0.337329 1.926482 3.130526
v 0.292417 1.764093 3.387069
v 0.306315 1.777132 2.899562
v 0.652111 -0.246627 2.986419
v 0.584725 0.112789 3.708071
v 0.805807 0.149943 3.301665
v 0.429649 0.793224 3.033378
v 0.396674 1.010394 3.497558
v 0.577795 1.003718 3.212091
v 0.756340 -0.410556 2.921686
v 0.658372 0.047397 3.925401
v 0.979790 0.036243 3.360149
v 0.894926 -1.542935 2.937499
v 0.709456 -0.570336 3.971152
v 0.975669 -3.529972 2.776448
v 0.988891 -3.234623 4.412982
v 1.512956 -3.442291 3.522333
v 0.945392 -2.983765 2.810942
v 1.473465 -2.770490 3.489414
v 0.923259 -2.602339 4.213778
v 0.993042 -0.606816 3.072216
v 1.112420 -0.377166 3.380734
v 0.922682 -0.277922 3.793068
v 1.092571 -1.420074 3.083573
v 1.388724 -1.491645 3.444735
v 0.987067 -1.056492 3.850732
v 1.143327 -1.886711 3.975727
v 1.108179 -2.172671 3.040449
v 1.483379 -2.375391 3.477254
v 0.684554 -1.275216 4.398366
v 0.799499 -1.906487 4.490312
v 0.711864 -1.781943 2.656608
v 0.741085 -2.616212 2.583329
v 1.053010 -3.999302 2.516284
v 1.070414 -3.610547 4.670390
v 1.760221 -3.883891 3.498062
v -0.337329 1.926482 3.130526
v 0.000000 2.078669 3.228989
v -0.292417 1.764093 3.387069
v 0.000000 1.906799 3.380955
v -0.306315 1.777132 2.899562
v 0.000000 1.906938 2.753626
v -0.652111 -0.246627 2.986419
v 0.000000 -0.178967 2.765987
v -0.584725 0.112789 3.708071
v -0.805807 0.149943 3.301665
v 0.000000 0.054176 3.970030
v -0.429649 0.793224 3.033378
v 0.000000 0.911069 2.798507
v -0.396674 1.010394 3.497558
v -0.577795 1.003718 3.212091
v 0.000000 1.116789 3.541997
v -0.756340 -0.410556 2.921686
v 0.000000 -0.324346 2.615097
v -0.658372 0.047397 3.925401
v -0.979790 0.036243 3.360149
v 0.000000 -0.027285 4.289748
v -0.894926 -1.542935 2.937499
v 0.000000 -0.839018 2.477764
v -0.709456 -0.570336 3.971152
v 0.000000 -1.336370 4.686998
v 0.000000 -0.337520 4.439206
v -0.975669 -3.529972 2.776448
v 0.000000 -3.477086 2.276561
v -0.988891 -3.234623 4.412982
v -1.512956 -3.442291 3.522333
v 0.000000 -3.294851 5.007042
v -0.945392 -2.983765 2.810942
v 0.000000 -3.277773 2.266358
v -1.473465 -2.770490 3.489414
v 0.000000 -2.746028 4.730167
v -0.923259 -2.602339 4.213778
v -0.993042 -0.606816 3.072216
v -1.112420 -0.377166 3.380734
v -0.922682 -0.277922 3.793068
v -1.092571 -1.420074 3.083573
v -1.388724 -1.491645 3.444735
v -0.987067 -1.056492 3.850732
v -1.143327 -1.886711 3.975727
v -1.108179 -2.172671 3.040449
v -1.483379 -2.375391 3.477254
v -0.684554 -1.275216 4.398366
v -0.799499 -1.906487 4.490312
v 0.000000 -2.417578 4.781104
v -0.711864 -1.781943 2.656608
v 0.000000 -1.378626 2.341177
v -0.741085 -2.616212 2.583329
v 0.000000 -2.665827 2.353652
v -1.053010 -3.999302 2.516284
v 0.000000 -3.929691 1.858302
v -1.070414 -3.610547 4.670390
v -1.760221 -3.883891 3.498062
v 0.000000 -3.689822 5.452329
v 0.000000 -3.809757 3.655315
vt 0.342931 0.820727
vt 0.373543 0.866041
vt 0.357989 0.867670
vt 0.325491 0.835751
vt 0.352625 0.801999
vt 0.381856 0.854351
vt 0.318970 0.737138
vt 0.307616 0.771558
vt 0.281129 0.788853
vt 0.378442 0.888511
vt 0.361422 0.888511
vt 0.403573 0.862902
vt 0.365411 0.727702
vt 0.387370 0.799578
vt 0.315159 0.862386
vt 0.249075 0.819139
vt 0.301665 0.638579
vt 0.288435 0.668368
vt 0.278699 0.661484
vt 0.294848 0.627820
vt 0.345469 0.631405
vt 0.345469 0.617959
vt 0.269994 0.689992
vt 0.254089 0.727232
vt 0.232059 0.726783
vt 0.256066 0.688057
vt 0.227301 0.666598
vt 0.217127 0.633417
vt 0.250513 0.664370
vt 0.209773 0.720326
vt 0.130757 0.578918
vt 0.173022 0.526684
vt 0.189236 0.548437
vt 0.180863 0.596871
vt 0.260229 0.567949
vt 0.337667 0.583706
vt 0.276930 0.433589
vt 0.217984 0.482870
vt 0.200752 0.448619
vt 0.271338 0.421624
vt 0.141636 0.486083
vt 0.074788 0.628063
vt 0.038636 0.609665
vt 0.092255 0.549710
vt 0.227988 0.539115
vt 0.147893 0.689064
vt 0.179075 0.651832
vt 0.264573 0.643190
vt 0.274948 0.622935
vt 0.271459 0.544093
vt 0.327678 0.548923
vt 0.223230 0.591275
vt 0.249903 0.581640
vt 0.089911 0.643873
vt 0.149130 0.626280
vt 0.247819 0.495943
vt 0.292862 0.471534
vt 0.191779 0.411861
vt 0.268743 0.380527
vt 0.120809 0.456419
vt 0.000235 0.598112
vt 0.063979 0.535332
vt 0.765950 0.923837
vt 0.715704 0.852837
vt 0.833665 0.853687
vt 0.844804 0.969004
vt 0.951627 0.852837
vt 0.909430 0.922512
vn 0.973600 0.223500 -0.046600
vn 0.738000 0.674800 -0.000200
vn 0.539500 0.364200 0.759100
vn 0.586600 0.285300 0.757900
vn 0.622800 0.090800 -0.777100
vn 0.654800 0.312900 -0.687900
vn 0.456000 0.412300 -0.788700
vn 0.788400 0.556900 -0.261100
vn 0.431100 0.741700 0.513700
vn 0.000000 0.979600 0.201100
vn 0.000000 0.557200 0.830300
vn 0.000000 0.545100 -0.838300
vn 0.000000 0.395100 -0.918600
vn 0.000000 0.001800 -1.000000
vn 0.000000 0.247500 0.968900
vn 0.000000 0.808300 0.588700
vn 0.750100 0.640600 -0.164000
vn 0.538200 0.300500 -0.787400
vn 0.000000 0.390500 -0.920600
vn 0.000000 0.609200 0.793000
vn 0.478600 0.657600 0.581800
vn 0.567900 0.187900 0.801300
vn 0.704800 0.176800 0.687000
vn 0.752700 0.239700 0.613100
vn 0.000000 0.298600 0.954300
vn 0.701700 0.089800 0.706800
vn 0.997300 0.059400 -0.042400
vn 0.999000 0.030200 -0.031300
vn 0.713400 0.132800 0.688000
vn 0.608600 0.122200 -0.784000
vn 0.000000 0.192200 -0.981300
vn 0.000000 0.013100 -0.999900
vn 0.665000 0.029700 -0.746200
vn 0.637500 0.296600 -0.711100
vn 0.000000 0.373400 -0.927700
vn 0.937400 0.339500 -0.077500
vn 0.000000 0.124500 0.992200
vn 0.000000 0.591200 0.806500
vn 0.665300 0.413700 0.621400
vn 0.706800 0.053500 -0.705400
vn 0.000000 0.232100 0.972700
vn 0.728600 0.214300 0.650500
vn 0.952500 0.294800 -0.076400
vn 0.721600 0.154100 -0.674900
vn 0.603500 0.130700 -0.786600
vn 0.000000 0.224600 -0.974400
vn 0.986000 0.159200 -0.049100
vn 0.708000 0.086100 -0.700900
vn 0.000000 -0.116600 0.993200
vn 0.731400 0.065400 0.678700
vn 0.574900 0.026600 -0.817800
vn 0.000000 -0.007300 -1.000000
vn 0.562200 -0.526700 -0.637600
vn 0.000000 -0.377500 -0.926000
vn 0.899700 -0.432000 -0.063400
vn 0.000000 -0.286700 0.958000
vn 0.652800 -0.296800 0.697000
vn 0.000000 -0.992300 0.123400
vn -0.973600 0.223500 -0.046600
vn -0.586600 0.285300 0.757900
vn -0.539500 0.364200 0.759100
vn -0.738000 0.674800 -0.000200
vn -0.622800 0.090800 -0.777100
vn -0.654800 0.312900 -0.687900
vn -0.456000 0.412300 -0.788700
vn -0.788400 0.556900 -0.261100
vn -0.431100 0.741700 0.513700
vn -0.538200 0.300500 -0.787400
vn -0.750100 0.640600 -0.164000
vn -0.478600 0.657600 0.581800
vn -0.752700 0.239700 0.613100
vn -0.704800 0.176800 0.687000
vn -0.567900 0.187900 0.801300
vn -0.701700 0.089800 0.706800
vn -0.713400 0.132800 0.688000
vn -0.999000 0.030200 -0.031300
vn -0.997300 0.059400 -0.042400
vn -0.608600 0.122200 -0.784000
vn -0.637500 0.296600 -0.711100
vn -0.665000 0.029700 -0.746200
vn -0.937400 0.339500 -0.077500
vn -0.665300 0.413700 0.621400
vn -0.706800 0.053500 -0.705400
vn -0.728600 0.214300 0.650500
vn -0.721600 0.154100 -0.674900
vn -0.952500 0.294800 -0.076400
vn -0.603500 0.130700 -0.786600
vn -0.708000 0.086100 -0.700900
vn -0.986000 0.159200 -0.049100
vn -0.731400 0.065400 0.678700
vn -0.574900 0.026600 -0.817800
vn -0.562200 -0.526700 -0.637600
vn -0.899700 -0.432000 -0.063400
vn -0.652800 -0.296800 0.697000
usemtl None
s 1
f 279/198/266 271/199/267 272/200/268 278/201/269
f 277/202/270 273/203/271 271/199/267 279/198/266
f 274/204/272 277/202/270 279/198/266 276/205/273
f 276/205/273 279/198/266 278/201/269 275/206/274
f 271/199/267 308/207/275 310/208/276 272/200/268
f 271/199/267 273/203/271 312/209/277 308/207/275
f 277/202/270 274/204/272 314/210/278 319/211/279
f 272/200/268 310/208/276 322/212/280 278/201/269
f 278/201/269 322/212/280 317/213/281 275/206/274
f 273/203/271 277/202/270 319/211/279 312/209/277
f 274/214/272 276/215/273 282/216/282 280/217/283
f 314/218/278 274/214/272 280/217/283 324/219/284
f 275/220/274 317/221/281 327/222/285 281/223/286
f 276/215/273 275/220/274 281/223/286 282/216/282
f 281/223/286 284/224/287 296/225/288 293/226/289
f 281/223/286 327/222/285 332/227/290 284/224/287
f 290/228/291 289/229/292 299/230/293 297/231/294
f 324/219/284 280/217/283 283/232/295 329/233/296
f 339/234/297 288/235/298 285/236/299 334/237/300
f 288/235/298 289/229/292 287/238/301 285/236/299
f 290/228/291 341/239/302 337/240/303 286/241/304
f 289/229/292 290/228/291 286/241/304 287/238/301
f 289/229/292 288/235/298 298/242/305 299/230/293
f 284/224/287 332/227/290 331/243/306 300/244/307
f 280/217/283 282/216/282 292/245/308 291/246/309
f 329/233/296 283/232/295 302/247/310 356/248/311
f 291/246/309 292/245/308 295/249/312 294/250/313
f 292/245/308 293/226/289 296/225/288 295/249/312
f 295/249/312 296/225/288 297/231/294 299/230/293
f 294/250/313 295/249/312 299/230/293 298/242/305
f 283/232/295 280/217/283 291/246/309 294/250/313
f 282/216/282 281/223/286 293/226/289 292/245/308
f 284/224/287 290/228/291 297/231/294 296/225/288
f 288/235/298 283/232/295 294/250/313 298/242/305
f 300/244/307 331/243/306 354/251/314 301/252/315
f 341/239/302 290/228/291 301/252/315 354/251/314
f 290/228/291 284/224/287 300/244/307 301/252/315
f 356/248/311 302/247/310 303/253/316 358/254/317
f 288/235/298 339/234/297 358/254/317 303/253/316
f 283/232/295 288/235/298 303/253/316 302/247/310
f 334/237/300 285/236/299 304/255/318 360/256/319
f 285/236/299 287/238/301 306/257/320 304/255/318
f 286/241/304 337/240/303 363/258/321 305/259/322
f 287/238/301 286/241/304 305/259/322 306/257/320
f 305/260/322 363/261/321 364/262/323 306/263/320
f 306/263/320 364/262/323 360/264/319 304/265/318
f 321/198/324 320/201/325 309/200/326 307/199/327
f 318/202/328 321/198/324 307/199/327 311/203/329
f 313/204/330 316/205/331 321/198/324 318/202/328
f 316/205/331 315/206/332 320/201/325 321/198/324
f 307/199/327 309/200/326 310/208/276 308/207/275
f 307/199/327 308/207/275 312/209/277 311/203/329
f 318/202/328 319/211/279 314/210/278 313/204/330
f 309/200/326 320/201/325 322/212/280 310/208/276
f 320/201/325 315/206/332 317/213/281 322/212/280
f 311/203/329 312/209/277 319/211/279 318/202/328
f 313/214/330 323/217/333 326/216/334 316/215/331
f 314/218/278 324/219/284 323/217/333 313/214/330
f 315/220/332 325/223/335 327/222/285 317/221/281
f 316/215/331 326/216/334 325/223/335 315/220/332
f 325/223/335 345/226/336 348/225/337 330/224/338
f 325/223/335 330/224/338 332/227/290 327/222/285
f 342/228/339 349/231/340 351/230/341 340/229/342
f 324/219/284 329/233/296 328/232/343 323/217/333
f 339/234/297 334/237/300 333/236/344 338/235/345
f 338/235/345 333/236/344 336/238/346 340/229/342
f 342/228/339 335/241/347 337/240/303 341/239/302
f 340/229/342 336/238/346 335/241/347 342/228/339
f 340/229/342 351/230/341 350/242/348 338/235/345
f 330/224/338 352/244/349 331/243/306 332/227/290
f 323/217/333 343/246/350 344/245/351 326/216/334
f 329/233/296 356/248/311 355/247/352 328/232/343
f 343/246/350 346/250/353 347/249/354 344/245/351
f 344/245/351 347/249/354 348/225/337 345/226/336
f 347/249/354 351/230/341 349/231/340 348/225/337
f 346/250/353 350/242/348 351/230/341 347/249/354
f 328/232/343 346/250/353 343/246/350 323/217/333
f 326/216/334 344/245/351 345/226/336 325/223/335
f 330/224/338 348/225/337 349/231/340 342/228/339
f 338/235/345 350/242/348 346/250/353 328/232/343
f 352/244/349 353/252/355 354/251/314 331/243/306
f 341/239/302 354/251/314 353/252/355 342/228/339
f 342/228/339 353/252/355 352/244/349 330/224/338
f 356/248/311 358/254/317 357/253/356 355/247/352
f 338/235/345 357/253/356 358/254/317 339/234/297
f 328/232/343 355/247/352 357/253/356 338/235/345
f 334/237/300 360/256/319 359/255/357 333/236/344
f 333/236/344 359/255/357 362/257/358 336/238/346
f 335/241/347 361/259/359 363/258/321 337/240/303
f 336/238/346 362/257/358 361/259/359 335/241/347
f 361/260/359 362/263/358 364/262/323 363/261/321
f 362/263/358 359/265/357 360/264/319 364/262/323
o Cube_Cube.004
v 1.623999 -0.989763 -3.259309
v 0.613862 0.052369 0.443859
v 1.706704 0.645927 -2.973047
v 0.707821 2.773702 3.955660
v 1.123658 1.811804 -0.013453
v 1.167826 -0.298102 -0.658678
v 0.624836 2.577764 3.922729
v 0.638734 2.935812 3.755112
v 0.949086 1.219950 1.152846
v 1.903864 0.141149 -2.972438
v 1.346460 0.998559 -0.262963
v 1.284422 1.526435 0.661328
v 1.978030 0.130246 -4.704288
v 2.385158 -0.504132 -4.710676
v 2.038751 -1.543105 -4.145661
v 0.984530 2.481138 1.939857
v 0.917144 1.909511 2.406466
v 1.062245 2.309040 2.215182
v 0.788502 0.976897 -3.019054
v 0.252250 0.150419 0.700132
v 0.734301 -1.577636 -2.981114
v 0.306016 2.787925 4.138526
v 0.551543 2.065183 0.199595
v 0.994288 -2.702667 -3.459897
v 0.270139 2.589785 4.121887
v 0.276148 2.951316 3.933876
v 0.505626 1.179496 1.483673
v 1.283503 0.493835 -4.879620
v 0.794702 -2.076833 -3.679329
v 0.542855 1.905631 2.646972
v 0.455477 2.507414 2.072556
v 0.262307 0.164004 0.963268
v 0.319701 1.099182 1.713847
v 0.263660 1.769010 2.751736
v 1.858625 -0.356739 -2.922341
v 0.880610 0.715604 0.876206
v 1.398710 0.359390 -0.447760
v 0.438960 0.623927 1.101400
v 0.291004 0.631593 1.348055
v 2.010163 -2.476528 -4.304847
v 1.249785 -2.650247 -3.693589
v 1.549227 0.378885 -5.537092
v 3.222961 0.004659 -5.533777
v 3.097075 -0.555498 -5.526114
v 3.538707 -1.332693 -5.493927
v 1.163004 -2.224458 -5.746668
v 2.805502 -2.403463 -5.244847
v 1.351615 -2.680583 -5.776276
v 2.484982 -1.440250 -4.985855
v 1.991661 -1.998943 -4.399420
v 2.714674 -0.540517 -5.075864
v 1.022243 -2.349864 -3.713812
v 1.611720 -3.535163 -3.380607
v 2.306744 -3.527709 -4.194427
v 3.334667 -3.526165 -5.409317
v 1.455612 -3.532022 -6.096154
v 1.537945 0.337374 -6.388184
v 3.665677 -0.017594 -6.358209
v 3.301555 -0.548925 -6.377770
v 3.627437 -1.036494 -6.185998
v 1.073631 -1.797226 -6.597996
v 1.064255 -0.474376 -6.367712
v 1.163340 -0.495683 -0.683673
v 1.226954 -0.982965 -2.115019
v 0.334067 -0.093567 0.408752
v 0.611481 -0.210810 0.086817
v 0.679294 -1.624338 -2.465787
v 0.667422 -0.766799 -0.722916
v 0.856125 -2.520274 -3.472176
v 1.318774 -3.295779 -3.331321
v -1.623999 -0.989763 -3.259309
v -0.613862 0.052369 0.443859
v -1.706704 0.645927 -2.973047
v -0.707821 2.773702 3.955660
v 0.000000 1.030401 -2.947025
v 0.000000 -1.844332 -3.137779
v 0.000000 2.798757 4.211073
v 0.000000 0.101500 0.811098
v -1.123658 1.811804 -0.013453
v -1.167826 -0.298102 -0.658678
v 0.000000 -2.704239 -2.985794
v 0.000000 2.142292 0.202396
v -0.624836 2.577764 3.922729
v 0.000000 2.598941 4.173572
v -0.638734 2.935812 3.755112
v 0.000000 2.963124 4.003301
v -0.949086 1.219950 1.152846
v -1.903864 0.141149 -2.972438
v -1.346460 0.998559 -0.262963
v -1.284422 1.526435 0.661328
v 0.000000 0.651294 -4.885125
v -1.978030 0.130246 -4.704288
v -2.385158 -0.504132 -4.710676
v -2.038751 -1.543105 -4.145661
v 0.000000 -2.130983 -3.339117
v -0.984530 2.481138 1.939857
v 0.000000 2.555503 2.116152
v -0.917144 1.909511 2.406466
v -1.062245 2.309040 2.215182
v -0.788502 0.976897 -3.019054
v -0.252250 0.150419 0.700132
v -0.734301 -1.577636 -2.981114
v -0.306016 2.787925 4.138526
v -0.551543 2.065183 0.199595
v -0.994288 -2.702667 -3.459897
v -0.270139 2.589785 4.121887
v -0.276148 2.951316 3.933876
v -0.505626 1.179496 1.483673
v -1.283503 0.493835 -4.879620
v -0.794702 -2.076833 -3.679329
v -0.542855 1.905631 2.646972
v -0.455477 2.507414 2.072556
v 0.000000 1.111255 1.848481
v 0.000000 0.164004 1.074599
v 0.000000 1.766055 2.834910
v -0.262307 0.164004 0.963268
v -0.319701 1.099182 1.713847
v -0.263660 1.769010 2.751736
v -1.858625 -0.356739 -2.922341
v -0.880610 0.715604 0.876206
v -1.398710 0.359390 -0.447760
v -0.438960 0.623927 1.101400
v 0.000000 0.637629 1.471038
v -0.291004 0.631593 1.348055
v -2.010163 -2.476528 -4.304847
v -1.249785 -2.650247 -3.693589
v -1.549227 0.378885 -5.537092
v -3.222961 0.004659 -5.533777
v -3.097075 -0.555498 -5.526114
v -3.538707 -1.332693 -5.493927
v -1.163004 -2.224458 -5.746668
v 0.000000 -2.071233 -5.493927
v 0.000000 0.536344 -5.542597
v -2.805502 -2.403463 -5.244847
v -1.351615 -2.680583 -5.776276
v 0.000000 -2.658038 -5.487245
v -2.484982 -1.440250 -4.985855
v -1.991661 -1.998943 -4.399420
v -2.714674 -0.540517 -5.075864
v -1.022243 -2.349864 -3.713812
v 0.000000 -2.339770 -3.497436
v -1.611720 -3.535163 -3.380607
v -2.306744 -3.527709 -4.194427
v -3.334667 -3.526165 -5.409317
v 0.000000 -3.528214 -2.225122
v -1.455612 -3.532022 -6.096154
v 0.000000 -3.531545 -5.722600
v -1.537945 0.337374 -6.388184
v -3.665677 -0.017594 -6.358209
v -3.301555 -0.548925 -6.377770
v -3.627437 -1.036494 -6.185998
v -1.073631 -1.797226 -6.597996
v 0.000000 -0.451589 -6.370323
v 0.000000 -1.533732 -6.347238
v 0.000000 0.486730 -6.393405
v -1.064255 -0.474376 -6.367712
v -1.163340 -0.495683 -0.683673
v -1.226954 -0.982965 -2.115019
v -0.334067 -0.093567 0.408752
v -0.611481 -0.210810 0.086817
v -0.679294 -1.624338 -2.465787
v 0.000000 -0.905011 -0.719986
v 0.000000 -0.271946 0.597970
v 0.000000 -1.852413 -2.693256
v -0.667422 -0.766799 -0.722916
v -0.856125 -2.520274 -3.472176
v 0.000000 -2.478024 -3.293305
v 0.000000 -3.254712 -2.580095
v -1.318774 -3.295779 -3.331321
vt 0.340106 0.163889
vt 0.378703 0.131728
vt 0.453332 0.141605
vt 0.450040 0.218397
vt 0.601243 0.589001
vt 0.506574 0.603816
vt 0.505583 0.593947
vt 0.590246 0.561142
vt 0.204819 0.088790
vt 0.212759 0.078850
vt 0.307526 0.090869
vt 0.066430 0.221493
vt 0.279570 0.283504
vt 0.255177 0.329026
vt 0.052323 0.254643
vt 0.604991 0.640939
vt 0.739761 0.631751
vt 0.738606 0.671901
vt 0.598055 0.671901
vt 0.376504 0.055084
vt 0.343373 0.043995
vt 0.172911 0.123748
vt 0.481755 0.605956
vt 0.453802 0.608772
vt 0.457676 0.587256
vt 0.480027 0.591150
vt 0.489668 0.625194
vt 0.465757 0.637542
vt 0.644837 0.499395
vt 0.566547 0.546262
vt 0.553764 0.529332
vt 0.626639 0.488925
vt 0.139826 0.152948
vt 0.096754 0.191507
vt 0.069349 0.151518
vt 0.050480 0.112141
vt 0.306994 0.224697
vt 0.326819 0.194835
vt 0.616268 0.604600
vt 0.512498 0.613432
vt 0.480120 0.852837
vt 0.550778 0.885223
vt 0.554911 0.917577
vt 0.468736 0.889104
vt 0.391768 0.003649
vt 0.413826 0.000988
vt 0.433385 0.052144
vt 0.421921 0.257247
vt 0.405995 0.305890
vt 0.757964 0.586815
vt 0.714093 0.553659
vt 0.066622 0.062809
vt 0.026993 0.084885
vt 0.014395 0.068979
vt 0.049959 0.052230
vt 0.677688 0.521795
vt 0.082335 0.091996
vt 0.370780 0.380057
vt 0.573211 0.313136
vt 0.605685 0.276912
vt 0.636846 0.285443
vt 0.363605 0.000235
vt 0.101538 0.037560
vt 0.125483 0.057666
vt 0.154417 0.052414
vt 0.037255 0.035590
vt 0.075225 0.020186
vt 0.084187 0.035796
vt 0.539707 0.517453
vt 0.607885 0.474320
vt 0.094158 0.018936
vt 0.000235 0.050904
vt 0.453802 0.383479
vt 0.531039 0.345692
vt 0.566929 0.377218
vt 0.473972 0.423012
vt 0.641173 0.223968
vt 0.711807 0.251171
vt 0.675144 0.298313
vt 0.247433 0.895399
vt 0.079866 0.930093
vt 0.076676 0.870486
vt 0.243548 0.841214
vt 0.664794 0.333145
vt 0.727125 0.325114
vt 0.713350 0.365300
vt 0.000235 0.931390
vt 0.006524 0.864753
vt 0.739233 0.289098
vt 0.583623 0.201430
vt 0.602937 0.172825
vt 0.579798 0.048393
vt 0.550031 0.107303
vt 0.530150 0.094935
vt 0.557432 0.058492
vt 0.659097 0.919112
vt 0.673929 0.999765
vt 0.544887 0.976964
vt 0.715234 0.852837
vt 0.530597 0.124805
vt 0.609108 0.140501
vt 0.518597 0.104777
vt 0.684605 0.171803
vt 0.510949 0.139224
vt 0.455849 0.129035
vt 0.462003 0.113240
vt 0.649866 0.852367
vt 0.579767 0.852044
vt 0.708945 0.729350
vt 0.754101 0.852365
vt 0.453802 0.820340
vt 0.628683 0.672371
vt 0.642643 0.075783
vt 0.453802 0.944801
vt 0.739235 0.111843
vt 0.072381 0.789868
vt 0.221887 0.803042
vt 0.001998 0.791375
vt 0.000235 0.727702
vt 0.104833 0.736378
vt 0.248605 0.768108
vt 0.591402 0.428451
vt 0.499126 0.473850
vt 0.220214 0.045166
vt 0.129012 0.036655
vt 0.121377 0.008525
vt 0.220978 0.000235
vt 0.461592 0.072597
vt 0.463547 0.028910
vt 0.461831 0.097251
vt 0.461173 0.000235
vn 0.933300 -0.218900 0.284600
vn 0.773400 -0.497700 0.392500
vn 0.762700 -0.313200 0.565800
vn 0.874400 0.158500 0.458500
vn 0.984900 0.087000 0.149800
vn 0.758600 0.263700 0.595800
vn 0.600800 -0.546100 0.583700
vn 0.692500 -0.604500 0.393700
vn 0.792400 -0.463100 0.396900
vn 0.670400 -0.617400 0.411600
vn 0.725300 -0.636900 0.261400
vn 0.152400 0.949400 -0.274500
vn 0.217600 0.943800 -0.248500
vn 0.000000 0.962500 -0.271300
vn 0.000000 0.962900 -0.269900
vn 0.060600 0.969900 -0.235800
vn 0.000000 0.975800 -0.218600
vn 0.483500 -0.811400 0.328300
vn 0.419000 -0.876500 0.237200
vn 0.903100 -0.273000 0.331400
vn 0.328200 0.329400 0.885300
vn 0.000000 0.354500 0.935000
vn 0.000000 -0.526000 0.850400
vn 0.279000 -0.551700 0.785900
vn 0.149300 0.963900 0.220400
vn 0.000000 0.960800 0.277000
vn 0.573700 -0.624000 0.530500
vn 0.429600 -0.784800 0.446500
vn 0.371300 -0.785900 0.494400
vn 0.502300 -0.649700 0.570500
vn 0.981200 0.057700 0.183900
vn 0.680200 0.709500 -0.184200
vn 0.992500 -0.027800 0.119000
vn 0.755400 -0.470400 0.456000
vn 0.723200 0.686200 -0.077500
vn 0.970000 0.191700 0.149100
vn 0.592600 0.788700 -0.163400
vn 0.459100 0.884400 0.084000
vn 0.000000 -0.515900 -0.856600
vn 0.013400 -0.536700 -0.843600
vn 0.058300 0.107200 -0.992500
vn 0.000000 0.135800 -0.990700
vn 0.000000 -0.911400 0.411500
vn 0.000000 -0.549900 0.835200
vn 0.405000 -0.445800 0.798200
vn 0.609400 0.779800 0.143400
vn 0.228500 0.967900 -0.104800
vn 0.667700 -0.518400 0.534300
vn 0.583200 -0.542600 0.604500
vn 0.709000 -0.431500 0.557700
vn 0.000000 0.983600 -0.180600
vn 0.671300 0.101500 0.734200
vn 0.000000 -0.988100 0.153900
vn 0.475300 -0.685000 0.552200
vn 0.514900 -0.627600 0.583900
vn 0.486500 -0.659400 0.573100
vn 0.000000 -0.633400 0.773800
vn 0.000000 -0.836100 0.548600
vn 0.552200 -0.745000 0.374100
vn 0.000000 -0.845700 0.533600
vn 0.000000 -0.760200 0.649600
vn 0.000000 -0.894600 0.446800
vn 0.183400 0.983000 0.004200
vn 0.000000 0.994700 -0.102600
vn 0.714000 -0.018300 0.699900
vn 0.943900 -0.249700 0.215900
vn 0.767100 0.099200 0.633800
vn 0.011900 -0.531400 -0.847000
vn 0.874700 -0.032400 -0.483500
vn 0.727100 0.515500 0.453300
vn 0.630100 0.036000 -0.775700
vn 0.844900 0.338000 -0.414600
vn 0.000000 -0.435000 -0.900400
vn 0.651200 -0.059100 0.756600
vn 0.545500 -0.498800 0.673500
vn 0.557400 0.384000 0.736100
vn 0.459800 0.500100 0.733800
vn 0.470700 0.531600 0.704100
vn 0.969200 0.148300 -0.196300
vn 0.893500 -0.374900 -0.247300
vn 0.054800 -0.524300 -0.849700
vn 0.483500 0.196800 0.852900
vn 0.629300 0.242400 0.738400
vn 0.308400 0.660700 0.684300
vn 0.000000 0.345900 0.938300
vn 0.587000 -0.584900 0.559600
vn 0.000000 -0.344500 0.938700
vn 0.000000 -0.663300 -0.748300
vn -0.006100 0.021500 -0.999700
vn 0.000000 0.029200 -0.999500
vn 0.000000 0.699600 -0.714500
vn 0.103900 0.694200 -0.712100
vn 0.368800 -0.814400 0.448000
vn 0.376100 -0.715500 0.588600
vn 0.000000 -0.740200 0.672400
vn 0.000000 -0.882200 0.470900
vn 0.000000 0.589600 0.807600
vn 0.000000 0.633700 0.773500
vn 0.000000 0.732100 0.681100
vn -0.933300 -0.218900 0.284600
vn -0.874400 0.158500 0.458500
vn -0.762700 -0.313200 0.565800
vn -0.773400 -0.497700 0.392500
vn -0.984900 0.087000 0.149800
vn -0.692500 -0.604500 0.393700
vn -0.600800 -0.546100 0.583700
vn -0.758600 0.263700 0.595800
vn -0.725300 -0.636900 0.261400
vn -0.670400 -0.617400 0.411600
vn -0.792400 -0.463100 0.396900
vn -0.152400 0.949400 -0.274500
vn -0.217600 0.943800 -0.248500
vn -0.060600 0.969900 -0.235800
vn -0.483500 -0.811400 0.328300
vn -0.419000 -0.876500 0.237200
vn -0.903100 -0.273000 0.331400
vn -0.328200 0.329400 0.885300
vn -0.279000 -0.551700 0.785900
vn -0.149300 0.963900 0.220400
vn -0.573700 -0.624000 0.530500
vn -0.502300 -0.649700 0.570500
vn -0.371300 -0.785900 0.494400
vn -0.429600 -0.784800 0.446500
vn -0.981200 0.057700 0.183900
vn -0.992500 -0.027800 0.119000
vn -0.680200 0.709500 -0.184200
vn -0.755400 -0.470400 0.456000
vn -0.723200 0.686200 -0.077500
vn -0.970000 0.191700 0.149100
vn -0.592600 0.788700 -0.163400
vn -0.459100 0.884400 0.084000
vn -0.058300 0.107200 -0.992500
vn -0.013400 -0.536700 -0.843600
vn -0.405000 -0.445800 0.798200
vn -0.228500 0.967900 -0.104800
vn -0.609400 0.779800 0.143400
vn -0.667700 -0.518400 0.534300
vn -0.583200 -0.542600 0.604500
vn -0.709000 -0.431500 0.557700
vn -0.671300 0.101500 0.734200
vn -0.514900 -0.627600 0.583900
vn -0.475300 -0.685000 0.552200
vn -0.486500 -0.659400 0.573100
vn -0.552200 -0.745000 0.374100
vn -0.183400 0.983000 0.004200
vn -0.767100 0.099200 0.633800
vn -0.943900 -0.249700 0.215900
vn -0.714000 -0.018300 0.699900
vn -0.874700 -0.032400 -0.483500
vn -0.011900 -0.531400 -0.847000
vn -0.727100 0.515500 0.453300
vn -0.844900 0.338000 -0.414600
vn -0.630100 0.036000 -0.775700
vn -0.651200 -0.059100 0.756600
vn -0.545500 -0.498800 0.673500
vn -0.470700 0.531600 0.704100
vn -0.459800 0.500100 0.733800
vn -0.557400 0.384000 0.736100
vn -0.054800 -0.524300 -0.849700
vn -0.893500 -0.374900 -0.247300
vn -0.969200 0.148300 -0.196300
vn -0.629300 0.242400 0.738400
vn -0.483500 0.196800 0.852900
vn -0.308400 0.660700 0.684300
vn -0.587000 -0.584900 0.559600
vn 0.006100 0.021500 -0.999700
vn -0.103900 0.694200 -0.712100
vn -0.368800 -0.814400 0.448000
vn -0.376100 -0.715500 0.588600
usemtl None
s 1
f 399/266/360 365/267/361 379/268/362 378/269/363
f 382/270/364 368/271/365 371/272/366 381/273/367
f 365/267/361 370/274/368 427/275/369 428/276/370
f 387/277/371 383/278/372 439/279/373 446/280/374
f 395/281/375 387/282/371 446/283/374 461/284/376
f 385/285/377 365/267/361 428/276/370 431/286/378
f 399/266/360 401/287/379 370/274/368 365/267/361
f 386/288/380 441/289/381 448/290/382 389/291/383
f 386/288/380 390/292/384 450/293/385 441/289/381
f 391/294/386 394/295/387 398/296/388 397/297/389
f 375/298/390 369/299/391 376/300/392
f 375/298/390 376/300/392 373/301/393
f 367/302/394 369/299/391 375/298/390 374/303/395
f 380/304/396 372/305/397 368/271/365 382/270/364
f 496/306/398 410/307/399 412/308/400 500/309/401
f 385/285/377 440/310/402 459/311/403 393/312/404
f 383/278/372 367/302/394 377/313/405 392/314/406
f 367/302/394 374/303/395 378/269/363 377/313/405
f 369/315/391 380/304/396 382/270/364 376/316/392
f 402/317/407 391/318/386 397/319/389 403/320/408
f 390/292/384 395/281/375 461/284/376 450/293/385
f 376/316/392 382/270/364 381/273/367 373/321/393
f 401/287/379 375/298/390 373/301/393 400/322/409
f 372/305/397 380/304/396 395/281/375 390/292/384
f 371/272/366 389/291/383 394/295/387 381/273/367
f 439/279/373 383/278/372 392/314/406 455/323/410
f 365/267/361 385/285/377 393/312/404 379/268/362
f 377/324/405 378/325/363 415/326/411
f 381/273/367 394/295/387 391/294/386 373/321/393
f 368/271/365 372/305/397 390/292/384 386/288/380
f 368/271/365 386/288/380 389/291/383 371/272/366
f 440/310/402 385/285/377 431/286/378 528/327/412
f 380/304/396 369/315/391 387/282/371 395/281/375
f 369/299/391 367/302/394 383/278/372 387/277/371
f 400/322/409 402/317/407 384/328/413 366/329/414
f 370/274/368 366/329/414 430/330/415 427/275/369
f 403/320/408 487/331/416 478/332/417 396/333/418
f 398/296/388 479/334/419 477/335/420 397/297/389
f 442/336/421 384/328/413 396/333/418 478/332/417
f 389/291/383 448/290/382 479/334/419 398/296/388
f 394/295/387 389/291/383 398/296/388
f 397/319/389 477/337/420 487/331/416 403/320/408
f 373/301/393 391/318/386 402/317/407 400/322/409
f 370/274/368 401/287/379 400/322/409 366/329/414
f 384/328/413 402/317/407 403/320/408 396/333/418
f 374/303/395 375/298/390 401/287/379 399/266/360
f 374/303/395 399/266/360 378/269/363
f 455/338/410 392/339/406 406/340/422 497/341/423
f 415/326/411 413/342/424 409/343/425 408/344/426
f 409/345/425 410/346/399 425/347/427 424/348/428
f 407/349/429 408/344/426 423/350/430 422/351/431
f 410/346/399 496/352/398 518/353/432 425/347/427
f 408/344/426 409/343/425 424/354/428 423/350/430
f 392/339/406 377/324/405 407/349/429 406/340/422
f 413/342/424 379/355/362 414/356/433
f 417/357/434 405/358/435 388/359/436 434/360/437
f 412/308/400 411/361/438 419/362/439 420/363/440
f 410/307/399 409/364/425 411/361/438 412/308/400
f 414/356/433 416/365/441 405/358/435 404/366/442
f 405/358/435 416/365/441 433/367/443 388/359/436
f 409/343/425 413/342/424 414/356/433 404/366/442 411/368/438
f 378/325/363 379/355/362 413/342/424 415/326/411
f 407/349/429 377/324/405 415/326/411 408/344/426
f 393/369/404 459/370/403 505/371/444 416/365/441
f 379/355/362 393/369/404 416/365/441 414/356/433
f 418/372/445 417/373/434 420/374/440 419/375/439
f 417/373/434 509/376/446 511/377/447 420/374/440
f 404/366/442 405/358/435 417/357/434 418/378/445
f 500/309/401 412/308/400 420/363/440 511/379/447
f 411/368/438 404/366/442 418/378/445 419/380/439
f 426/381/448 423/382/430 424/348/428 425/347/427
f 517/383/449 426/381/448 425/347/427 518/353/432
f 519/384/450 421/385/451 426/381/448 517/383/449
f 421/385/451 422/386/431 423/382/430 426/381/448
f 406/340/422 407/349/429 422/351/431 421/387/451
f 497/341/423 406/340/422 421/387/451 519/388/450
f 432/389/452 431/286/378 428/276/370 427/275/369
f 429/390/453 432/389/452 427/275/369 430/330/415
f 527/391/454 526/392/455 432/389/452 429/390/453
f 526/392/455 528/327/412 431/286/378 432/389/452
f 384/328/413 442/336/421 527/391/454 429/390/453
f 366/329/414 384/328/413 429/390/453 430/330/415
f 388/359/436 445/393/456 532/394/457 434/360/437
f 433/367/443 531/395/458 445/393/456 388/359/436
f 509/396/446 417/357/434 434/360/437 532/394/457
f 416/365/441 505/371/444 531/395/458 433/367/443
f 483/266/459 457/269/460 458/268/461 435/267/462
f 463/270/463 462/273/464 447/272/465 438/271/466
f 435/267/462 522/276/467 521/275/468 444/274/469
f 468/277/470 446/280/374 439/279/373 464/278/471
f 476/281/472 461/284/376 446/283/374 468/282/470
f 466/285/473 525/286/474 522/276/467 435/267/462
f 483/266/459 435/267/462 444/274/469 485/287/475
f 467/288/476 470/291/477 448/290/382 441/289/381
f 467/288/476 441/289/381 450/293/385 471/292/478
f 472/294/479 481/297/480 482/296/481 475/295/482
f 453/298/483 454/300/484 443/299/485
f 453/298/483 451/301/486 454/300/484
f 437/302/487 452/303/488 453/298/483 443/299/485
f 460/304/489 463/270/463 438/271/466 449/305/490
f 496/306/398 500/309/401 499/308/491 495/307/492
f 466/285/473 474/312/493 459/311/403 440/310/402
f 464/278/471 473/314/494 456/313/495 437/302/487
f 437/302/487 456/313/495 457/269/460 452/303/488
f 443/315/485 454/316/484 463/270/463 460/304/489
f 486/317/496 488/320/497 481/319/480 472/318/479
f 471/292/478 450/293/385 461/284/376 476/281/472
f 454/316/484 451/321/486 462/273/464 463/270/463
f 485/287/475 484/322/498 451/301/486 453/298/483
f 449/305/490 471/292/478 476/281/472 460/304/489
f 447/272/465 462/273/464 475/295/482 470/291/477
f 439/279/373 455/323/410 473/314/494 464/278/471
f 435/267/462 458/268/461 474/312/493 466/285/473
f 456/324/495 503/326/499 457/325/460
f 462/273/464 451/321/486 472/294/479 475/295/482
f 438/271/466 467/288/476 471/292/478 449/305/490
f 438/271/466 447/272/465 470/291/477 467/288/476
f 440/310/402 528/327/412 525/286/474 466/285/473
f 460/304/489 476/281/472 468/282/470 443/315/485
f 443/299/485 468/277/470 464/278/471 437/302/487
f 484/322/498 436/329/500 465/328/501 486/317/496
f 444/274/469 521/275/468 524/330/502 436/329/500
f 488/320/497 480/333/503 478/332/417 487/331/416
f 482/296/481 481/297/480 477/335/420 479/334/419
f 442/336/421 478/332/417 480/333/503 465/328/501
f 470/291/477 482/296/481 479/334/419 448/290/382
f 475/295/482 482/296/481 470/291/477
f 481/319/480 488/320/497 487/331/416 477/337/420
f 451/301/486 484/322/498 486/317/496 472/318/479
f 444/274/469 436/329/500 484/322/498 485/287/475
f 465/328/501 480/333/503 488/320/497 486/317/496
f 452/303/488 483/266/459 485/287/475 453/298/483
f 452/303/488 457/269/460 483/266/459
f 455/338/410 497/341/423 491/340/504 473/339/494
f 503/326/499 493/344/505 494/343/506 501/342/507
f 494/345/506 515/348/508 516/347/509 495/346/492
f 492/349/510 513/351/511 514/350/512 493/344/505
f 495/346/492 516/347/509 518/353/432 496/352/398
f 493/344/505 514/350/512 515/354/508 494/343/506
f 473/339/494 491/340/504 492/349/510 456/324/495
f 501/342/507 502/356/513 458/355/461
f 506/357/514 533/360/515 469/359/516 490/358/517
f 499/308/491 510/363/518 508/362/519 498/361/520
f 495/307/492 499/308/491 498/361/520 494/364/506
f 502/356/513 489/366/521 490/358/517 504/365/522
f 490/358/517 469/359/516 530/367/523 504/365/522
f 494/343/506 498/368/520 489/366/521 502/356/513 501/342/507
f 457/325/460 503/326/499 501/342/507 458/355/461
f 492/349/510 493/344/505 503/326/499 456/324/495
f 474/369/493 504/365/522 505/371/444 459/370/403
f 458/355/461 502/356/513 504/365/522 474/369/493
f 507/372/524 508/375/519 510/374/518 506/373/514
f 506/373/514 510/374/518 511/377/447 509/376/446
f 489/366/521 507/378/524 506/357/514 490/358/517
f 500/309/401 511/379/447 510/363/518 499/308/491
f 498/368/520 508/380/519 507/378/524 489/366/521
f 520/381/525 516/347/509 515/348/508 514/382/512
f 517/383/449 518/353/432 516/347/509 520/381/525
f 519/384/450 517/383/449 520/381/525 512/385/526
f 512/385/526 520/381/525 514/382/512 513/386/511
f 491/340/504 512/387/526 513/351/511 492/349/510
f 497/341/423 519/388/450 512/387/526 491/340/504
f 529/389/527 521/275/468 522/276/467 525/286/474
f 523/390/528 524/330/502 521/275/468 529/389/527
f 527/391/454 523/390/528 529/389/527 526/392/455
f 526/392/455 529/389/527 525/286/474 528/327/412
f 465/328/501 523/390/528 527/391/454 442/336/421
f 436/329/500 524/330/502 523/390/528 465/328/501
f 469/359/516 533/360/515 532/394/457 445/393/456
f 530/367/523 469/359/516 445/393/456 531/395/458
f 509/396/446 532/394/457 533/360/515 506/357/514
f 504/365/522 530/367/523 531/395/458 505/371/444
