# This file uses centimeters as units for non-parametric coordinates.

mtllib Clouds.mtl
g default
v 29.923880 -13.723682 -6.360511
v 27.947542 -13.723682 -12.443042
v 24.749769 -13.723682 -17.981750
v 20.470312 -13.723682 -22.734575
v 15.296202 -13.723682 -26.493782
v 9.453574 -13.723682 -29.095093
v 3.197780 -13.723682 -30.424799
v -3.197770 -13.723682 -30.424799
v -9.453565 -13.723682 -29.095095
v -15.296190 -13.723682 -26.493784
v -20.470297 -13.723682 -22.734575
v -24.749758 -13.723682 -17.981756
v -27.947531 -13.723682 -12.443045
v -29.923864 -13.723682 -6.360517
v -30.592381 -13.723682 -0.000003
v -29.923862 -13.723682 6.360511
v -27.947529 -13.723682 12.443039
v -24.749752 -13.723682 17.981745
v -20.470297 -13.723682 22.734562
v -15.296190 -13.723682 26.493776
v -9.453566 -13.723682 29.095074
v -3.197775 -13.723682 30.424786
v 3.197772 -13.723682 30.424786
v 9.453562 -13.723682 29.095074
v 15.296185 -13.723682 26.493773
v 20.470287 -13.723682 22.734558
v 24.749743 -13.723682 17.981745
v 27.947521 -13.723682 12.443037
v 29.923847 -13.723682 6.360511
v 30.592367 -13.723682 0.000000
v 29.923880 13.723682 -6.360511
v 27.947542 13.723682 -12.443042
v 24.749769 13.723682 -17.981750
v 20.470312 13.723682 -22.734575
v 15.296202 13.723682 -26.493782
v 9.453574 13.723682 -29.095093
v 3.197780 13.723682 -30.424799
v -3.197770 13.723682 -30.424799
v -9.453565 13.723682 -29.095095
v -15.296190 13.723682 -26.493784
v -20.470297 13.723682 -22.734575
v -24.749758 13.723682 -17.981756
v -27.947531 13.723682 -12.443045
v -29.923864 13.723682 -6.360517
v -30.592381 13.723682 -0.000003
v -29.923862 13.723682 6.360511
v -27.947529 13.723682 12.443039
v -24.749752 13.723682 17.981745
v -20.470297 13.723682 22.734562
v -15.296190 13.723682 26.493776
v -9.453566 13.723682 29.095074
v -3.197775 13.723682 30.424786
v 3.197772 13.723682 30.424786
v 9.453562 13.723682 29.095074
v 15.296185 13.723682 26.493773
v 20.470287 13.723682 22.734558
v 24.749743 13.723682 17.981745
v 27.947521 13.723682 12.443037
v 29.923847 13.723682 6.360511
v 30.592367 13.723682 0.000000
vt 0.039465 0.367023
vt 0.072360 0.367023
vt 0.072360 0.794000
vt 0.039465 0.794000
vt 0.105256 0.367023
vt 0.105256 0.794000
vt 0.138151 0.367023
vt 0.138151 0.794000
vt 0.171046 0.367023
vt 0.171046 0.794000
vt 0.203942 0.367023
vt 0.203942 0.794000
vt 0.236837 0.367023
vt 0.236837 0.794000
vt 0.269732 0.367023
vt 0.269732 0.794000
vt 0.302628 0.367023
vt 0.302628 0.794000
vt 0.335523 0.367023
vt 0.335523 0.794000
vt 0.368418 0.367023
vt 0.368418 0.794000
vt 0.401313 0.367023
vt 0.401313 0.794000
vt 0.434209 0.367023
vt 0.434209 0.794000
vt 0.467104 0.367023
vt 0.467104 0.794000
vt 0.499999 0.367023
vt 0.499999 0.794000
vt 0.532895 0.367023
vt 0.532895 0.794000
vt 0.565790 0.367023
vt 0.565790 0.794000
vt 0.598685 0.367023
vt 0.598685 0.794000
vt 0.631581 0.367023
vt 0.631581 0.794000
vt 0.664476 0.367023
vt 0.664476 0.794000
vt 0.697371 0.367023
vt 0.697371 0.794000
vt 0.730267 0.367023
vt 0.730267 0.794000
vt 0.763162 0.367023
vt 0.763162 0.794000
vt 0.796057 0.367023
vt 0.796057 0.794000
vt 0.828952 0.367023
vt 0.828952 0.794000
vt 0.861848 0.367023
vt 0.861848 0.794000
vt 0.894743 0.367023
vt 0.894743 0.794000
vt 0.927638 0.367023
vt 0.927638 0.794000
vt 0.960533 0.367023
vt 0.960533 0.794000
vt 0.993429 0.367023
vt 0.006570 0.794000
vt 0.006570 0.367023
vt 0.993429 0.794000
vn -0.978148 0.000000 0.207910
vn -0.978148 0.000000 0.207910
vn -0.913545 0.000000 0.406737
vn -0.913545 0.000000 0.406737
vn -0.809017 0.000000 0.587785
vn -0.809017 0.000000 0.587785
vn -0.669131 0.000000 0.743145
vn -0.669131 0.000000 0.743145
vn -0.500000 0.000000 0.866026
vn -0.500000 0.000000 0.866026
vn -0.309017 0.000000 0.951057
vn -0.309017 0.000000 0.951057
vn -0.104528 0.000000 0.994522
vn -0.104528 0.000000 0.994522
vn 0.104528 0.000000 0.994522
vn 0.104528 0.000000 0.994522
vn 0.309017 0.000000 0.951057
vn 0.309017 0.000000 0.951057
vn 0.500000 0.000000 0.866025
vn 0.500000 0.000000 0.866025
vn 0.669131 0.000000 0.743145
vn 0.669131 0.000000 0.743145
vn 0.809017 0.000000 0.587785
vn 0.809017 0.000000 0.587785
vn 0.913546 0.000000 0.406736
vn 0.913546 0.000000 0.406736
vn 0.978148 0.000000 0.207912
vn 0.978148 0.000000 0.207912
vn 1.000000 0.000000 -0.000000
vn 1.000000 0.000000 -0.000000
vn 0.978148 0.000000 -0.207912
vn 0.978148 0.000000 -0.207912
vn 0.913545 0.000000 -0.406737
vn 0.913545 0.000000 -0.406737
vn 0.809017 0.000000 -0.587785
vn 0.809017 0.000000 -0.587785
vn 0.669131 0.000000 -0.743145
vn 0.669131 0.000000 -0.743145
vn 0.500000 0.000000 -0.866025
vn 0.500000 0.000000 -0.866025
vn 0.309017 0.000000 -0.951057
vn 0.309017 0.000000 -0.951057
vn 0.104529 0.000000 -0.994522
vn 0.104529 0.000000 -0.994522
vn -0.104529 0.000000 -0.994522
vn -0.104529 0.000000 -0.994522
vn -0.309017 0.000000 -0.951057
vn -0.309017 0.000000 -0.951057
vn -0.500000 0.000000 -0.866025
vn -0.500000 0.000000 -0.866025
vn -0.669131 0.000000 -0.743145
vn -0.669131 0.000000 -0.743145
vn -0.809017 0.000000 -0.587786
vn -0.809017 0.000000 -0.587786
vn -0.913546 0.000000 -0.406737
vn -0.913546 0.000000 -0.406737
vn -0.978148 0.000000 -0.207911
vn -0.978148 0.000000 -0.207911
vn -1.000000 0.000000 -0.000003
vn -1.000000 0.000000 -0.000003
s 1
g pCylinder1
usemtl lambert2SG
f 1/1/1 31/4/2 32/3/3 2/2/4
f 2/2/4 32/3/3 33/6/5 3/5/6
f 3/5/6 33/6/5 34/8/7 4/7/8
f 4/7/8 34/8/7 35/10/9 5/9/10
f 5/9/10 35/10/9 36/12/11 6/11/12
f 6/11/12 36/12/11 37/14/13 7/13/14
f 7/13/14 37/14/13 38/16/15 8/15/16
f 8/15/16 38/16/15 39/18/17 9/17/18
f 9/17/18 39/18/17 40/20/19 10/19/20
f 10/19/20 40/20/19 41/22/21 11/21/22
f 11/21/22 41/22/21 42/24/23 12/23/24
f 12/23/24 42/24/23 43/26/25 13/25/26
f 13/25/26 43/26/25 44/28/27 14/27/28
f 14/27/28 44/28/27 45/30/29 15/29/30
f 15/29/30 45/30/29 46/32/31 16/31/32
f 16/31/32 46/32/31 47/34/33 17/33/34
f 17/33/34 47/34/33 48/36/35 18/35/36
f 18/35/36 48/36/35 49/38/37 19/37/38
f 19/37/38 49/38/37 50/40/39 20/39/40
f 20/39/40 50/40/39 51/42/41 21/41/42
f 21/41/42 51/42/41 52/44/43 22/43/44
f 22/43/44 52/44/43 53/46/45 23/45/46
f 23/45/46 53/46/45 54/48/47 24/47/48
f 24/47/48 54/48/47 55/50/49 25/49/50
f 25/49/50 55/50/49 56/52/51 26/51/52
f 26/51/52 56/52/51 57/54/53 27/53/54
f 27/53/54 57/54/53 58/56/55 28/55/56
f 28/55/56 58/56/55 59/58/57 29/57/58
f 29/57/58 59/58/57 60/62/59 30/59/60
f 30/61/60 60/60/59 31/4/2 1/1/1
