# This file uses centimeters as units for non-parametric coordinates.

mtllib Moon.mtl
g default
v 35.313993 -16.195695 -7.506214
v 32.981663 -16.195695 -14.684376
v 29.207883 -16.195695 -21.220758
v 24.157578 -16.195695 -26.829697
v 18.051468 -16.195695 -31.266040
v 11.156423 -16.195695 -34.335919
v 3.773789 -16.195695 -35.905142
v -3.773776 -16.195695 -35.905142
v -11.156411 -16.195695 -34.335921
v -18.051455 -16.195695 -31.266043
v -24.157560 -16.195695 -26.829697
v -29.207869 -16.195695 -21.220765
v -32.981649 -16.195695 -14.684379
v -35.313975 -16.195695 -7.506221
v -36.102909 -16.195695 -0.000003
v -35.313973 -16.195695 7.506214
v -32.981647 -16.195695 14.684372
v -29.207863 -16.195695 21.220751
v -24.157560 -16.195695 26.829681
v -18.051455 -16.195695 31.266034
v -11.156413 -16.195695 34.335896
v -3.773783 -16.195695 35.905126
v 3.773779 -16.195695 35.905126
v 11.156408 -16.195695 34.335896
v 18.051448 -16.195695 31.266029
v 24.157549 -16.195695 26.829677
v 29.207851 -16.195695 21.220751
v 32.981638 -16.195695 14.684370
v 35.313955 -16.195695 7.506214
v 36.102893 -16.195695 0.000000
v 35.313993 16.195695 -7.506214
v 32.981663 16.195695 -14.684376
v 29.207883 16.195695 -21.220758
v 24.157578 16.195695 -26.829697
v 18.051468 16.195695 -31.266040
v 11.156423 16.195695 -34.335919
v 3.773789 16.195695 -35.905142
v -3.773776 16.195695 -35.905142
v -11.156411 16.195695 -34.335921
v -18.051455 16.195695 -31.266043
v -24.157560 16.195695 -26.829697
v -29.207869 16.195695 -21.220765
v -32.981649 16.195695 -14.684379
v -35.313975 16.195695 -7.506221
v -36.102909 16.195695 -0.000003
v -35.313973 16.195695 7.506214
v -32.981647 16.195695 14.684372
v -29.207863 16.195695 21.220751
v -24.157560 16.195695 26.829681
v -18.051455 16.195695 31.266034
v -11.156413 16.195695 34.335896
v -3.773783 16.195695 35.905126
v 3.773779 16.195695 35.905126
v 11.156408 16.195695 34.335896
v 18.051448 16.195695 31.266029
v 24.157549 16.195695 26.829677
v 29.207851 16.195695 21.220751
v 32.981638 16.195695 14.684370
v 35.313955 16.195695 7.506214
v 36.102893 16.195695 0.000000
vt 0.039465 0.435609
vt 0.072360 0.435609
vt 0.072360 0.725414
vt 0.039465 0.725414
vt 0.105256 0.435609
vt 0.105256 0.725414
vt 0.138151 0.435609
vt 0.138151 0.725414
vt 0.171046 0.435609
vt 0.171046 0.725414
vt 0.203942 0.435609
vt 0.203942 0.725414
vt 0.236837 0.435609
vt 0.236837 0.725414
vt 0.269732 0.435609
vt 0.269732 0.725414
vt 0.302628 0.435609
vt 0.302628 0.725414
vt 0.335523 0.435609
vt 0.335523 0.725414
vt 0.368418 0.435609
vt 0.368418 0.725414
vt 0.401313 0.435609
vt 0.401313 0.725414
vt 0.434209 0.435609
vt 0.434209 0.725414
vt 0.467104 0.435609
vt 0.467104 0.725414
vt 0.499999 0.435609
vt 0.499999 0.725414
vt 0.532895 0.435609
vt 0.532895 0.725414
vt 0.565790 0.435609
vt 0.565790 0.725414
vt 0.598685 0.435609
vt 0.598685 0.725414
vt 0.631581 0.435609
vt 0.631581 0.725414
vt 0.664476 0.435609
vt 0.664476 0.725414
vt 0.697371 0.435609
vt 0.697371 0.725414
vt 0.730267 0.435609
vt 0.730267 0.725414
vt 0.763162 0.435609
vt 0.763162 0.725414
vt 0.796057 0.435609
vt 0.796057 0.725414
vt 0.828952 0.435609
vt 0.828952 0.725414
vt 0.861848 0.435609
vt 0.861848 0.725414
vt 0.894743 0.435609
vt 0.894743 0.725414
vt 0.927638 0.435609
vt 0.927638 0.725414
vt 0.960533 0.435609
vt 0.960533 0.725414
vt 0.993429 0.435609
vt 0.006570 0.725414
vt 0.006570 0.435609
vt 0.993429 0.725414
vn -0.978148 0.000000 0.207910
vn -0.978148 0.000000 0.207910
vn -0.913545 0.000000 0.406737
vn -0.913545 0.000000 0.406737
vn -0.809017 0.000000 0.587785
vn -0.809017 0.000000 0.587785
vn -0.669131 0.000000 0.743145
vn -0.669131 0.000000 0.743145
vn -0.500000 0.000000 0.866025
vn -0.500000 0.000000 0.866025
vn -0.309017 0.000000 0.951056
vn -0.309017 0.000000 0.951056
vn -0.104528 0.000000 0.994522
vn -0.104528 0.000000 0.994522
vn 0.104528 0.000000 0.994522
vn 0.104528 0.000000 0.994522
vn 0.309017 0.000000 0.951056
vn 0.309017 0.000000 0.951056
vn 0.500000 0.000000 0.866025
vn 0.500000 0.000000 0.866025
vn 0.669131 0.000000 0.743145
vn 0.669131 0.000000 0.743145
vn 0.809017 0.000000 0.587785
vn 0.809017 0.000000 0.587785
vn 0.913546 0.000000 0.406736
vn 0.913546 0.000000 0.406736
vn 0.978148 0.000000 0.207912
vn 0.978148 0.000000 0.207912
vn 1.000000 0.000000 -0.000000
vn 1.000000 0.000000 -0.000000
vn 0.978148 0.000000 -0.207912
vn 0.978148 0.000000 -0.207912
vn 0.913545 0.000000 -0.406737
vn 0.913545 0.000000 -0.406737
vn 0.809017 0.000000 -0.587785
vn 0.809017 0.000000 -0.587785
vn 0.669131 0.000000 -0.743145
vn 0.669131 0.000000 -0.743145
vn 0.500000 0.000000 -0.866025
vn 0.500000 0.000000 -0.866025
vn 0.309017 0.000000 -0.951057
vn 0.309017 0.000000 -0.951057
vn 0.104529 0.000000 -0.994522
vn 0.104529 0.000000 -0.994522
vn -0.104529 0.000000 -0.994522
vn -0.104529 0.000000 -0.994522
vn -0.309017 0.000000 -0.951056
vn -0.309017 0.000000 -0.951056
vn -0.500000 0.000000 -0.866025
vn -0.500000 0.000000 -0.866025
vn -0.669131 0.000000 -0.743145
vn -0.669131 0.000000 -0.743145
vn -0.809017 0.000000 -0.587785
vn -0.809017 0.000000 -0.587785
vn -0.913545 0.000000 -0.406737
vn -0.913545 0.000000 -0.406737
vn -0.978148 0.000000 -0.207911
vn -0.978148 0.000000 -0.207911
vn -1.000000 0.000000 -0.000003
vn -1.000000 0.000000 -0.000003
s 1
g pCylinder2
usemtl lambert3SG
f 1/1/1 31/4/2 32/3/3 2/2/4
f 2/2/4 32/3/3 33/6/5 3/5/6
f 3/5/6 33/6/5 34/8/7 4/7/8
f 4/7/8 34/8/7 35/10/9 5/9/10
f 5/9/10 35/10/9 36/12/11 6/11/12
f 6/11/12 36/12/11 37/14/13 7/13/14
f 7/13/14 37/14/13 38/16/15 8/15/16
f 8/15/16 38/16/15 39/18/17 9/17/18
f 9/17/18 39/18/17 40/20/19 10/19/20
f 10/19/20 40/20/19 41/22/21 11/21/22
f 11/21/22 41/22/21 42/24/23 12/23/24
f 12/23/24 42/24/23 43/26/25 13/25/26
f 13/25/26 43/26/25 44/28/27 14/27/28
f 14/27/28 44/28/27 45/30/29 15/29/30
f 15/29/30 45/30/29 46/32/31 16/31/32
f 16/31/32 46/32/31 47/34/33 17/33/34
f 17/33/34 47/34/33 48/36/35 18/35/36
f 18/35/36 48/36/35 49/38/37 19/37/38
f 19/37/38 49/38/37 50/40/39 20/39/40
f 20/39/40 50/40/39 51/42/41 21/41/42
f 21/41/42 51/42/41 52/44/43 22/43/44
f 22/43/44 52/44/43 53/46/45 23/45/46
f 23/45/46 53/46/45 54/48/47 24/47/48
f 24/47/48 54/48/47 55/50/49 25/49/50
f 25/49/50 55/50/49 56/52/51 26/51/52
f 26/51/52 56/52/51 57/54/53 27/53/54
f 27/53/54 57/54/53 58/56/55 28/55/56
f 28/55/56 58/56/55 59/58/57 29/57/58
f 29/57/58 59/58/57 60/62/59 30/59/60
f 30/61/60 60/60/59 31/4/2 1/1/1
