<svg id="_4" data-name="4" xmlns="http://www.w3.org/2000/svg" xmlns:xlink="http://www.w3.org/1999/xlink" viewBox="0 0 926.59 1280.59">
  <defs>
    <style>
      .cls-1 {
        fill: url(#linear-gradient);
      }

      .cls-2 {
        fill: #ff9b20;
      }
    </style>
    <linearGradient id="linear-gradient" x1="465.53" y1="1265.36" x2="465.53" y2="0.22" gradientUnits="userSpaceOnUse">
      <stop offset="0" stop-color="#c44600"/>
      <stop offset="1" stop-color="#fb823b"/>
    </linearGradient>
  </defs>
  <title>number4</title>
  <g>
    <polygon class="cls-1" points="578.95 604.03 604.71 123.2 500.24 611.8 205.86 640.84 623.82 0.22 31.29 720.84 490.1 659.21 360.5 1265.36 595.72 1252.64 548.99 1163.35 575.75 663.74 769.4 704.15 808.26 795.5 899.76 572.38 578.95 604.03"/>
    <g>
      <path class="cls-2" d="M940.53,766c-0.86,8.46,3.91,5.66,4.67,7C944.94,758.69,939.31,766.25,940.53,766Z" transform="translate(-334.47 -167.21)"/>
      <polygon class="cls-2" points="603.11 458.13 604.86 460.71 601.36 439.82 603.11 458.13"/>
      <path class="cls-2" d="M944.68,494.38c-8.5,12-1.28,47.52-5.31,70.71l-2,3.75,5.75,10.87C943.64,551.29,941.42,514.23,944.68,494.38Z" transform="translate(-334.47 -167.21)"/>
      <path class="cls-2" d="M965.38,425.46c-3.27,4.15-1.81-15.24-1.82,16.23,0.42-1.56.64-2,.93-2.91C964.59,436,964.81,432.06,965.38,425.46Z" transform="translate(-334.47 -167.21)"/>
      <path class="cls-2" d="M964.49,438.78c-0.52,13.81,3-8.89,0,0h0Z" transform="translate(-334.47 -167.21)"/>
      <path class="cls-2" d="M966.15,375l1.75,18.31c2-3.7,3.28-19.85,4.27-13.77C971.68,360.82,969.68,364.56,966.15,375Z" transform="translate(-334.47 -167.21)"/>
      <path class="cls-2" d="M961.35,357.46l0.65,9.48C962.84,365.33,963.25,362.85,961.35,357.46Z" transform="translate(-334.47 -167.21)"/>
      <path class="cls-2" d="M963.36,387L962,366.94c-1.4,2.56-4,2.71.39,9.21C960.15,374.39,962.18,378.46,963.36,387Z" transform="translate(-334.47 -167.21)"/>
      <path class="cls-2" d="M961.57,398.27c-2.25,10.1-4,23.21-5.77,4.83C955,437.92,960.8,433.09,961.57,398.27Z" transform="translate(-334.47 -167.21)"/>
      <path class="cls-2" d="M936.93,487.26l-3,13.5,2,11.93C934.92,506.73,939.43,486.54,936.93,487.26Z" transform="translate(-334.47 -167.21)"/>
      <path class="cls-2" d="M898.11,312.63c1.4,1.46,5.63-5.05,8-5.93l0.93-13.54C904.49,299.67,900.72,312.25,898.11,312.63Z" transform="translate(-334.47 -167.21)"/>
      <path class="cls-2" d="M906.12,306.7L904.72,327C908.8,309.47,908.16,306,906.12,306.7Z" transform="translate(-334.47 -167.21)"/>
      <polygon class="cls-2" points="618.35 186.54 622.6 219.85 618.6 180.18 618.35 186.54"/>
      <polygon class="cls-2" points="547.38 220.47 545.98 208.52 547.45 229.59 547.38 220.47"/>
      <path class="cls-2" d="M871.86,437.64c-1.37-8.92-7.72,10.18-7.78,1-2.33,13.65-2.11,25.78-1.92,36.7C863.18,464,866,452.33,871.86,437.64Z" transform="translate(-334.47 -167.21)"/>
      <path class="cls-2" d="M861.95,493.6c0.43-5.68.31-11.69,0.22-18.22A105.87,105.87,0,0,0,861.95,493.6Z" transform="translate(-334.47 -167.21)"/>
      <path class="cls-2" d="M896.75,360.28c-1.32,1.31-4.52,3.69-8,14.48L895,368Z" transform="translate(-334.47 -167.21)"/>
      <path class="cls-2" d="M895.23,367.77L895,368l-3.83,16.65Z" transform="translate(-334.47 -167.21)"/>
      <path class="cls-2" d="M897.19,358.34l-0.44,1.95A1.45,1.45,0,0,0,897.19,358.34Z" transform="translate(-334.47 -167.21)"/>
      <path class="cls-2" d="M959.89,301.35c-0.48-2.85-.92-6.43-1.4-9.91l-38.21-5.08c-0.23,11.19,0,21.41,6.78,4.31-0.32-2.05-.83-3-1.47-3.17l27.47,3.65C955.26,292.35,957.58,287.5,959.89,301.35Z" transform="translate(-334.47 -167.21)"/>
      <path class="cls-2" d="M905,350l5.52-20.66c-1.3.15-3.88,3.54-3.93-2.45Z" transform="translate(-334.47 -167.21)"/>
      <polygon class="cls-2" points="569.79 193.29 570.51 182.75 568.47 190.41 569.79 193.29"/>
      <path class="cls-2" d="M873.9,458.74C874,468.19,872,478.1,870,489.32c3.46-11.75,6.59-24,9.08-35.74C878,451.62,876.47,445.91,873.9,458.74Z" transform="translate(-334.47 -167.21)"/>
      <path class="cls-2" d="M884.67,414.62c0,0.65-.15,1.46-0.17,2.06C885.16,415.53,885.49,414.57,884.67,414.62Z" transform="translate(-334.47 -167.21)"/>
      <path class="cls-2" d="M846.47,599.06c0.38-.56.82-1,1.21-1.58a9,9,0,0,1-.71-0.58Z" transform="translate(-334.47 -167.21)"/>
      <path class="cls-2" d="M880.34,451.76a49.27,49.27,0,0,0,2.52-19.81c-1,6.81-2.2,14-3.8,21.64C879.55,454.46,879.95,454.69,880.34,451.76Z" transform="translate(-334.47 -167.21)"/>
      <path class="cls-2" d="M857.55,524.68c2-4.47,3.92-9.6,5.85-15C861,513.93,856.71,522.77,857.55,524.68Z" transform="translate(-334.47 -167.21)"/>
      <path class="cls-2" d="M882.58,419.44c0-.46,0-0.89.08-1.39C881.06,420.78,881.61,420.52,882.58,419.44Z" transform="translate(-334.47 -167.21)"/>
      <path class="cls-2" d="M882.58,419.44a89.93,89.93,0,0,0,.27,12.51c0.8-5.55,1.39-10.72,1.65-15.26A15.73,15.73,0,0,1,882.58,419.44Z" transform="translate(-334.47 -167.21)"/>
      <path class="cls-2" d="M868.87,638.61c-3.92-2.49-2.81-26.95,6.11-46.35,1.09-20.74-15.72-10.62-27.3,5.21,1.72,1,3.44,1.39,1.55,22.57,3.87-6.73,15.23-44.63,15.37-26.4-3.66,27.81-6.3,22.08-11.39,34.89,7.72-10.16.28,36.43,9.36,32.15l2.38-24.56C866.26,635.93,866.34,645,868.87,638.61Z" transform="translate(-334.47 -167.21)"/>
      <path class="cls-2" d="M856.53,558.24l1.29-8.61c-2.81,9.52-6,16.09-12.06,28.14-0.94,14.58,0,17.85,1.23,19.12l9.54-41.69v3Z" transform="translate(-334.47 -167.21)"/>
      <path class="cls-2" d="M866,511.5c3.22,7.62.83,28.44,8.52,17,5-25-.14-18.29,1-33.61-7.45,40.47-.11-12.11-9,16.39,0.9-8.07,2.18-15.23,3.42-22-2.11,7.12-4.3,14-6.57,20.35,0.19-.34.32-0.58,0.49-0.86l0-.19s0,0,.05.05c1-1.61,1.43-2.1.68-.22a6.33,6.33,0,0,1-.08.86,5,5,0,0,1,1.35,2.19c-3.45,11.44-1.59,1.58-1.35-2.19a3,3,0,0,0-.6-0.64l-0.08.14-6.07,40.83C860.28,541.25,862.44,530.54,866,511.5Z" transform="translate(-334.47 -167.21)"/>
      <path class="cls-2" d="M932.43,314.29c-0.67,1.16-1,1-1.35,1.06C931.09,318.08,931.27,319.15,932.43,314.29Z" transform="translate(-334.47 -167.21)"/>
      <path class="cls-2" d="M926.09,330.27c0-3.07-1.35-5.9,1.16-15.32,3.16-8,2.21.51,3.83,0.41,0-6,1-20.8-5.14-3.28l0,3c-5.06,15.88-15.3,35.48-15.33,32.51C915.82,343.73,919.68,340.19,926.09,330.27Z" transform="translate(-334.47 -167.21)"/>
      <path class="cls-2" d="M897,422.29l-4.9,34,7.66-16.23-2.59.35C902.15,421.58,898.3,425.06,897,422.29Z" transform="translate(-334.47 -167.21)"/>
      <polygon class="cls-2" points="508.87 435.19 504.93 429.69 507.7 450.55 508.87 435.19"/>
      <polygon class="cls-2" points="500.13 478.91 496.23 476.39 496.33 488.45 500.13 478.91"/>
      <path class="cls-2" d="M751.08,809.94l9.83-2.56A91.15,91.15,0,0,0,751.08,809.94Z" transform="translate(-334.47 -167.21)"/>
      <path class="cls-2" d="M678.71,819.36l-1.49,2.37C680.42,820.1,681.67,819.05,678.71,819.36Z" transform="translate(-334.47 -167.21)"/>
      <path class="cls-2" d="M920.66,228.39c4-6.15,8.13-12.49,10.79-16.68s4-6.45,2.84-4.75l-3.54,5.19C927.08,218.19,923.86,223.38,920.66,228.39Z" transform="translate(-334.47 -167.21)"/>
      <path class="cls-2" d="M543.44,673.29l3.57-2.62,3.63-9.86Z" transform="translate(-334.47 -167.21)"/>
      <path class="cls-2" d="M548.67,691l-13.91,13.62A186.54,186.54,0,0,0,548.67,691Z" transform="translate(-334.47 -167.21)"/>
      <path class="cls-2" d="M786.51,1153.64l2.29,12.52C792.62,1148.16,788.54,1155.57,786.51,1153.64Z" transform="translate(-334.47 -167.21)"/>
      <path class="cls-2" d="M594.48,767.3c1.22-1.26,2.26-2.34,3.15-3.3l1.24-1.36c0.4-.43.92-0.87,1.33-1.27,1.71-1.62,3-2.93,4.08-4.14-1.52,1-3.19,2.13-4.81,3.31-0.81.59-1.61,1.19-2.36,1.78-0.37.3-.75,0.59-1.09,0.88l-0.85.82C593,766.17,592,767.82,594.48,767.3Z" transform="translate(-334.47 -167.21)"/>
      <path class="cls-2" d="M729.36,864c6-1.68,8.48-3,8.16-4C731.34,861.58,727.9,863,729.36,864Z" transform="translate(-334.47 -167.21)"/>
      <path class="cls-2" d="M616.58,738.52c-1.58,1.81-2.95,3.69-4.49,5.55l-3.33,6.56c-0.39.76-.8,1.49-1.23,2.21a29.31,29.31,0,0,1-3.25,4.38,33,33,0,0,0,5.49-4.12,8.21,8.21,0,0,0,.88-1.11l0-.07,0.09-.16,0.3-.55,0.58-1.11q0.58-1.11,1.12-2.24A75.85,75.85,0,0,0,616.58,738.52Z" transform="translate(-334.47 -167.21)"/>
      <path class="cls-2" d="M1125.1,933.94c0.59-.89,1.17-2,1.77-2.81C1126.39,930.59,1125.81,931.92,1125.1,933.94Z" transform="translate(-334.47 -167.21)"/>
      <path class="cls-2" d="M1033.23,738.4c4.1-.71,10.83-1.38,17.17-2.07C1047.28,736.31,1042.09,736.86,1033.23,738.4Z" transform="translate(-334.47 -167.21)"/>
      <path class="cls-2" d="M782.55,754c9.38-1.24,1.44-.67,0,0h0Z" transform="translate(-334.47 -167.21)"/>
      <path class="cls-2" d="M823,769c-1.08.64-1.78,1.4-1.26,2.46A2.35,2.35,0,0,1,823,769Z" transform="translate(-334.47 -167.21)"/>
      <path class="cls-2" d="M645.15,646.36l0.47-.69C643,648.25,643.51,647.8,645.15,646.36Z" transform="translate(-334.47 -167.21)"/>
      <path class="cls-2" d="M796.93,754.8c-3.59-.23-7.71-0.32-12.17-0.22C786.74,754.76,790.44,754.86,796.93,754.8Z" transform="translate(-334.47 -167.21)"/>
      <path class="cls-2" d="M794.8,752.75l4.44-.17,1,0,0.49,0H801l0.57,0c0.12-.41.07-0.73-0.27-0.82a1,1,0,0,0-.32,0l-1.26.16C798.49,752,796.87,752.33,794.8,752.75Z" transform="translate(-334.47 -167.21)"/>
      <path class="cls-2" d="M769.47,755.59c5.37-.61,10.41-0.88,15.28-1-1.88-.14-2.68-0.33-2.2-0.54C779.8,754.38,775.92,754.87,769.47,755.59Z" transform="translate(-334.47 -167.21)"/>
      <path class="cls-2" d="M871.32,1287.06c0.18-.62.32-1.33,0.55-2C870.41,1275.43,870.5,1279.62,871.32,1287.06Z" transform="translate(-334.47 -167.21)"/>
      <path class="cls-2" d="M813.32,353.44l1-1.39-0.3.33Z" transform="translate(-334.47 -167.21)"/>
      <path class="cls-2" d="M789.36,385.49c9.42-13.19,15.05-20.83,18.52-25.41s4.85-6.18,6.17-7.7l12.29-17.83,11.8-17.36-8,11L813.13,352l-16.47,23.19Z" transform="translate(-334.47 -167.21)"/>
      <path class="cls-2" d="M829.7,934l9.19-22.43c0.88,29.63-5.85,49.49,4.72,28.85-3.48-1.61-4.1-8.09-3.29-17,0.4-4.46,1.17-9.54,2.11-14.92,0.47-2.69,1-5.46,1.52-8.26l1.8-9.16c4.18-20.46,8.37-41,10.45-55.82,1-7.41,1.53-13.36,1.22-17.12s-1.43-5.34-3.57-4.27l6.78-20.77-6,0c3.15-.36,5.36-0.79,7.4-1.21a64.74,64.74,0,0,1-1.45,8.56q1.9-5.61,3.3-10.27a104.91,104.91,0,0,0-24,3.4,182.59,182.59,0,0,0-19.45,6.65A211.48,211.48,0,0,1,799,807.39a187.23,187.23,0,0,1-31.66,5.49l-3.76.28-1.76.11-1.19,0c-1.57,0-3,0-4.4,0a45.8,45.8,0,0,1-6.46-.42c-3-.51-3.22-1.48,1.3-3l-29.83,7.73c-8.86.89-7-2,1.77-2.86l-46.09,7.39,0.29-.48c-6.29,3.2-20.76,8.8-27.85,11.31-12-.55,5.68-2.36,2.43-3.8l-25.13,7c-10.95-2.45,9.78-9,27.54-10.84-25.9-11.57-20.75,6.57-73.52,4.87l23.93-5.12c-16.72-6.3-35.18-.72-63.22-2.29,6.85,1.86,56.5,5.84,29.2,13.26-8-.06-18.38.79-33,5.79-0.85-5.25-15.31-2-33.59.77l0.31-7.15c-19.53,4.67-17.49,8-28.72,12.72-2.77.28-5.28,0.46-7.56,0.54q-1.71.06-3.25,0.05h-0.76a0.66,0.66,0,0,1-.24,0l-0.15,0-0.57-.17a5.63,5.63,0,0,1-3-2.2c-1.22-1.88-1.11-4.42-.76-6.79a2.34,2.34,0,0,0-2.48,1.26,5.84,5.84,0,0,0-.57,3.31c0,2.51,1.59,5.12-7.39,7a29.16,29.16,0,0,0-11.42.66c-4.46,1-10.13,2.75-18.33,5.2a17.48,17.48,0,0,1,.57-4.9,32.8,32.8,0,0,1,5.52-4.5,4.44,4.44,0,0,1,2.48-.76,6.87,6.87,0,0,0,1.87,0,8.3,8.3,0,0,0,2.94-1.5,9.28,9.28,0,0,1-3-.56,5.78,5.78,0,0,1-2.18-1.51c1.5-1.75,3.63-1.93,4.79-2.12a1.32,1.32,0,0,0-1.17-1.6,18.1,18.1,0,0,0-2.73-.14c-1.82-.12-3.2-0.7.87-6.72-1.54-.79,0-3,3.05-5.79a113.41,113.41,0,0,1,11.36-8.72l0.38-.26a1.76,1.76,0,0,0,.2-0.15l0.27-.25,1.1-1,2.21-2.06c1.48-1.39,3-2.82,4.45-4.28,3-2.92,5.89-6,8.66-9.15,5.53-6.35,10.42-13.18,13.64-20.3,6-4.71.67,5.2,3.93,4.93,10.87-17.86,15.72-25.36,19.81-32.28s7.46-13.25,15.65-28.51l10.5-10.11,10.46-10.14c-8.25,7-9.13,4.35-6.41-2.62s9.05-18.27,15.09-28.72c-6.3,4.6-11.75,8.46-15.15,11.26l22.07-31.05c3.61-3,2.54,1.1.29,7.31,1.31-2.28,2.54-4.44,3.46-6.17,10.16-9.24,8-1.93,4.1,7.51-3.72,2.93-7.49,5.78-11.19,8.52-3.44,9.32-6.1,18.5-2.4,19A78,78,0,0,1,551.27,679c-0.85,2.48-1.21,4.21-.09,3.66s2.79-4.51,5.63-10.22l10-3-0.5-3.12,33-35.91c6.57-13,13.51-27.16,23.69-44.28,5.08-8.55,11-17.83,17.89-28s14.91-21.15,24-33c-5.13,8.91-6,12.13-6,14.47s0.8,3.7-.22,8.11c-3.22.77-9.63,9.45-16.43,19.49-3.42,5-7,10.44-10.55,15.65a181.9,181.9,0,0,1-11.09,14.76c8.07-9.46,6.68-4.39,5-1.09l3.82-6,8.78-13.53,9.29-14,4.39-6.54c-0.73,3.55.52,2.93,2.69,0.73s5.32-6,8.27-8.84c-0.4-1.92.66-4.94,2.9-8.9a151.33,151.33,0,0,1,9.45-14c3.86-5.24,8.18-10.86,12.38-16.39s8.3-11,11.81-16.08a61.11,61.11,0,0,1-5.88,11.37,184.34,184.34,0,0,1-13.83,18.87c2.59-1.58,5.26-4.87,8.34-9.38s6.49-10.17,10.11-16.07,7.42-12,11-17.13,6.89-9.26,9.13-10.79c-3.53,4.5-4.94,5.85-7.88,10.94a268.6,268.6,0,0,1,17.33-22.65c4.73-5.49,6.74-7.08,2.71-.92L727,461.58c5.14-6.3,11.79-14.66,19.19-24.11s15.57-20,23.84-30.83,16.66-21.91,24.44-32.35,14.94-20.21,20.35-28L785.6,388.9q22.93-32.46,49.28-68.23l13.38-18.09,6.85-9.2,3.47-4.64,2.16-2.8q8.15-10.51,16.67-21.18l18.41-25.7,0.09-.12,0.17-.23,0.35-.46,0.69-.92,1.37-1.82,2.71-3.59c-5.3,7.24-11.5,15.9-18,25l-11.33,16L835,324.44,761.06,427.62l-34.89,48.52L709.69,499l-7.94,11-3.89,5.39-1.92,2.67-1,1.33-0.48.66-0.24.33-0.12.16-0.06.08L828.55,332.94c-4.82,6.55-9.6,13-14.2,19.11,0.9-1,1.86-2.16,3.7-4.46L650.66,581.24h0l0,0,0,0,0.06-.08,0.13-.17,0.3-.38,0.75-1,2.12-2.79,7.18-9.65L690.77,527c1.22-1.77,7.7-10.86,17-23.91l34-47.53c25-34.93,51.3-71.52,58.09-80.55l-32.63,46.34-12.43,17.74-9,12.91c-4.13,5.91-10.32,14.73-20.64,29.21,3.29-4.69,35.68-49.3,67.93-93.42,16.12-22.05,32.19-43.94,44.65-60.81s21.34-28.74,23.31-31.14L737.46,464.89l22.1-30,47.8-64.67L854,307.42l20.85-27.92c-12.93,17.22-35.48,47.84-57.37,77.63l-53.7,73.07,11.92-16.05c1.81-2.25,3.21-3.88,4.53-5.38l4-4.46c2.82-3.17,6.36-7.35,11.16-13.5l5.62-8.22,6.75-9.78c0.29,0.06,2.83-3,6.53-7.59s8.62-10.94,14-17.93L863.31,302c11.26-14.57,20.9-26.93,25.8-32.76,2.46-2.93,3.75-4.24,3.66-3.66s-1.53,3-4.22,7.2c-1.26,1.51-4.5,5.62-9.12,11.6s-10.58,13.78-16.61,21.75-12,16-16.27,21.72c-2.12,2.88-3.79,5.18-4.83,6.69s-1.48,2.22-1.2,2l-1.11,1.55c2.85-3.54,7.79-9.67,13.28-16.25s11.53-13.59,16.65-19.05l1.88-2,0.11-.12,0.06-.06,0,0-0.08.17-0.17.35-0.35.72L869.24,305c-1.1,2.22-2.36,4.72-3.8,7.52-2.88,5.59-6.5,12.37-11.07,20.29l-6.68,9.07-6.89,12L833.93,366c0.92-2.8,2.56-7,4.67-11.9,1.06-2.44,2.23-5,3.49-7.72l1-2,0.49-1,0.06-.13s0.05-.1,0-0.06l-0.15.1-0.3.2q-1.19.82-2.4,1.7c-3.22,2.34-6.51,5.06-9.41,7.64s-5.41,5-6.86,6.27c-7.65,10.47-10.84,14.59-13.55,18.21s-4.89,6.6-10.37,14.49c-6.19,8.08-7.67,9.63-7.36,8.86a67.45,67.45,0,0,1,3.91-6L781.3,416.37,765.7,437.62c4.54-5.51,6.63-7.81,7.37-8.29s0.15,0.83-.59,2.36c-1.46,3-3.54,7,3.63-1.28L783,418.08l4.25-7.47,1.8-3.13c4.67-5.79,9.06-11,12.53-14.82s6-6.14,7-6.34,0.6,1.72-1.7,6.08a228.88,228.88,0,0,1-12.62,20.14,194.56,194.56,0,0,1-16.91,18.91c-5.19,5.22-9.84,9.79-12.68,13.07,1.44-1.23-.75,2.77-4.08,8.11a160.2,160.2,0,0,1-10.43,15.08s0.18-1,.3-2,0.18-1.71.18-1.71c-4.15,5.46-6.07,8.38-7.12,10.39a27.51,27.51,0,0,0-1.78,4.69,33.14,33.14,0,0,1-4,7.41,215.55,215.55,0,0,1-13.1,17.14c-2.76,3.79-10.49,12.83-16.5,19.8s-10.38,12.1-7,9.28c5.46-5.84,12.55-13.07,20.26-20.77s16-15.84,23.82-23.29l5.73-5.44,2.76-2.58,0.34-.32a0.35,0.35,0,0,1,.17-0.1l0.27-.1,0.53-.19a13.81,13.81,0,0,1,3.61-.81c2-.1,3,0.71,2.74,2.62-1.13,1.56-9.5,13.19-18.74,25.42s-19.35,25.06-23.89,29.9a28.71,28.71,0,0,1-2.22,2.11c-0.32.27-.61,0.49-0.88,0.68l-0.39.25-0.18.11a0.77,0.77,0,0,0-.21.14,20,20,0,0,1-4,2.84,7.54,7.54,0,0,1-4.93.73,7.15,7.15,0,0,0-4.71.79c-2,1-4.67,3.2-8.56,7.36,1.46-1.05,2.1-.77,2.27,0a6.94,6.94,0,0,1-.41,3.06,36.88,36.88,0,0,1-7.83,7.41c-2.1,1.71-4.4,4-9.07,11.35,4.67-2.56-1.19,5.91-4.7,10.8-1.76,2.45-2.95,4-2,3.08s4-4.44,10.82-12.54a121.81,121.81,0,0,1-11.41,17c-4,5.16-8.45,10.7-14.59,20,5.14-4.48,7.68-3,7.35,2.71a30.71,30.71,0,0,1-.74,4.92L662,621.42a7.47,7.47,0,0,1-.29.87l-0.35.94c-0.47,1.26-1,2.53-1.5,3.82a153.71,153.71,0,0,1-7.07,15.18c-0.36-.75-1.67-0.22-3.16.7-0.74.46-1.53,1-2.27,1.57l-0.54.41c-0.17.13-.41,0.35-0.6,0.51l-1.08.95c-12.45,18.57-22.74,32.75-32.55,46.21-4.91,6.74-9.71,13.32-14.65,20.27-2.47,3.48-5,7-7.55,10.78l-3.92,5.74-4.2,6.28c-1.88,1.34-6.46,6.63-10.53,10.78a29.72,29.72,0,0,1-5.11,4.51c-1.21.67-1.77,0.27-1.06-2.15-1.47,3.32-2.46,6.42-4,10.21a91,91,0,0,1-7.86,14.57c-6.16,6.71-8.4,8.66-8.3,7.58a13.27,13.27,0,0,1,1.53-3.39c0.89-1.63,2.05-3.63,3.35-5.72,2.54-4.17,5.19-8.57,5.82-10.66,0.31-1,.12-1.52-0.88-1s-2.82,1.91-5.86,4.81c1,0.33.38,2.82-1.14,6.47-0.38.91-.82,1.9-1.3,3l-1.48,3.29c-1.06,2.3-2.27,4.79-3.56,7.38-5.15,10.35-11.53,22.2-14.85,29.69a69.34,69.34,0,0,0,11.07-12,137.28,137.28,0,0,0,9.52-15c3-5.39,5.86-11.14,8.72-16.87l8.07-16.11c2.28,0.08,3.5,1.81,4.11,4.4a22.86,22.86,0,0,1,.51,4.48,43.62,43.62,0,0,1-.45,5.42c-0.5,3.82-1.24,7.91-2.11,12s-1.88,8.15-3.11,12.24c3.38-.86,7.08-1.71,10.62-2.48,6.66-1.24,9.85-1.46,11.44-1.19s1.4,1.08.58,2c-1.59,1.79-6.2,4-3.13,3,6.1-.4,11.69-1.05,16.56-1.85a107.59,107.59,0,0,0,12.53-2.77,64.4,64.4,0,0,0,8.75-3.19l1.76-.82,2.4-.89,4.59-1.76c12-4.62,22.66-8.46,49.65-7.76,21.74,3.79,2.11,11.6,7.22,15.39-27.63,5-43.12.48-62,2.58l23.51,0.49a127.06,127.06,0,0,1-18.09,4c-3.5.55-7,1-10.27,1.23a56.31,56.31,0,0,1-8.58.12,45.82,45.82,0,0,0,9.53.64c4.32,0,9.54-.25,15.45-0.62,11.82-.74,26.38-2.07,41.94-3.5,31.12-2.87,66.21-6.17,91.22-6.18,8.61-2.84,23.6-6.38,16.18-8l-15.59,2.37c-14.88-3.32,28.85-9.47,8.79-9.73l25-6.68a92.56,92.56,0,0,1,17.56-4.2A64.62,64.62,0,0,1,824,752.7a29.92,29.92,0,0,0,3.51-.28,34.47,34.47,0,0,0,3.6-.72c-0.88-.08-2.33,2.45-3.56,5.64a39.13,39.13,0,0,0-2.53,10.86,9,9,0,0,0-1.93.74,6.86,6.86,0,0,1,2-.64,34.36,34.36,0,0,1,2.78-8.63c1.36-3.18,3-6.85,4.57-10.86l0.56-1.51c0.09-.23.19-0.54,0.29-0.87l0.3-.95c0.4-1.26.78-2.52,1.12-3.76a66.25,66.25,0,0,0,1.63-7.26c0.74-4.68.72-9-.62-12.45l-8.93,19.41c1.12-21.45-.4-48.6,7.2-73.93-9,10.34-.53,6.1-12.06,22.79,12.88-13.85-14.5,65.86.91,42.48a59.18,59.18,0,0,0-6,9.62l-0.29.6a2.11,2.11,0,0,1-.26.48l-0.38.43c-0.25.29-.47,0.56-0.68,0.84a17.55,17.55,0,0,0-1.09,1.61c-0.64,1-1.13,2.1-1.67,3.1a9.09,9.09,0,0,1-1.9,2.63,18.91,18.91,0,0,1-6.52-3c0.57,1.06,1.72,2,1.88,2.66,0.07,0.32-.13.56-0.83,0.7a15.45,15.45,0,0,1-3.59.07,3.12,3.12,0,0,1-.23.54l-0.16.28-0.09.14a0.28,0.28,0,0,1-.17.15c-0.86.43-1.79,0.86-2.51,1.17-0.68,0-.92,0-1.5,0,0.45,0,.79.11,1.24,0.14-0.92.43-1,.51,0.46,0,1.26,0.12,2.94.22,3.05,0.47,0.47,0.22.92,0.46,1.36,0.7a10.14,10.14,0,0,1,2.22,1.58,6,6,0,0,1-1.92,1.88,13.6,13.6,0,0,1-1.46.83,3.68,3.68,0,0,1-.7.23l-0.88.24-1.81.47c-4.93,1.23-10.65,2.34-16.41,3.38-11.51,2.07-23.17,3.84-29,5.74-13.17.23,5.22-3.08-2.15-4.74l-17.3,5.68c-2.24-4.74-35.52-4.74-5-10.66l-27.73,2.51c-16.59-1.15-39.13,0-52.77,3.4-13.17.23-32.47,8.7-21.47,3.73l-1.85.32-2.13.36-1.31.22-0.35.06-0.18,0-0.07,0-0.24.08c-1.31.42-3.17,1-5.2,1.57s-4.22,1.19-5.94,1.64l-2.95.77,0.82-1.32a63.9,63.9,0,0,0-8.59,1.23c-3.2.63-6.82,1.45-10.76,2.29a54.91,54.91,0,0,1,2.27-6.39,62,62,0,0,1,4-7.85,81.32,81.32,0,0,1,7.3-8.6,47.92,47.92,0,0,1,4.14-3.75q0.53-.42,1.06-0.81l0.53-.38,0.13-.09a0.47,0.47,0,0,0,.17-0.16L608,749q2-2.49,4-5c6.91-13.79,13.89-27.85,28.12-49.24L646,692c4.48-8.75,12.87-21.17,20.24-32.61s13.75-21.82,14.26-25.87c9.73-8.15,22.4-29.27,35.08-51.72s25.35-46.15,34.95-61.4l-3.38-.4c12.44-20.59,23-40.09,36.59-64.64l-4.46,3.08c5.11-10.1,14.17-24,24.48-40s21.88-33.87,32.05-50.89c-0.09,1.27-5.68,10.31-10.21,17,8.15-11.67,15.11-22.86,21.44-33.5s12-20.74,17.55-30.5,11-19.23,16.75-28.92S893.28,272,900.28,261c2.34-4.14,4.72-8.11,7.13-12.06L912.5,241c-0.38.62-.68,1.11-0.88,1.47l1.78-2.84,7.27-11.26-6.35,9.78,12.21-19.87,4.22-6.15,1-1.66c2.63-4.15,3.29-5.3,2.89-4.78s-2,2.83-4,5.9l5.8-9.5c3.28-4.87,6.24-9.69,9.68-15.19l10.1-16.06,2.27-3.64a28.81,28.81,0,0,0-2.88,2.29c-1.3,1.14-2.91,2.64-4.83,4.61s-4.18,4.45-6.82,7.6-5.68,7-8.8,11.19a22.62,22.62,0,0,1,3.27-4.28c-1.65,1.55-3,2.68-4.94,4.66a141.92,141.92,0,0,0-9.33,10.9l12.45-18-14.18,18.15-16.92,22c0.31-.57.64-1.17,1-1.83l0.61-1,0.34-.55,0.18-.28,0.09-.14,0-.07,0,0v0h0l-27.47,38.34c-6.24,6.86-7,7.14,6.31-9l-29.16,34.78c-2.85,3.4-5.56,6.64-9.33,11.24s-8.6,10.55-15.54,19.32l3.38-5.27c-4.38,5.11-10.72,13-16.3,19.9s-10.47,12.89-12.34,14.39c-7.92,7.7-32.12,35.49-60,67.71-14,16.12-28.89,33.35-43.52,49.88s-29,32.37-42.11,45.81c3.08-.9,3,0.15,1.33,2.31a116.55,116.55,0,0,1-9,9.17c-7.7,7.38-17.28,16.4-16.8,20.31-3.78,1.67-11.53,8.91-4-2-12.68,15.77-22.9,26.33-32,36.17s-17,18.89-23.83,31.11c-4.62,2,3.3-8.45-.31-6.25-0.9,1.36-2.66,4-4.65,6.68-1,1.32-2.05,2.62-3.09,3.73a13.6,13.6,0,0,1-2.81,2.46c-1.74,1-1.2-.29.17-2.5,0.65-1.07,1.67-2.5,2.69-4s2.08-3,3-4.3q-2.55,2.91-4.76,5.55c-0.77.9-1.38,1.68-2,2.47l-1.79,2.3c-2.28,3-4.19,5.68-5.78,8.11a50,50,0,0,0-6,11.81c-2,6.24-.45,9.64,1.17,12.77-14.81,12.83-20.79,20.39-26.29,33.93-6,3.75-15.13,10.79-.44-7.79-4.43,5-18.23,20-30.52,34.29s-23,28-21.14,30.38c-3.86,2.23-12.36,14-14.07,17.09-9.77,11.32-15.2,17.39-20.49,23.48-2.64,3-5.25,6.1-8.36,9.82l-5.09,6.16-6.56,8.06,1.24-1.22,2.12-2,3-2.78a22.43,22.43,0,0,1-1.08,4.84,22,22,0,0,1-.9,2.23c-0.46.88-1,1.73-1.48,2.57a70.64,70.64,0,0,1-7.93,10c-3.2,3.51-7,7.37-11.14,11.88S395.3,836,390.86,841.7l-0.63-.5L382,849.7c-2.46,2.61-4.63,5-6.61,7.18-4,4.36-7.07,7.9-9.52,10.77A123.94,123.94,0,0,0,357,879c-1.72,2.53-2.92,4.51-5.86,8.21s-7.61,9.08-16.69,19l14.75-.27s1.57-1.54,3.24-3.1,3.42-3.12,3.42-3.12A54.83,54.83,0,0,1,375,893.33c5.83-.76,11.73-0.48,19.12-0.19s16.23,0.61,26.4.16a170.69,170.69,0,0,0,31.62-4.11l-6.75-.61L439,887.9c5.58-1.73,11.27-2,18-1.61,3.34,0.2,6.92.57,10.79,1l1.44,0.18,1.14,0.23,2.29,0.48,4.62,1c12.37,2.9,24.83,6.46,33.37,6,3.81,0.49-5.6,2.35-10.65,3.76,45.12,0.7,4.81-7.61,37.55-13.63,6.58,2.88-6.57,10.45,15.7,8.16,11.45,1.5,62.73-20.64,93.94-17.62-7.05-2-14.06-3.9,1-8.1,23.33-4.17,64.88,2.24,84.86-9.59,3.09,0.38,4.31,1,4.53,1.67,4.41-1.18,10.22-2.5,16.62-3.92l9.94-2.19,2.55-.57,0.64-.14,0.38-.11,0.71-.21,2.91-.87c3.93-1.18,8.05-2.47,12-3.87a70.07,70.07,0,0,0,10.45-4.55c-0.29,2.08.22,3.49,1.31,4.38s2.79,1.26,5.06,1.23a58.73,58.73,0,0,0-2.36,14.77c-0.3,5.15-.43,11-0.92,16.9l-0.09,1.09,0,0.3-0.06.42-0.12.84-0.48,3.3c-0.32,2.16-.66,4.22-1,6.17a82.05,82.05,0,0,1-2.42,10.18c-1.83,5.65-4.14,8.79-7.32,8l-10.76,54.62L773.09,964c-8.52,34.56-7.21,47.71-5.89,60.78-2.84,7.8-3.12,1.6-3.84.75-14.19,50.13-14.57,55.34-15.49,99.71l-6.28,3.29c0.63,12.22-24.08,71.71-28.52,122.91-0.51-.62-1.32-1.87-1.22-6-2.87,28.72-13.74,61.51-22,90.2-2.07,7.17-4,14.09-5.56,20.63-0.79,3.27-1.5,6.44-2.1,9.5q-0.45,2.3-.83,4.5l-0.89,5.38a150.54,150.54,0,0,0-2.35,23.32c0,6.32.89,11,2.87,13.57q-2.16,18.81-3.82,35.26l14.2-2c-5,.15-9.09.21-12,0.17,3.92-14.65,5.72-16.93,7-15.68a11.72,11.72,0,0,1,1.58,3.6,8.33,8.33,0,0,0,1.67,3.36c2.87-1.06,4.33-2,3.13-2.67a34.45,34.45,0,0,0,1.66-4c-0.14.94-.31,1.93-0.53,3.05a100.11,100.11,0,0,1,14.36.07,74.61,74.61,0,0,1,11.38,1.63c5.69,1.4,6.4,3.22-7.37,4.45l-3.61-.8c-2.3,1.42-3,2.49-2.36,3.27s2.73,1.29,5.81,1.6c6.16,0.61,16.35.41,27,.09l8-.25,4-.13,3-.07c3.86-.07,7.49-0.1,10.6,0,6.22,0.19,10.36.87,10.13,2.65,26.5-1.58,52.84-2.67,79-3.52l109.9-3.79L930,1371.66l-8.59-17.1-3.44-6.89-2.78-5.61-5.57-11.17-2.63-5.45,0.41-5.21,0.7-11.43-8.59,10,2.14-31.42c2.31-8.15,6.88-10.74,5.35,11.67,5.19-11.55-1.81-37.83-3.51-38.56,5.6-43.75,8.45,17.66,9.36,4.2l0.38-18.32-1.16,4.07c-2.49-15-5.9-16.5-4.06-43.45,2.53-17,5.43-8.49,6.09-15.19,0.58,0.07,1-2.18.79-10.29l2.81-39.58-7.19,15.5c-2.19-17.73,2.33-37.24-5.84-19.34,12.52-26.24,11.9-147.57,16.21-163.86-3.31-24.84-1.92-49.11.25-79.15-1.73,7.41-9.09,11.49-6.83-14.39a4.91,4.91,0,0,0,3.59,1.17,3.26,3.26,0,0,0,1.45-.64c0.23-.19.44-0.33,0.64-0.48a5.84,5.84,0,0,0,.59-0.52c1.51-1.53,2.52-4,3.29-7s1.32-6.43,1.91-9.89A56.05,56.05,0,0,1,928,854c5,2,9.49,4.42,12.78,7.61-1.45-1.2-2.17-2.05-2.13-2.6s0.78-.81,2.07-0.88c2.57-.13,7.22.53,11.88,1.09l1.75,0.21,0.44,0,0.72,0.11,1.53,0.23c2,0.3,4,.57,5.79.8a64.79,64.79,0,0,0,9,.66c4.37-.13,4.94-1.58-1.75-5.53,21,5.6.16,5.67,15.55,12.43,17.48,1.67,35.79,5.29,54.81,9.78,9.51,2.24,19.19,4.7,29,7.25l7.41,1.92,0.93,0.24,0.31,0.09,0.23,0.07,0.93,0.29,1.83,0.57,7.09,2.21c0.78,2.39,1.56,4.71,2.34,7l0.59,1.68,0.3,0.83,0.15,0.41,0.07,0.21,0.16,0.42,2.83,7.07c3.83,9.43,7.85,18.86,12.17,28.22,2.18,0.15.71-10.83,8.72,0.63l4.27,34.77,0.32,0.59,29.52,54.48,16-54.78c3.35-11.49-5.85-14.68,8.82-33.06-2.74,2.39-6.85,5.95-4.22-2.1,15.24-30.41,28.81-61.93,41.8-93.93q4.87-12,9.65-24.08l12.48-31.42,27-67.84c-20.73,2.2-41.15,4.27-61.54,6.17-10.2.95-20.4,1.85-30.68,2.7l-7.38.6-5.48.39-11,.7c-29.21,1.74-58.46,2.38-87.7,1.2,17.47,2,6.11,3.54-6.94,5,8.58,0.05.28,4.77,2.2,7.22l-53.57-2c-8.92,8.19-56.62,6.08-61.45,13.55l16.61-2.9c-21.45,10.37,32.94,15.09,30.72,25.9,24-11.75,67.07,7.27,106.65-10.06,9.24,1.25-7.37,4.14-2.3,6.09,9.92-5.52,22.35-7.68,45.74-8l-2.51,1.37c10.6-1.23,20.23-2.21,29.24-3l3.35-.29,2.2-.17,3.73-.24q3.66-.21,7-0.33c9-.31,16.66-0.14,23.83.19-5.08,9.51-10.33,19.1-15.54,29.09,0,0,1.51-.25,3.09-0.67s3.22-1,3.22-1c-3.49,6.69-7.49,12.13-11.26,17.88,0.21,9.89,4.53-.34,9-10.71l1.06-2.33c0.34-.72.67-1.42,1-2.08a19.83,19.83,0,0,1,2.08-3.36,3.42,3.42,0,0,1,2.15-1.48c0.72,0,1.43.42,2,1.8a30.6,30.6,0,0,0-5.75,5.92l-0.66.89-0.32.45-0.16.23a2.53,2.53,0,0,0-.19.3q-0.92,1.61-1.85,3.35c-1.24,2.32-2.49,4.82-3.76,7.45-5.07,10.52-10.34,23.19-15.57,35.65-10.46,24.92-20.76,49-29,53.25-9.29,22.48,8.29-4.31-1,18.16l-5.46,4.73,1.55,7.28c-6.69,14.49-13.52,20.38-16.3,19.89,1.77-3.45,3.46-10.47,4.81-14.39a115.38,115.38,0,0,0-8.9,17.89l52.93-.34c-7.45-17.62-18-36.16-19.18-41.25l7.3,22.29c-5.26-10.95-10.49-22.45-15.72-34.27l-3.92-8.93-4.42-10.21L1121,850.55,1074.7,841c-11.35-2.31-22.67-4.55-33.85-6.63-22.35-4.16-44.13-7.68-64.47-9.78l4.26,3.4c-4.92-.56-9.23-1.11-13.06-1.67-1.92-.28-3.71-0.55-5.4-0.83l-3.27-.59-3.17-.6c-8.21-1.58-14.52-3.07-20.49-4.63-11.89-3.11-22.48-6.49-42.09-10.88-0.6,8.51-1.17,20.23-1.57,35.4L891.18,841c0.77,8.55,1.2,17.69,1.28,27.11q0,3.53,0,7.13l-0.11,6.46c-0.08,3.59-.25,7.24-0.51,10.91-2.15-13.71-6.95,25.21-9.19,7.26,2,53.28,2.43,26.43,9.68,61.94l-4.51,7.86c3.05,12.13,4.94,13.23,4.56,40.1-2.32-22.18-7.12,16.78-10.42-8.1-11.93,55.78,4.52,84-9.89,109.14,9.89,26.44,8.86-48.35,10.51-33.75,4.33-11.92,7.29,21.78,5.21,39.37-1.22,18-16.07,29.79-18.27,75,0.29-4.49-.55-4.85-0.25-9.33-3.78,16.77,2.12,33.36-3.67,53.86,6.2,12-1.83,26.93,6.68,30.74l0.21-41.58c1,23.63,10,46.22,3,84.69-1.59-3.11-3.28-14.76-4.14-22.75-1.59,5.59-1.46,11.07-1.33,16.6,0.06,2.76.12,5.54,0,8.35-0.08,1.41-.22,2.82-0.43,4.24l-0.18,1.07-0.1.54-0.05.27-0.06.36q-0.25,1.46-.58,3a3.51,3.51,0,0,1-1.38-1.56,9.13,9.13,0,0,1-.54-1.31c-0.08-.22-0.16-0.56-0.24-0.72s-0.15-.4-0.22-0.61a28.13,28.13,0,0,1-1.13-6.58,189.2,189.2,0,0,1,.1-20c0.61-15.34,1.62-33.4-1-46.17-4.33,12,3.75,48-5,34.82,3.91,6.69,4.55,14.24,4.08,22.59-0.23,4.18-.74,8.55-1.25,13.13l-0.19,1.72-0.1.87-0.12,1.29-0.46,5.44c-0.29,3.67-.56,7.43-0.76,11.23,1.43,2.73,2.94,5.49,4.51,8.26q1.18,2.07,2.42,4.15l1.25,2.07,0.64,1,0.47,0.69a79,79,0,0,0,8.44,10.29l-5.56.63c1.49,2,3.94,4.88,6.53,8.31l0.49,0.65,0.12,0.15,0.07,0.07,0.14,0.14,0.58,0.59c0.38,0.41.76,0.84,1.13,1.29a15.46,15.46,0,0,1,1.86,2.87,40.79,40.79,0,0,0-5-2.28c-0.59-.21-1.16-0.4-1.69-0.55l-0.75-.2c-0.33-.24-0.7-0.57-1-0.82l-2.11-1.75q0.76,0.88,1.47,1.78l0.71,0.9,0.17,0.23a0.48,0.48,0,0,0,.1.08l0.17,0.14a9.65,9.65,0,0,1,1.25,1.21,11.81,11.81,0,0,1,1.8,2.84,12.48,12.48,0,0,1,1.12,5.48c0,1.59-.37,2.81-0.36,4s0.38,2.29,2.08,4.27a1.06,1.06,0,0,0-.2.24l0.56,0c-1.53-3-1.81-4.35-1.41-5s1.52-.47,3,0.08,3.22,1.47,4.7,1.89,2.64,0.26,2.57-1.89a90.11,90.11,0,0,1,6.39,9.22,24.78,24.78,0,0,1,2.77,5.94c-8.56-.67-15.76-3.83-22-6.51a74,74,0,0,0-8.61-3.3,18.13,18.13,0,0,0-4-.69,16.16,16.16,0,0,0-2.13,0l-3.4.25-4.81.4a41.11,41.11,0,0,1,4.14-.3c0.78,0,1.6,0,2.45,0h1.27l0.36,0.08a16.27,16.27,0,0,1,3.13,1.21,7.56,7.56,0,0,1,2.55,1.83c0.48,0.67.44,1.37-.79,2-1.39-.19-2.84-0.44-4.21-0.75l-0.51-.12-0.25-.06a1.37,1.37,0,0,0-.26,0l-0.34,0-2.71-.17c-1.8-.12-3.6-0.26-5.35-0.41-7-.6-13.41-1.45-17.49-2.6-45.49,3.55,7.28,5-11.93,9.25-15.85-5.51-22.22,3.79-42.08,6.9l-0.43-5.29c-26-.3-29.33,2.65-32,5.47-0.32.35-.68,0.71-1,1a5.35,5.35,0,0,1-3.17,2.56,18,18,0,0,1-5,.84,54.32,54.32,0,0,1-8.25-.3s1-.52,2.47-1.28,3.24-1.79,4.85-2.79,3.05-2,4-2.75,1.57-1.24,1.57-1.24l-5.69,1.26-6.23,1.29s1.67-1.6,3.13-3.19,2.78-3.17,2.78-3.17a54,54,0,0,1-7.52,2.67,37.36,37.36,0,0,1-6,1.16c0.57-3.59,2.28-8,4.38-13.43-2.27,1.71-4.93,2.62-6.56.85a7.68,7.68,0,0,1-1.54-4.68,24.89,24.89,0,0,1,.05-3.88c0.06-.73.15-1.49,0.26-2.29l0.1-.63,0.19-1,0.41-2.08c6.36-14.69,3.09,9.65,9.18-22.42,0.85,3.95,1.87,8.11,1.72,12.9a29.53,29.53,0,0,1-1.29,7.7,35.45,35.45,0,0,1-1.63,4.29c-0.34.74-.71,1.5-1.11,2.27-0.31.3-.65,0.62-1,1a11.06,11.06,0,0,1,2.15,2,4.72,4.72,0,0,0,2.25,1.52,16.16,16.16,0,0,0,1.53-2c0.21-.33.4-0.66,0.56-1l0.12-.25a2.26,2.26,0,0,0,.1-0.32l0.13-.44,0.49-1.79c1.28-4.8,2.34-9.84,3.26-14.75,1.84-9.82,3.1-19.11,4.31-24.89-1.14,4.41-2.56,9.66-3.87,12.23l2.69-47.8c3.51-6.87,3.84-.75,4.15,5.3,1.43-9.49.43-16.48,2.94-30.35,3.45,4.47,8,4.54,5.81,24.47l4.74-45.08c2.46-2.55,9.88-21.54,10.2-15.49,7.7-23.9,4.63-61.69,14.83-93.38-0.46-1.86-.52-5.4.35-12.42,7.46-30.24,18.4-56.11,20.34-93.43l11.94-18.86c4.33-28.63-15.45,25.68-8.24-22,4.71-33.83,9.11-11.06,13.71-22.29-0.27-17.38-1.87-47.85,10.84-77.14C834,916.69,831.17,924.39,829.7,934ZM571.3,836.15c6.7-2,19.89-7.26,25.31-4.83C589.62,838.4,583.2,836.33,571.3,836.15ZM582.41,637.4c-2.25,4.8-7.7,10.6-14.48,16.63A130.22,130.22,0,0,1,582.41,637.4Zm97.42,131.12a4.78,4.78,0,0,0-.71.33C663.59,768.3,669.11,768.58,679.84,768.51Zm32.06-.85c3.13-1,2.83-1.77,1.41-2.37-2.09,1.55-9.23,2.35-17.41,2.78C698.3,769.24,702.51,769.79,711.9,767.67Zm200.49,420.44-1.72,6.14C909.89,1180.14,911.06,1184.14,912.39,1188.11Z" transform="translate(-334.47 -167.21)"/>
      <path class="cls-2" d="M548.18,688.78a4.58,4.58,0,0,1-3.57.89C543.45,692.23,544,692.79,548.18,688.78Z" transform="translate(-334.47 -167.21)"/>
      <path class="cls-2" d="M786.09,1151.33c-0.12.35-.18,0.7-0.29,1a2.52,2.52,0,0,0,.71,1.27Z" transform="translate(-334.47 -167.21)"/>
      <path class="cls-2" d="M682.3,564.26c4.31-5.4,7.59-9.13,10.37-12.11C690.79,553.51,687.6,557,682.3,564.26Z" transform="translate(-334.47 -167.21)"/>
      <path class="cls-2" d="M813.19,724.9l-1.47,10.16-1,7a0.57,0.57,0,0,0,0,.18V743c0-.17,0-0.33.07-0.48l0-.22,0.1-.46c0.23-1,.46-2,0.69-2.85,0.46-1.75.92-3.21,1.39-4.52,0.93-2.61,1.87-4.6,2.8-7C814.51,727.73,811.94,731.18,813.19,724.9Z" transform="translate(-334.47 -167.21)"/>
      <path class="cls-2" d="M882.49,557.83c0-3.06,1.26-6.23,1.23-9.25l-2.58.28C878.63,561.37,878.71,570.51,882.49,557.83Z" transform="translate(-334.47 -167.21)"/>
      <path class="cls-2" d="M834.4,710c4.71-.65,5.91-13.54,8.1-27.75-0.16.85-.3,1.66-0.53,2.48C836.76,679.32,835.57,694.71,834.4,710Z" transform="translate(-334.47 -167.21)"/>
      <path class="cls-2" d="M843,679c0.72-4.37,1.56-8.81,2.67-13C843.62,663.83,844.08,671.15,843,679Z" transform="translate(-334.47 -167.21)"/>
      <path class="cls-2" d="M752,760.74c6.88,0.47,3.69-6.1,7.7-4.67C766.7,749.67,715.2,767.36,752,760.74Z" transform="translate(-334.47 -167.21)"/>
      <polygon class="cls-2" points="516.74 534.53 510.27 538.41 512.93 547.21 516.74 534.53"/>
      <path class="cls-2" d="M800.15,778.32l21.81-.61c-0.82-.85,1.54-1.62,4.43-2.32C813.51,776.47,800,776.7,800.15,778.32Z" transform="translate(-334.47 -167.21)"/>
      <path class="cls-2" d="M826.39,775.39c1.61-.13,3.19-0.28,4.7-0.44a62.88,62.88,0,0,0,1.63-12.17c-0.5,2.54-1.39,7.23-2,11.74C829.09,774.8,827.65,775.09,826.39,775.39Z" transform="translate(-334.47 -167.21)"/>
      <polygon class="cls-2" points="511.8 565.54 509.25 571.93 505.48 587.7 511.8 565.54"/>
      <path class="cls-2" d="M563,800.67l-14.8,2.4,3.83-7c-0.85,0-2.32,1.09-4.08,3.05a54.51,54.51,0,0,0-5.59,7.67c1-.14,2.33-0.33,3.73-0.57,4.07-1.06,8.52-2,11.81-2.92S563.27,801.55,563,800.67Z" transform="translate(-334.47 -167.21)"/>
      <path class="cls-2" d="M631.5,809.07a24.4,24.4,0,0,1-6.78-1.18c-1.66-.52-3-1.15-5.18-1.85l-0.46,3.48L618.56,813l2.37-.65,2.39-.66,1.33-.37,1.1-.36Z" transform="translate(-334.47 -167.21)"/>
      <path class="cls-2" d="M541.1,819.59c-1.81.77-7.72,2.1-14.05,3.46s-13,2.75-15.85,3.59c0-.4-0.34-0.24-1.12.71,1.14,0.19,6.22-.17,17.38-1.38,3.26-1.27,13.88-3.18,19.8-4.59S554.57,819,541.1,819.59Z" transform="translate(-334.47 -167.21)"/>
      <path class="cls-2" d="M731.94,511.06l-3.27,5.08,3-2.53,1.43-1.23,0.38-.33,0.18-.06,0.37-.12,1.58-.49,4.3-1.35-2.6-1.33c-0.76-.18-0.83-1.25-2.87.54Z" transform="translate(-334.47 -167.21)"/>
      <path class="cls-2" d="M773.15,422.89c13.48-16.3,35.13-46.42,40-51.3,3.35-4.33,4.59-6,5-6.67s0-.29-0.29-0.05-0.54.36,0.15-.67,2.3-3.21,5.38-7.18L811.6,372c-3.29,4.17-6.08,7.72-9.22,11.78s-6.64,8.7-11.34,15Z" transform="translate(-334.47 -167.21)"/>
      <path class="cls-2" d="M823.44,357l10-12.68C829.13,349.74,825.94,353.81,823.44,357Z" transform="translate(-334.47 -167.21)"/>
      <polygon class="cls-2" points="628.62 572.06 609.4 571.61 622.03 574.15 628.62 572.06"/>
      <path class="cls-2" d="M927.47,751.14l-5.17-6.66L911.53,752C915.79,751.29,924.05,749.86,927.47,751.14Z" transform="translate(-334.47 -167.21)"/>
      <path class="cls-2" d="M516.87,829l-1.21,1.9c3.17,1.45,7.62,1,16.52.09Z" transform="translate(-334.47 -167.21)"/>
      <path class="cls-2" d="M784.55,798.39l-7.84.91s3.56,1.15,6.78,2.35,6.15,2.43,6.15,2.43-1.12-1.44-2.4-2.86S784.55,798.39,784.55,798.39Z" transform="translate(-334.47 -167.21)"/>
      <path class="cls-2" d="M829.36,1001.8c2.12-8.61,2.89-19.1,5-27.74C831.48,993.2,821,1002.47,829.36,1001.8Z" transform="translate(-334.47 -167.21)"/>
    </g>
  </g>
</svg>
