<svg id="_0" data-name="0" xmlns="http://www.w3.org/2000/svg" xmlns:xlink="http://www.w3.org/1999/xlink" viewBox="0 0 791.43 1275.96">
  <defs>
    <style>
      .cls-1 {
        fill: url(#linear-gradient);
      }

      .cls-2 {
        fill: none;
      }

      .cls-3 {
        fill: #ff9b20;
      }
    </style>
    <linearGradient id="linear-gradient" x1="801.5" y1="1418.67" x2="801.5" y2="184.33" gradientUnits="userSpaceOnUse">
      <stop offset="0" stop-color="#c44600"/>
      <stop offset="1" stop-color="#fb823b"/>
    </linearGradient>
  </defs>
  <title>number0</title>
  <g>
    <path class="cls-1" d="M999.69,184.33L653.06,361.07,431.58,1030.69s200.13,389.47,204.67,388,348.19-85.42,348.19-85.42l178.17-383.87,8.8-539.16ZM832,380.24L964.13,285l53.41,144.45L853.11,813.35,684.47,1078.77,646.09,965.44Zm101.5,809.61L757.46,1294.32l-21.22-62.67L866.31,900.27l178.5-277.51Z" transform="translate(-404.31 -155.99)"/>
    <g>
      <path class="cls-2" d="M999.69,184.33L653.06,361.07,431.58,1030.69s200.13,389.47,204.67,388,348.19-85.42,348.19-85.42l178.17-383.87,8.8-539.16ZM832,380.24L964.13,285l53.41,144.45L853.11,813.35,684.47,1078.77,646.09,965.44Zm101.5,809.61L757.46,1294.32l-21.22-62.67L866.31,900.27l178.5-277.51Z" transform="translate(-404.31 -155.99)"/>
      <g>
        <path class="cls-3" d="M918.32,1167.73c2.15-.81-0.9-4.36-1-5.25C914.56,1165.3,919,1168.71,918.32,1167.73Z" transform="translate(-404.31 -155.99)"/>
        <polygon class="cls-3" points="487.19 1039.82 486.8 1037.87 484.41 1044.65 487.19 1039.82"/>
        <path class="cls-3" d="M861.37,1213.59c6.85,5.07,10.25-7.56,17-8.34l1.8,1-0.81-6.88C873.39,1204.13,867.07,1212.76,861.37,1213.59Z" transform="translate(-404.31 -155.99)"/>
        <path class="cls-3" d="M836.67,1208.51c2.55,2-2.13,4.31,4.23-1.4a6.91,6.91,0,0,1-1.07-.26A20.13,20.13,0,0,1,836.67,1208.51Z" transform="translate(-404.31 -155.99)"/>
        <path class="cls-3" d="M839.82,1206.84c3.06-2.07-3.38-1,0,0h0Z" transform="translate(-404.31 -155.99)"/>
        <path class="cls-3" d="M826.08,1217l2.78-4.82c-1.79-1-5.71.82-5-1.13C820.34,1214.9,822.14,1215.92,826.08,1217Z" transform="translate(-404.31 -155.99)"/>
        <path class="cls-3" d="M825,1224.3l1.57-2.27C825.86,1221.6,825.15,1221.71,825,1224.3Z" transform="translate(-404.31 -155.99)"/>
        <path class="cls-3" d="M830,1217.21l-3.34,4.82c1.25,0.73,2.61,2.88,1.66-2C829.09,1222.24,828.85,1219.78,830,1217.21Z" transform="translate(-404.31 -155.99)"/>
        <path class="cls-3" d="M833.17,1216.69c3.21,0.08,6.79-.79,4,4C844.59,1215.06,840.59,1211,833.17,1216.69Z" transform="translate(-404.31 -155.99)"/>
        <path class="cls-3" d="M864,1221.49l4.31,0.13,1.36-3.88C869,1219.66,862.53,1219.49,864,1221.49Z" transform="translate(-404.31 -155.99)"/>
        <path class="cls-3" d="M798,1229c0.59,1.59,3.68,3,5.08,4.66l2.1-3.48C803,1230.08,799.48,1231,798,1229Z" transform="translate(-404.31 -155.99)"/>
        <path class="cls-3" d="M803.09,1233.61l-3.15,5.2C804.23,1236.65,804.29,1235,803.09,1233.61Z" transform="translate(-404.31 -155.99)"/>
        <polygon class="cls-3" points="424.45 1076.25 428.95 1066.57 423.03 1077.19 424.45 1076.25"/>
        <path class="cls-3" d="M783.65,1237.23s-0.3-.95-0.66-1.86-0.78-1.79-.78-1.79a24.52,24.52,0,0,1,1.08,2.76,26.89,26.89,0,0,1,.76,2.95s-0.08-.53-0.18-1S783.65,1237.23,783.65,1237.23Z" transform="translate(-404.31 -155.99)"/>
        <path class="cls-3" d="M781.9,1239.06a34.56,34.56,0,0,0-.61-4.47c-0.22-1.27-.31-2.43-0.43-3.5a29.86,29.86,0,0,1-.4,7C780.92,1236.18,780.93,1236.58,781.9,1239.06Z" transform="translate(-404.31 -155.99)"/>
        <path class="cls-3" d="M779.29,1242.93a29,29,0,0,0,1.16-4.87Z" transform="translate(-404.31 -155.99)"/>
        <path class="cls-3" d="M791.66,1242.76a11.4,11.4,0,0,0-2.18-1.44,6.47,6.47,0,0,0-1.73-.54,6.17,6.17,0,0,0-1-.08,0.4,0.4,0,0,1-.34-0.1l-0.23-.13,0.44,0.59,0.46,0.6,0.26,0.34a3.62,3.62,0,0,0,.38.28l2.11,1.48Z" transform="translate(-404.31 -155.99)"/>
        <path class="cls-3" d="M790,1243.86l-0.14-.09-0.73.39-0.34.18-0.14.06-0.44.18-0.57.21,0.54-.17,0.47-.14,0.14,0,0.35-.16Z" transform="translate(-404.31 -155.99)"/>
        <path class="cls-3" d="M792.13,1242.5l-0.47.26C792.08,1243.06,792.26,1243.12,792.13,1242.5Z" transform="translate(-404.31 -155.99)"/>
        <path class="cls-3" d="M814.49,1235.75c-1.37,3.87-5.58,9.64,1.93,9.85C816.73,1241.68,812.43,1241.58,814.49,1235.75Z" transform="translate(-404.31 -155.99)"/>
        <path class="cls-3" d="M797.38,1246.22l5.45-2c-0.73-1-2.54-2-1.86-4Z" transform="translate(-404.31 -155.99)"/>
        <polygon class="cls-3" points="391.44 1092.94 393.08 1090.23 391.06 1090.96 391.44 1092.94"/>
        <path class="cls-3" d="M781.29,1246.87a7.44,7.44,0,0,1-2.63,4.53A3.38,3.38,0,0,0,782,1251C782.1,1249.27,782.24,1246.11,781.29,1246.87Z" transform="translate(-404.31 -155.99)"/>
        <path class="cls-3" d="M785,1246.16c0,0.14-.08.23-0.1,0.37C785.16,1246.87,785.28,1246.94,785,1246.16Z" transform="translate(-404.31 -155.99)"/>
        <path class="cls-3" d="M770.77,1252.17l-0.47,1.26,0.52-1Z" transform="translate(-404.31 -155.99)"/>
        <path class="cls-3" d="M782.27,1251.91c1,0.45,1.5-1.17,1.7-3a6.78,6.78,0,0,1-2,2.1C782,1251.84,782,1252.35,782.27,1251.91Z" transform="translate(-404.31 -155.99)"/>
        <path class="cls-3" d="M777,1246.87a8,8,0,0,0,.35,2.8C777.29,1248,777.46,1245.16,777,1246.87Z" transform="translate(-404.31 -155.99)"/>
        <path class="cls-3" d="M784.36,1245.36a2.61,2.61,0,0,1,.05-0.27C783.94,1244.21,784.09,1244.68,784.36,1245.36Z" transform="translate(-404.31 -155.99)"/>
        <path class="cls-3" d="M784.36,1245.36c-0.19.9-.24,2.28-0.4,3.59a7.22,7.22,0,0,0,1-2.42A7.7,7.7,0,0,1,784.36,1245.36Z" transform="translate(-404.31 -155.99)"/>
        <path class="cls-3" d="M748.74,1281.19c1.6-2.07,3.62-2.65,5-1.64s2.12,3.75,1.62,9.55c1.88,0.45,4.47-5.61,7.16-13.22,1.35-3.8,2.74-7.95,4.07-11.85s2.62-7.58,3.72-10.59a21.46,21.46,0,0,1-1.9,3.31,3.9,3.9,0,0,1-3,1.75c-0.63,1.85-1,5.19-1.47,8.66s-1.19,7-3,7.92c-1.61-1.26-1.78-3-1.41-4.84s1.24-4,1.63-6.48c-1.5,4-3.34,4.73-5.67,5a13.92,13.92,0,0,0-3.75.81,8.66,8.66,0,0,0-4.07,3.83s1.08,1,2.12,1.88,2,1.67,2,1.67a5.41,5.41,0,0,1-1.82,1.54A3.12,3.12,0,0,0,748.74,1281.19Z" transform="translate(-404.31 -155.99)"/>
        <path class="cls-3" d="M771.81,1256.93l1.08-1.27c-0.31-.31-0.37-1.13-0.16-2.61,0.39-1.69.93-3.76,1.68-6.2a38.82,38.82,0,0,0-3.6,5.58l0.77,3.71,0.83-.33Z" transform="translate(-404.31 -155.99)"/>
        <path class="cls-3" d="M776.49,1253.5a66.93,66.93,0,0,1-3.31,8.7c-1.12,2.68-2.17,5.39-2.06,8.3a9.93,9.93,0,0,0,3.72-5,36.4,36.4,0,0,1,2.4-5.68c-2.69,2.28-2.15,1.2-1.36-.6s1.6-4.17.5-5.08a13.38,13.38,0,0,1,2.28-2.81,3,3,0,0,1-1.34-1.73V1250l0,0,0,0.08c0,0.7,0,1.14-.12.79a0.73,0.73,0,0,1-.09.17c-0.18.86-.39,1.66-0.61,2.43-0.81-.65.18-1.53,0.61-2.43l0.22-1V1250s-1,1.32-2.07,2.74-2.36,2.91-2.36,2.91C773.38,1256.14,774.56,1255.28,776.49,1253.5Z" transform="translate(-404.31 -155.99)"/>
        <path class="cls-3" d="M816.59,1257.36a1.63,1.63,0,0,1-.86-0.76C815.41,1257.45,815.38,1257.93,816.59,1257.36Z" transform="translate(-404.31 -155.99)"/>
        <path class="cls-3" d="M811.24,1257.2c0.35-1,0-2.94,2.44-3.85,2.66,0.07,1.15,2,2,3.24,0.7-1.88,3-5.72-2.42-5.2l-0.34,1c-4.63.86-12.54-1.33-12.21-2.28A35.29,35.29,0,0,0,811.24,1257.2Z" transform="translate(-404.31 -155.99)"/>
        <path class="cls-3" d="M788,1260.21l-2.48,2.82-2.69,2.95s0.79,0.72,1.7,1.38,1.89,1.26,1.89,1.26l-0.55-2.54C789.58,1265,788.14,1262.36,788,1260.21Z" transform="translate(-404.31 -155.99)"/>
        <path class="cls-3" d="M772.14,1248.87l1.63-3,1.61-3.06s-1.18,2-2.43,3.85-2.58,3.41-2.58,3.41,0.46-.25.9-0.56S772.14,1248.87,772.14,1248.87Z" transform="translate(-404.31 -155.99)"/>
        <path class="cls-3" d="M770.54,1246l3.18-4.15s-0.53.49-1.07,0.93-1.1.83-1.1,0.83l-0.51,1.17Z" transform="translate(-404.31 -155.99)"/>
        <path class="cls-3" d="M1045.29,573.73l3.92-8.37C1047.59,568.57,1046.36,571.26,1045.29,573.73Z" transform="translate(-404.31 -155.99)"/>
        <path class="cls-3" d="M1028.57,599.17l-2.53,7.9C1028,601.88,1029.18,598.39,1028.57,599.17Z" transform="translate(-404.31 -155.99)"/>
        <path class="cls-3" d="M852.4,1010.69c5.22-2.16,12.68-3.93,8-5.28l-4.88-.62A7.8,7.8,0,0,1,852.4,1010.69Z" transform="translate(-404.31 -155.99)"/>
        <path class="cls-3" d="M915.22,822.2l-1.83.18,2.4,4.69C915.58,825.59,915.41,823.94,915.22,822.2Z" transform="translate(-404.31 -155.99)"/>
        <path class="cls-3" d="M900.11,809.2l5.38-2.68A17.33,17.33,0,0,0,900.11,809.2Z" transform="translate(-404.31 -155.99)"/>
        <path class="cls-3" d="M1091,549.42l3.76-6.57,3.73-6.4C1100.19,527.61,1095.07,541,1091,549.42Z" transform="translate(-404.31 -155.99)"/>
        <path class="cls-3" d="M789,1168.69a21.6,21.6,0,0,0,5.76-6.8C790.74,1164.68,785.71,1166.24,789,1168.69Z" transform="translate(-404.31 -155.99)"/>
        <path class="cls-3" d="M980.85,767.52c1.36-3.71,2.69-7.57,3.92-11.45C983.37,759.76,982.11,763.4,980.85,767.52Z" transform="translate(-404.31 -155.99)"/>
        <path class="cls-3" d="M798.33,1152.8a20.67,20.67,0,0,0-1.7,1.25,18.69,18.69,0,0,1-1.85,7.84C797.77,1159.84,800.2,1157.1,798.33,1152.8Z" transform="translate(-404.31 -155.99)"/>
        <path class="cls-3" d="M988.17,1052.84a6.66,6.66,0,0,1-.73.75C988.06,1053.79,988.16,1053.42,988.17,1052.84Z" transform="translate(-404.31 -155.99)"/>
        <path class="cls-3" d="M919.29,1153.77a24.53,24.53,0,0,1,.52-4.6C919.33,1149.93,919.1,1151.3,919.29,1153.77Z" transform="translate(-404.31 -155.99)"/>
        <path class="cls-3" d="M768.56,1231.32c0.05,0.71.5,0.16,0,0h0Z" transform="translate(-404.31 -155.99)"/>
        <path class="cls-3" d="M750,1237.74a5,5,0,0,0-2.58-.39A6.59,6.59,0,0,1,750,1237.74Z" transform="translate(-404.31 -155.99)"/>
        <path class="cls-3" d="M779.85,1118.57c0-.07.07-0.12,0.1-0.2C778.81,1118.73,779,1118.68,779.85,1118.57Z" transform="translate(-404.31 -155.99)"/>
        <path class="cls-3" d="M765.84,1232.3a11.14,11.14,0,0,0,1.87-.89A6.66,6.66,0,0,0,765.84,1232.3Z" transform="translate(-404.31 -155.99)"/>
        <path class="cls-3" d="M768.29,1232.22l-0.22.18-0.19.43c0.75,0.07,1.24,0,.61-0.42A1.94,1.94,0,0,1,768.29,1232.22Z" transform="translate(-404.31 -155.99)"/>
        <path class="cls-3" d="M768.67,1230.31a1.94,1.94,0,0,1-1,1.09,1.63,1.63,0,0,1,.84-0.08A5.29,5.29,0,0,1,768.67,1230.31Z" transform="translate(-404.31 -155.99)"/>
        <path class="cls-3" d="M1015.41,847.68a5.11,5.11,0,0,1-.54.44C1016.32,851,1016.22,849.85,1015.41,847.68Z" transform="translate(-404.31 -155.99)"/>
        <path class="cls-3" d="M830.25,931.49c0,0.13.1,0.23,0.1,0.35l0.3-.28Z" transform="translate(-404.31 -155.99)"/>
        <path class="cls-3" d="M830.25,921.76c4.12,5.76,2.64,7.53.4,9.79l13.9,2.24Z" transform="translate(-404.31 -155.99)"/>
        <path class="cls-3" d="M1088.54,503.95s0.55-2.85,1-5.54,0.84-5.27.84-5.27c9.84-21.81,15.39-32.59,18.91-40,1.77-3.7,3.07-6.6,4.23-9.76a109.54,109.54,0,0,0,3.36-11.16c-7.14,18-12.45,29.89-16.73,38.53s-7.62,14.19-11,19.73-6.67,11.07-10.64,19.23a368.55,368.55,0,0,0-14.34,34.81l0.51-3.7,0.43-3.57c0.88-1.11,2.35-5,3.24-6.13,0.79-4.53-.26-3.3-2.23.94s-4.88,11.57-8,19.52-6.5,16.55-9.4,23.41-5.31,12-6.75,13.21c-0.74.1-1-1-.53-3.43a57.32,57.32,0,0,1,3.82-11.08L1034,598.15c-1.63,2,1.71-8,3.44-10.15l-11.87,20.66,0.51-1.6c-1.91,5.12-4.55,12-7,18.41l-6.21,16c-0.25-1.6.38-3.3,1.23-5.3a34.61,34.61,0,0,0,2.43-6.75l-4.29,10-4.13,9.76c0.5-4.36,2.52-11,5-17.4s5.39-12.36,7.16-14.59c2-10,2.32-13.51,1.78-13.56s-2,3.44-3.76,7.77-3.85,9.51-5.8,13.09-3.78,5.55-5.48,4.17l7.29-14.83c1.16-9.63-.28-9.88-2.4-8.35-1.07.78-2.32,2-3.6,2.93s-2.59,1.46-3.85,1a24,24,0,0,0,1.26,4.15,26.56,26.56,0,0,1,1.27,7c0.33,5.86-1,14.53-5.33,24.69-0.55-.19-1.36.3-2.67,2.54a86.93,86.93,0,0,0-5.58,12.78c2.69-14-1.54-5-6,2.42l3.08-17.8a105.45,105.45,0,0,0-6,16.68c-1.39,5-2.54,9.92-4.35,15.66-2.43,3.14-3.61,2.13-4.29-.55s-0.82-7.11-1.09-10.93c-4.66,6.22-3.28,8.1-2.35,11.26s1.38,7.63-3.56,16.54c-3.27,2.59-6.34,7.46-9.42,13.92s-6.2,14.6-9.68,23.89c-2.46,1.57-2.52-.32-2.13-2.83s1.21-5.58.15-5.79c0,0-.84,3.9-1.59,7.66s-1.41,7.38-1.41,7.38c-1,1.32-1.14-1.66-1.19-3.19-1.49,4.32-1,6.88-.86,9.79a22.32,22.32,0,0,1-1.94,11.09c0.66,6.14-2.53,5.87-6.9,7.67a16.78,16.78,0,0,0-6.63,4.58,16.32,16.32,0,0,0-3.83,10.07c-1.38.3-1.88-.92-2.26-2.48s-0.66-3.47-1.74-4.3c-1.49,5-2.46,8.32-3.2,10.91s-1.2,4.41-1.57,6.18a46.8,46.8,0,0,0-.8,5.68c-0.09,1.1-.17,2.33-0.22,3.73l-0.06,2.23v2.18l0,0.28-8.06,4c7.51-1.92,8.85,7.56,9.73,15.68a64.29,64.29,0,0,0,7.57-.94l-2.31,10.57c-1.63.4-3.12-1.76-4.69-4.75a24.09,24.09,0,0,0,.42,2.48c-4.15,1.64-6.55-2.14-8.45-6.45,1.84-.29,3.74-0.52,5.63-0.72-2.24-4.42-5-8.95-8.71-10.74a6.76,6.76,0,0,1-.2,3.82c-0.62-1.18-1.27-2.09-2-2.22s-0.07,1.62.54,4l-7.84-2.31,2.32,2.16-11.3,8.5c1.51,12.25,6.83,25.48,1.4,39.89-2.82-6.25-7.47-5.76-13.09-9.61,8.29,0.45,3.73-11.46,9.18-17.24-2.84,3-5.1.5-5.48-1l-2,15.25c-4.52-3.28-5.11.22-9,2,10.75,3.65.56,12.69,0.34,19.28-3.3-1.7-5.75-4.89-1.25-10.22-11.1,1.92,5.55,15.28-4.42,17.76,0.84-1.47,1.81-1.92.58-3.51,0.64,5.09-6.77,11.78-8.25,8.14l0.85-1.46-1,1.2c-0.33.43-.61,0.78-1.13,1.53C852,889,851,890.41,850,891.93l-1.18,3-0.59,1.53-0.52,1.42c-0.52,1.47-1,3-1.45,4.51a56.67,56.67,0,0,0-1.9,9c-0.67,5.76.06,10.68,3.41,12.74a88.47,88.47,0,0,1-11.48-6.81l22,30.1c-6.84-4.57-27.11-5.28-28-15.58-2,2.06-4.49,4.65-3.9,10.92,1.73-1.28,12.47,0,12.25,2.61-10.82,3.08-6.19,2.66-16.36,7.7,2.59-1.91,13.22,5.52,11.27,9.38-1.51-1.31-11.7-4.21-12.35-6.15l7.6,14.5c-1.09-3.31-9.59-4.27-13.73-3.32,2.67-.15-3.59,8.55-3.5,11.66L816,976c-6.17,10.59,11.82,17.49,6.82,28.43-1.84-2.29-13.33-9.09-17-4,4.87,4.92,23.83,22.67,24.49,34.35l-4.12.57,0.86,9.1c-7-8.21-20.49-28.8-24.91-38.9-4.32,3.17-4.44-.39-6.61,6.05-4,1-3.44-5.32-2.9-7.26l-7.81,13.91c7.14,2,2.49,14,8.45,15.65l-0.87-18.77c7.13,2.05,15.91,16.9,10.61,26.85-3.79,1.57-11.48-6.79-13.86-7.48,1.84,2.28.65,11.67-1.41,12l-1.95-5.87c-4.86,4.79,5.41,13-3.9,17.44-1.39,2.23-11.68,3.71-7.78,5.72,9.4-.84,34,7.93,38.87,12.86-0.86.63-12.47,9.69-17.43,10.91-7.72,1.54-12.34-11.71-19-10.41,1.83,0.88,3.29,4,3.68,5.19-2.6,1.9-5.42-3.33-6.72,2.49,6.61,3.65-5,10.94,4.88,4.91-0.11,6.15-3.69,5.14-5.85,11.57,5.3-.24,13.12,11.68,13,17.85-1.65-1-4.44-.71-5.72-0.54-5,10.76-10.44,15.43-14.53,25.67-2.06.28-6.05,4.43-8.23,1.14,0.66,2,2.49,4.25,1.42,7.48-8.44,3.76,1.84-7.43-7.26-5.61,3.9,2,2.39,10.39,3.15,15.89,6.81,1.07,5.3-9.95,4.54-15.46,8.65,3.37,14.61,14.78,14.39,27.08-1.2,9.37-7,1.51-6.39,3.47-7.79,15.43,9.73,19.57-1.73,30.42-7.57,3.12-11-4.06-15.47-4.45,0.64-7.77,7.68-9.29,9.31-14.09l-4.88,4.77c-1-2.93-.53-8.11,2-10-3.34,1.24-6.23,7.92-9.46,15.6-1.62,3.84-3.32,7.94-5.21,11.73-0.47.95-1,1.88-1.45,2.78l-0.76,1.34-0.81,1.38a46,46,0,0,1-3.56,5.11,27.45,27.45,0,0,0,1.58,4.35,2.21,2.21,0,0,0,3.21,1l0.64-3.89a2.91,2.91,0,0,1,3.21.23,6.78,6.78,0,0,1,1.55,2.32c0.78,1.65,1.4,2.85,3.28,1.1a36.17,36.17,0,0,0,2.1,4.06,26.35,26.35,0,0,1,4.36,4,5.3,5.3,0,0,1,1.15,4.55s-1.54.71-3.06,1.49-3,1.6-3,1.6a3.52,3.52,0,0,0,1.67-2.83,2.78,2.78,0,0,0-1.57-3c0.94,0.46,1,1.26.77,2.35s-0.79,2.45-1.13,3.86c-0.7,2.77-.5,5.92,3.81,4.9,0,0,.7-1.58,1.45-3s1.55-2.7,1.55-2.7a24.71,24.71,0,0,0,7.2,1.68c2.17,0.33,3.56.53,3.2,2.78,2.36-3.4,2.21-3.27,2.09-3.47s-0.09-.22.25-0.79a21.93,21.93,0,0,1,2.55-3.23c-1.9,2-2.9,2.7-3.53,2.62s-0.86-.85-1.08-1.57-0.44-1.39-1.15-1.49-1.92.29-4,2.17c3.72-3.12,4.44-4,4.91-5a4.51,4.51,0,0,1,1-1.56,8.24,8.24,0,0,1,3.43-1.7c-2.27.23-4.14,1.06-3.59-.73a16.33,16.33,0,0,1-2.21-.41l0.08-.08,0.09,0-0.15,0-0.13.05a1.79,1.79,0,0,0-.32-0.06h0l0.25,0.1a12.84,12.84,0,0,1-3.18,1.17,9.21,9.21,0,0,1-3.67-1.43c-1.58-2-.78-5.16-2.15-7.06,0.9-.84,1.41-0.4,2.06.15a3.55,3.55,0,0,0,2.75,1.09s-0.73-.84-1.42-1.8l-0.26-.36a3.76,3.76,0,0,1-.19-0.51l-0.31-.94-0.3-.92c4.77,1.37,11-5.66,10.72,3.08l2.92-6.83c4.17-3.06,7.4-8.25,6.82-12.46,2.27-2.87-1.86-10.23.63-6l1.41-12,1.18,0.35c4.78-10.47,1-25,14.13-34,0.25-4.06.29-8.34,4-13.85l4.44,0.39c0.43-5.16,9.43-12.32,6.07-15.93,12.67-.78,11.15-21.52,16.23-28.91l-5.07-2.35c2.49-5.48,3.12-11.43,3.76-19.19l-4.75-1.37c-1.42-7.47,9.31-14.12,12.56-23.78,1.5,1.33.1,3.56-1.63,4.84,14.82-7.25,1.84-26.84,13.42-34.14-0.67-3.22.63-4.84,2.48-6.19a1.24,1.24,0,0,0,0,.73,6,6,0,0,0,.47-1c1.23-.82,2.61-1.62,3.83-2.6a12.71,12.71,0,0,0-3.63,2,28.6,28.6,0,0,0,1.28-8.61l5.42,0.69c0-.26.12-0.45,0.13-0.73,2.95-2.16-1.43-3.23-5.74-3.15a15.38,15.38,0,0,0-1.45-5c8.88,0.79.34-8.75,10.08-8.61-3.36-3.6,2.68-16-5.43-21,1.18,0.35,2.06-.3,1.51,1.31,2.27-2.88,4.55-5.76,3.24-9.66l6.81,1.07L859,948.58c5.52-2.84,8.45-3.76,11.58,2.44-3.35-13.31.52-9.53-3.36-21.26l3.88,2c1.09-3.22-2.37-10.41,1.73-11,2-.77,3.78-2.51,5.45-4.93a39.75,39.75,0,0,0,2.43-4.1l0.58-1.13q0.2-.33.39-0.68l0.73-1.43,0.81-1.09,0.41-.56,0.53-.78L887,901.9c1.91-2.84,3.9-5.77,6-8.61,4.19-5.7,8.8-11.08,14.06-14.86-12.83-3.76,9.73-4.52,1.79-10.54,3.16,0.68,6.08-.67,6.58,3.4,2.89-10,12.14-10,8.81-20.28,3.18,0.69,2.58,4.19,4.65,4.32-0.12-1-.51-4.09,1.58-4S931.76,854,932,856c5.07-8.83-2.23-14.75-9.21-20.11,6.28-2.09,7.18-4.56,4.35-10.81,3.38,0,7.53-.85,5,5a106.76,106.76,0,0,0,7.78-9.54l0.52-.78,0.18-.28,0.13-.22a8.18,8.18,0,0,0,.45-0.9,5.76,5.76,0,0,0,.46-1.87,5.2,5.2,0,0,0-1.57-4c1.69,0.68,2.07-2.26,1.91-3.5,3.15-4.11,3.65-3.72,6.1-8.76l-0.65-.05-0.66,0c-1.42-5.63-.84-7.41.19-8.16s2.54-.52,3.63-3.17l0.19,1.29c1.89-.11,2.79-0.43,3.37-1.11a6.13,6.13,0,0,0,1-2.56,4.37,4.37,0,0,1,1.07-2.33c0.57-.47,1.53-0.57,2.85.6l-0.58-8.86c-0.1-10.34,1.67-10,3.28-7.79,0.82,1.09,1.59,2.65,2.33,3.17s1.48,0,2.49-3.62c0,0-.13-1.2-0.28-2.35S966,763,966,763c0.64-2.79,1.17-2.72,1.48-.83a63.81,63.81,0,0,1,.32,9.94c-0.1,4.33-.39,9.28-0.69,13.33s-0.56,7.2-.47,7.72a49.64,49.64,0,0,1-1.41,6.45c-0.08,3.23-.07,4,0.22,2.85s0.78-4,1.38-7.44c1.22-7,2.68-16.31,4.34-20.37-0.68,4.51-2,10.93-3,16.1s-1.65,9.22-1.38,9.45c-0.29,1.84.11,0.52,0.92-2.38s2.08-7.42,3.43-11.84,2.79-8.73,3.68-10.79,1.21-1.82.12,3.18c1-4.27,2-8.44,3.09-12.6s2.27-8.34,3.86-12.8c0.72-1.6.85-.77,0.67,1s-0.64,4.57-.95,6.63c-0.58,4.06-.63,5.45,5.42-12.34-0.68,2.52-1.48,5.14-2.31,7.76,2-5.28,4.29-10.63,7.11-17.39s6.18-15,10.19-25.76c-3,8.86-4.92,14.76-6.06,18.45s-1.48,5.14-1.24,5c0.45-.17,3.24-6.65,6.31-13.62s6.32-14.33,7-15.18-1.37,5-8.92,24.53l5.88-10.8-3.5,8.61c0,0.08.05,0.1,0.09,0.09-1,3.45.36,0.87,2.78-4.37s5.94-13.25,9.42-21c-2.47,6.64-5.28,12.8-6.95,16.75-4,11.62-5.58,16.18-4.46,14.64,0.56-.78,1.81-3.13,3.76-6.91s4.63-9,8-15.3l-9.94,22.32c2.66-5.34-1.77,6.14-5.41,15.64-1.83,4.79-3.46,9.14-4.05,11.33s-0.13,2.26,2.13-1c-1,1.91-2.71,5.09-3.88,7.05,2.29-3.34,1.6-.6-0.07,3.73s-4.35,10.33-6.26,14.62c-3.85,8.72-4.68,10.81,9.42-9.51,0,0,1.5-1.29,2.94-2.27a25.51,25.51,0,0,1,2.83-1.7,42.33,42.33,0,0,1,8.19-14.21c1.58-1.91,3.19-3.64,4.74-5.59a35.66,35.66,0,0,0,4.49-7.11c0.34,1.29-2.41,7.51-5.19,12.49s-5.66,9-5.88,7.5l1.54-2.7a80.13,80.13,0,0,0-7.27,10.81,38.67,38.67,0,0,0-2.89,6.68c-1.25,3.74-2,6.86-6.59,12.19a83.84,83.84,0,0,1-2.89,11.58c-1.28,4.05-2.76,8.08-4.21,11.75l-4.05,10a61.61,61.61,0,0,0-2.79,8.28s2,0,4.11,0,4.16-.3,4.16-0.3l-0.23.81-0.24.83c-0.09.32-.16,0.54-0.31,1.14l-1,4.08c-2.26,1.8-6.75,1.69-5.27-4.12-5.08,2.21,1.82,10.6,3.5,11.1-5.45,10.88-8.32-6.3-9.2-2.81l-0.36,4.91,1.14-.9c2.46,4.52,5.82,5.53,4,12.53-2.46,4.16-5.32,1.34-6,3-0.57-.12-0.94.42-0.76,2.65L970,878.83l7-2.93c2.17,5.21-2.24,9.7,5.76,6.29-12.27,4.9-11.51,38-15.73,41.62,3.28,7.34,1.95,13.68-.15,21.46,1.69-1.7,8.92-1.5,6.73,5.13-14-5.32-8.72,11.22-20.21,14.67,7.87-3.56-2.09,19.66,9.23,13.88-2.29,5.44-5.48-.72-9.73,2.92,3,14.6-9.48,29-10.86,46.09,1.85,0.63,5.3-1.59,7.42,2.54l-11.22,6.95c0.28,3.48,10.36,5.18,2.59,9.91,1.76-.54,4.42-1.33,4.59,1-15.66,30.87-5.53,68.29-29.42,98.07,4.57-3.77,4.34-.71,3.8,2.75,1.32-2.06,4.68,1,7.34,1l-9.88,12.49c6.64,3.93-2.44,15,4.1,17.79l-0.37-4.64c6.92,7.44,19.52-4.68,29.69-1.79-7.88-8.35,17-14.62,6-27.94,2.58-2,2.94,2.68,5.58,1.88-3.89-3.6-4.17-7.07-1-12.78l1,0.91c2.28-17.35,8.09-23.84,14.78-42.52l-5.39.42c1.49-4,3.27-4.56,4.93-6.24-6.82-6.27-2.72,11.53-10.42,5.53,11.48-3.45,5.88-29.14,18.43-30.53,1.31-6.35-6.29.7-5-5.64l3.53-1.06-3.81-2.42c1.5-4,5.92-5.36,8.65-5-0.52.95,0.19,3,.21,4.16,4.83-4.67,1.71-15.51,3.3-17.13l-3.17,5.73c0.42-18,8.78-38.34,5.56-56.4l-2.66.8c-1.95-13.69,4.67-9.74,5.36-24.22l0.47,0.62a14.76,14.76,0,0,1-1.3-11.08c2.13,4.11,6.8-5.61,9-.33-2.07-14.84-2.42-7.61-9.58-18.55L999.6,931c-3-3.84-4.87-4.48-4.53-11.71,2.3,6.44,7-3.29,10.25,4.06,11.65-13-4.54-23.63,9.59-27.88-9.75-8.94-8.65,11.55-10.28,7.3-4.24,2.47-7.19-7.21-5.17-11.62,1.18-4.66,15.76-5.23,17.86-17.12-0.28,1.17.54,1.41,0.26,2.58,3.69-3.88-2.12-9.44,3.54-14-6.11-4.36,1.77-7-6.6-9.54l-0.15,11.26c-0.51-3.3-3-6.89-4.48-10.79a14.87,14.87,0,0,1-1.13-6.11,11,11,0,0,1,.68-3.25,12.43,12.43,0,0,1,.77-1.67c0.31-.58.72-1.35,1.17-2a5.34,5.34,0,0,1,1.14,1.42c0.19,0.3.36,0.67,0.55,1s0.38,0.61.56,0.94a28.94,28.94,0,0,1,1.78,3.91c1.55-1.25,1.41-2.73,1.3-4.29,0-2-.06-4,1.67-6,2.13,0.48,3.07,1.93,3.36,4.05a12.51,12.51,0,0,1,.1,1.7c0,0.57-.06,1.34-0.05,1.71a28.24,28.24,0,0,1-.3,2.9c-0.58,4.06-1.55,8.78,1.06,12.72,4.24-2.48-3.74-13.7,4.87-8.57-2.71-1.77-3.83-3.37-4.1-4.92a5.5,5.5,0,0,1,.15-2.34,37.25,37.25,0,0,1,1.1-3.6,38.92,38.92,0,0,0,2.2-8,12,12,0,0,0-1.78-8.47l2.64,0.07,2.64,0.1c-0.23-1-.79-2.38-1.19-4a10.57,10.57,0,0,1-.25-5.08s1.5,1.14,3,2.47,2.9,2.81,2.9,2.81a11.69,11.69,0,0,1-.25-7.52,47.77,47.77,0,0,1,3.32-8.25c1.38-2.88,2.86-5.89,3.92-8.78s1.69-5.65,1.32-7.84c-2.11,11.17-4.09,13.07-6.3,13.61a18.59,18.59,0,0,0-3.56.82c-1.27.55-2.63,1.69-4.08,4.1-0.76-5.18-.1-8.68,1.49-12s4.06-6.34,6.75-9.75a69.7,69.7,0,0,0,8.05-12,51.87,51.87,0,0,0,5.23-18c0,1.74-1.71,6.54-3.62,10.18s-4,6.16-4.86,4.2c1.19-3.25,2.75-7.22,4.54-11.27a106.54,106.54,0,0,1,5.89-11.62c1.36-9.77-.53-7.1-3-2.91-1.23,2.11-2.61,4.59-3.82,6.27s-2.27,2.55-2.9,1.59c4.63-7.09,4.31-8.81,2.62-9s-4.73,1-5.34-1.16l7-8c2.16-6.59,2.42-9.27,1.68-9.72s-2.45,1.21-4.16,2.94-3.39,3.51-4.11,3.39-0.46-2.11,1.8-8.28c0,0,2.2-1.65,4.35-3.05s4.26-2.6,4.26-2.6l-0.33-3.26-0.36-3.12,4-4.68,4-4.59c-2-1.56-2.46-3.39-1.84-6.88s2.33-8.49,4.66-15.93a69.29,69.29,0,0,1-8.92,13.08c-2.52,2.67-4.17,3.22-3.48-.75a62.46,62.46,0,0,1,5.8-10.84c1.15-1.84,1.74-3.36,2.42-8.8,2.24-2.8,4.76-5.93,5.65-6s0.14,2.77-4.05,11.46c2.45-3.52,4.33-4.8,6.72-8.1,3.4-7.9,4.66-13.29,5.16-17.13s0.23-6.17.69-8.7a63.89,63.89,0,0,1-3,8.82,13,13,0,0,0-3.69-.29,16.54,16.54,0,0,0-3.9.78c3.73-8.65,5.82-11,7.82-13-0.12-2.42-3.47,2-3.09-2.27,3.33-5.78,6.8-12.09,9.63-16.6s5-7.16,5.7-5.44a34.25,34.25,0,0,0-1.79-3.29,21.34,21.34,0,0,0-1.93-2.62c1.66-3.61,4.29-10.28,6.78-16.49s4.85-11.91,5.89-13.1c1.64-5.07,2-7.79,1.63-9.25s-1.34-1.69-2.3-1.93a2.27,2.27,0,0,1-2.05-2.41c-0.15-1.88.48-5.37,2.69-12.3-1.33,2.44-2.45,4-3,3.36,2.19-8.63,6.3-21.47,9-31.43a70.79,70.79,0,0,0,2.43-11.51c0.13-2.34-.56-2.84-2.58-0.2l8.31-22.27,8.41-22.76c-0.32-2.91-5.75,12.1-11.14,26.17s-10.79,27.41-11.71,24.58c-0.53-.5.06-3,1.36-6.82s3.29-8.93,5.51-14.47c4.45-11.09,9.78-23.71,12.45-31.73l-1.23,2.24c-6.21,13.4-14.07,30.55-19.65,41.84s-8.94,16.84-7.23,8.74a66.66,66.66,0,0,1,4.74-8.81A48.42,48.42,0,0,0,1088.54,503.95Zm-86.86,141.37c1.12-2.77,3-7.84,4.6-11.4s2.75-5.53,2.22-1.82c-3.05,10.37-4.32,13.81-5.07,14.62S1002.47,645.71,1001.68,645.32ZM899.07,828.45c-0.73-2.1,1.15-3.41,4.13-4.33A7.32,7.32,0,0,1,899.07,828.45ZM771.65,1211.61a1.31,1.31,0,0,0-.17-0.28C774.91,1208.26,773.61,1209.32,771.65,1211.61Zm-5.26,7.1a1.64,1.64,0,0,0,1.91,1.22c-1-1-.42-2.86.73-4.76C767.51,1215.23,766.22,1215.9,766.39,1218.71ZM975.17,867.23l1.68-1.36C977.64,869.84,976.48,868.55,975.17,867.23Z" transform="translate(-404.31 -155.99)"/>
        <path class="cls-3" d="M901.83,810.75a7.31,7.31,0,0,1,2.85.9C904.32,810.56,903.46,810,901.83,810.75Z" transform="translate(-404.31 -155.99)"/>
        <path class="cls-3" d="M1089.59,551.89c-0.11.34-.12,0.44-0.21,0.74,0.51-1,1.06-2.07,1.61-3.21Z" transform="translate(-404.31 -155.99)"/>
        <path class="cls-3" d="M772.8,1079.25a7.23,7.23,0,0,1,3.79-2.15C775.41,1076.54,774.1,1076.88,772.8,1079.25Z" transform="translate(-404.31 -155.99)"/>
        <path class="cls-3" d="M772.31,1237.28s-0.4-.11-0.82-0.26-0.85-.35-0.85-0.35c0.45,0.5-.55,1.18-1.18,1.95C770.56,1238,772.12,1237,772.31,1237.28Z" transform="translate(-404.31 -155.99)"/>
        <path class="cls-3" d="M760.16,1293.26c1-1.35,1.51-1,2.47-2.32l0.89-3.39a14,14,0,0,0-3.65,3.63C759.07,1292.42,758.89,1293.41,760.16,1293.26Z" transform="translate(-404.31 -155.99)"/>
        <path class="cls-3" d="M757.57,1248.71c-3.74,2.87-1.6,4.47-.11,6.3a1.05,1.05,0,0,1-.15-0.44c2.61-2,3.29-3.25,3-4S758.87,1249.35,757.57,1248.71Z" transform="translate(-404.31 -155.99)"/>
        <path class="cls-3" d="M757.78,1255.47a4.52,4.52,0,0,1,.87,2.21C760.64,1255.78,758.75,1256.37,757.78,1255.47Z" transform="translate(-404.31 -155.99)"/>
        <path class="cls-3" d="M765.93,1228c-1.37.35,5.38,1.92,3.51,1.73,2.69,0.91,1.24-.1-0.46-1.4-0.43-.32-0.87-0.65-1.29-0.92a4.12,4.12,0,0,1-.55-0.5,1.23,1.23,0,0,0-.51-0.28,0.6,0.6,0,0,0-.47.08,0.55,0.55,0,0,0-.28.19A1.38,1.38,0,0,0,765.93,1228Z" transform="translate(-404.31 -155.99)"/>
        <path class="cls-3" d="M746,1260.33s1-1.24,2.09-2.43,2.12-2.34,2.12-2.34-1.08.26-2.19,0.47-2.22.36-2.22,0.36Z" transform="translate(-404.31 -155.99)"/>
        <path class="cls-3" d="M740.6,1231.82l0.09,2.65,0.12,2.76a2.69,2.69,0,0,1,2.38,1.18C742.28,1235.14,742.28,1231.74,740.6,1231.82Z" transform="translate(-404.31 -155.99)"/>
        <path class="cls-3" d="M743.19,1238.41c0.46,1.68,1.13,3.27,2.31,3.94A14.07,14.07,0,0,0,743.19,1238.41Z" transform="translate(-404.31 -155.99)"/>
        <path class="cls-3" d="M741.81,1253.2l0.44-2.27-1-4.27,0.27,3.22Z" transform="translate(-404.31 -155.99)"/>
        <path class="cls-3" d="M765,1172.39l1-6.79c-1.51-1.32-3.25-.05-3.46,2.54C763.16,1170.1,762.93,1172.68,765,1172.39Z" transform="translate(-404.31 -155.99)"/>
        <path class="cls-3" d="M743.58,1185.67c1.72-1.26,2.92-.93,5-1.21l-6.28-2.68Z" transform="translate(-404.31 -155.99)"/>
        <path class="cls-3" d="M749.21,1167c-1.52-1.31-1.52-11-4.22-3C746.49,1165.31,745.52,1172.11,749.21,1167Z" transform="translate(-404.31 -155.99)"/>
        <polygon class="cls-3" points="389.7 920.5 389.17 922.11 399.68 925.98 389.7 920.5"/>
        <path class="cls-3" d="M801.45,984.17c-5.39,6.38,5.75,4.28,0,9.7,1.79,2.7,4.68-4.44,6.12-1.83C806.73,986.58,809.11,984.82,801.45,984.17Z" transform="translate(-404.31 -155.99)"/>
        <path class="cls-3" d="M807.59,992a17.12,17.12,0,0,0,.69,2.89A7.52,7.52,0,0,0,807.59,992Z" transform="translate(-404.31 -155.99)"/>
        <polygon class="cls-3" points="505.49 1014.91 502.21 1019.45 506.54 1016.96 505.49 1014.91"/>
        <path class="cls-3" d="M916.07,1182.09l-7.23-.2,5.75,4.24C914.49,1184.94,914.32,1182.63,916.07,1182.09Z" transform="translate(-404.31 -155.99)"/>
        <path class="cls-3" d="M996,627.53l-1.15,5c0,3.46,1.08,2,3.28-.87,0,0-.48-1.11-1-2.12S996,627.53,996,627.53Z" transform="translate(-404.31 -155.99)"/>
        <polygon class="cls-3" points="655.81 381.77 654.86 382.98 648.39 404.96 655.81 381.77"/>
        <path class="cls-3" d="M1125,429c1-4.24.4-4.61,0.49-6.6a39.36,39.36,0,0,1-2.4,3.92,14.67,14.67,0,0,1,2.18-3.37C1122,434.85,1111.26,463.13,1125,429Z" transform="translate(-404.31 -155.99)"/>
      </g>
      <g>
        <path class="cls-3" d="M849.38,400.73c-2.37,1.21,1.09,4.4,1.26,5.3C853.61,402.63,848.59,399.83,849.38,400.73Z" transform="translate(-404.31 -155.99)"/>
        <polygon class="cls-3" points="474.19 210.84 474.67 212.82 477.17 205.33 474.19 210.84"/>
        <path class="cls-3" d="M911.5,343.14c-7.71-4.12-11.2,9.64-18.7,11.61l-2-.76,1.05,7C898.38,355.07,905.19,345,911.5,343.14Z" transform="translate(-404.31 -155.99)"/>
        <path class="cls-3" d="M938.51,344.59a4.26,4.26,0,0,1-1.15-1.94,2.5,2.5,0,0,1,0,.4,3.69,3.69,0,0,1-.92,1.18c-0.53.58-1.2,1.31-2.07,2.19a7.59,7.59,0,0,1,1.19.09c0.34-.27.76-0.58,1.32-1l0.94-.61,0.54-.32Z" transform="translate(-404.31 -155.99)"/>
        <path class="cls-3" d="M935.54,346.51c-3.34,2.68,3.77.44,0,0h0Z" transform="translate(-404.31 -155.99)"/>
        <path class="cls-3" d="M940.69,340.64s-0.11.92-.15,1.79,0,1.68,0,1.68c0.9,1.57,1.54,1.61,1.73,3.1A11.17,11.17,0,0,0,940.69,340.64Z" transform="translate(-404.31 -155.99)"/>
        <path class="cls-3" d="M940.84,333.47l-0.35,1-0.32.94C940.51,336.06,940.71,336.25,940.84,333.47Z" transform="translate(-404.31 -155.99)"/>
        <path class="cls-3" d="M939.17,339.1s0.18-.88.43-1.81,0.57-1.92.57-1.92a10.78,10.78,0,0,0-.74-1.68c-0.17-.14-0.24.57,0.14,3.2C939.09,334.37,939.26,337,939.17,339.1Z" transform="translate(-404.31 -155.99)"/>
        <path class="cls-3" d="M937.8,338.62a17.3,17.3,0,0,1-2.28-1.28c-0.62-.57-1-1.43-0.58-3.44-1.84,2-1.64,3.88-.69,4.9a2.47,2.47,0,0,0,1.7.86A2.24,2.24,0,0,0,937.8,338.62Z" transform="translate(-404.31 -155.99)"/>
        <path class="cls-3" d="M908.43,335.34l-4.78.6-1.42,4.28C903,338.09,910.08,337.18,908.43,335.34Z" transform="translate(-404.31 -155.99)"/>
        <path class="cls-3" d="M946.44,341.51c0.36-1.29.74-2.94,1.08-4.63l1-5-0.84,1.79-0.76,1.74C947.05,336.71,947.43,337.74,946.44,341.51Z" transform="translate(-404.31 -155.99)"/>
        <path class="cls-3" d="M948.48,331.91s0.65-1.35,1.4-2.78,1.57-2.9,1.57-2.9C949.81,327,949,329.25,948.48,331.91Z" transform="translate(-404.31 -155.99)"/>
        <path class="cls-3" d="M939.85,323.43s-1,2.6-1.74,5-1.15,4.54-1.15,4.54a50.85,50.85,0,0,1,1.56-4.89c0.94-2.56,2.28-5.41,2.28-5.41Z" transform="translate(-404.31 -155.99)"/>
        <path class="cls-3" d="M948,344.31s-0.67,1-1.31,2-1.25,2.19-1.25,2.19,0.93-1.71,1.94-3.19a33.91,33.91,0,0,1,2.09-2.78s-0.38.4-.74,0.84S948,344.31,948,344.31Z" transform="translate(-404.31 -155.99)"/>
        <path class="cls-3" d="M949.37,346.11a32.41,32.41,0,0,0-3.19,3.37c-0.9,1-1.73,1.8-2.5,2.56a12,12,0,0,1,1.8-1.42,17.57,17.57,0,0,1,3.23-1.68C947.34,349.2,947.63,349,949.37,346.11Z" transform="translate(-404.31 -155.99)"/>
        <path class="cls-3" d="M952.26,348.16a9.55,9.55,0,0,0-3.55.78C949.44,348.78,950.49,348.52,952.26,348.16Z" transform="translate(-404.31 -155.99)"/>
        <path class="cls-3" d="M952.47,331a65.38,65.38,0,0,0-2.26,7.63s0.66-1.61,1.29-3.29,1.24-3.41,1.24-3.41Z" transform="translate(-404.31 -155.99)"/>
        <path class="cls-3" d="M952.82,331.67l-0.08.22c0.27,1.05.44,1.8,0.5,2.13Z" transform="translate(-404.31 -155.99)"/>
        <path class="cls-3" d="M952.4,330.72a2.06,2.06,0,0,0,.07.24C952.71,330.24,952.77,330,952.4,330.72Z" transform="translate(-404.31 -155.99)"/>
        <path class="cls-3" d="M947.1,323.45c0.94-2.3,2.5-5.1,3.64-7.81s1.84-5.32.18-6.6a23.86,23.86,0,0,0-1.49,6.56A31,31,0,0,1,947.1,323.45Z" transform="translate(-404.31 -155.99)"/>
        <path class="cls-3" d="M955.16,321.23l-0.63-4.78h0c0,0.15-.08.31-0.12,0.46a35.78,35.78,0,0,1-1.63,5.33,10.26,10.26,0,0,1-.52,1.21l0.32-.55A10.58,10.58,0,0,1,955.16,321.23Z" transform="translate(-404.31 -155.99)"/>
        <path class="cls-3" d="M956.57,320.73a11.49,11.49,0,0,0-1.41.51l0.21,1.71Z" transform="translate(-404.31 -155.99)"/>
        <path class="cls-3" d="M955,342.88c2-.46,2.61.65,3.36,1.75a9.83,9.83,0,0,0-.39-5.12C956.7,340.32,954.42,341.79,955,342.88Z" transform="translate(-404.31 -155.99)"/>
        <path class="cls-3" d="M954.34,337.32c0.1,0,.17,0,0.27,0C954.85,336.76,954.89,336.53,954.34,337.32Z" transform="translate(-404.31 -155.99)"/>
        <path class="cls-3" d="M969.37,374.48c0.17-.27.42-0.54,0.61-0.82-0.27.05-.53,0.12-0.81,0.16Z" transform="translate(-404.31 -155.99)"/>
        <path class="cls-3" d="M958.59,338.63c0.28-1.86-.9-1.75-2.2-1.1a4.09,4.09,0,0,1,1.59,2C958.56,339.14,958.92,338.85,958.59,338.63Z" transform="translate(-404.31 -155.99)"/>
        <path class="cls-3" d="M956.89,354.31a31,31,0,0,0,.71-5.52C956.71,350.67,955.56,354.24,956.89,354.31Z" transform="translate(-404.31 -155.99)"/>
        <path class="cls-3" d="M953.8,338.83a1,1,0,0,1-.2.07C953,340.11,953.32,339.62,953.8,338.83Z" transform="translate(-404.31 -155.99)"/>
        <path class="cls-3" d="M953.8,338.83a24.55,24.55,0,0,0,2.59-1.29,2.12,2.12,0,0,0-1.78-.26A16,16,0,0,1,953.8,338.83Z" transform="translate(-404.31 -155.99)"/>
        <path class="cls-3" d="M1001.33,373.9c-4.26,1-10.63-4.58-8.49-12.25-5.27-4.83-17.27,4-22.86,12,1.85-.47,3.5-1.08,8.18,4.16,1.43-3,.19-15.54,5.8-11.73,5.1,7.35,1,7.19.32,11.94,3.84-5.24,11.23,7.6,18.06,3.06l-5.27-6.15C998.18,374.37,1001,376.27,1001.33,373.9Z" transform="translate(-404.31 -155.99)"/>
        <path class="cls-3" d="M966.08,361.82l-1.44-2.34c0.35,3.14-.52,5.8-2.32,10.78,3.55,3.46,5.39,3.77,6.86,3.56l-4-12.64Z" transform="translate(-404.31 -155.99)"/>
        <path class="cls-3" d="M960.43,348.16c5.17,0.33,9.31,5.69,12.75.2-3-7.14-5.87-4.45-8.65-6a12.24,12.24,0,0,1,.87,1.73,3.32,3.32,0,0,1,.33,1.4c-0.08.45-.7,0.08-1.47-0.36l-0.6-.33a1.12,1.12,0,0,0-.56-0.11,2.8,2.8,0,0,0-1.06.15,2.13,2.13,0,0,0-.92.64,1.36,1.36,0,0,0-.23.9,11.1,11.1,0,0,0,0,1.53c-0.41-.52-0.77-1-1.11-1.54l-0.13-.19a0.46,0.46,0,0,0-.08-0.08l-0.15-.13-0.26-.26a8,8,0,0,1-.81-1,9.27,9.27,0,0,1-.45,1.59l-0.16.38-0.08.19,0,0.09v0.21q0,0.86,0,1.71c0.06-.15.11-0.25,0.18-0.38l0-.05h0.06c0.37-.72.65-1,0.54-0.32a0.73,0.73,0,0,1,.18.22,6.22,6.22,0,0,1,1.87-.08c0.36,3.8-.94,1-1.87.08a5.61,5.61,0,0,0-.73.1l0,0.06,6.86,11.07C964.32,356.73,963,353.6,960.43,348.16Z" transform="translate(-404.31 -155.99)"/>
        <path class="cls-3" d="M958.64,290.9a2.71,2.71,0,0,1-.09,1.42C959.39,291,959.8,290.21,958.64,290.9Z" transform="translate(-404.31 -155.99)"/>
        <path class="cls-3" d="M961.4,292.44c-1,1.53-2.35,4.84-4.2,5.58-0.63-.42-0.45-1.25,0-2.29a20.94,20.94,0,0,0,1.36-3.41,42.1,42.1,0,0,0-3.16,5.32c-0.78,1.77-.85,3.19.6,3.57l0.83-1.4a2.59,2.59,0,0,1,2.23,1.81c-0.2,6-1.07,11.47-1.43,11.75A115.82,115.82,0,0,0,961.37,294,4.8,4.8,0,0,0,961.4,292.44Z" transform="translate(-404.31 -155.99)"/>
        <path class="cls-3" d="M964.32,325s1,1.13,2.13,2.42,2.23,2.69,2.23,2.69,0.48-1.64.92-3.43,0.83-3.67.83-3.67l-1.8,2.23C967.72,320,965.86,323.74,964.32,325Z" transform="translate(-404.31 -155.99)"/>
        <polygon class="cls-3" points="563.28 220.45 558.09 220.86 566.86 224.17 563.28 220.45"/>
        <polygon class="cls-3" points="568.63 233.19 564.38 234.22 568.1 236.73 568.63 233.19"/>
        <path class="cls-3" d="M682.42,1130.71l-3,7A75.38,75.38,0,0,0,682.42,1130.71Z" transform="translate(-404.31 -155.99)"/>
        <path class="cls-3" d="M702,1100.39l0.29-4.45C701.54,1099.36,701.22,1101.5,702,1100.39Z" transform="translate(-404.31 -155.99)"/>
        <path class="cls-3" d="M879.77,681.52c-5.53,2.58-13.32,4.77-8.61,6.19l4.93,0.59A10.33,10.33,0,0,1,879.77,681.52Z" transform="translate(-404.31 -155.99)"/>
        <path class="cls-3" d="M800.08,898.87l1.93-.35c-0.78-1.81-1.5-3.5-2.2-5C799.93,895.12,800,896.95,800.08,898.87Z" transform="translate(-404.31 -155.99)"/>
        <path class="cls-3" d="M815,912.17l-5.82,3.41A21,21,0,0,0,815,912.17Z" transform="translate(-404.31 -155.99)"/>
        <path class="cls-3" d="M614.47,969.3q-2.1-1.69-4.24-3.53-0.63-1.26-1.25-2.59c-0.33,1-.58,1.94-0.74,2.61C610.92,972.3,612,968.71,614.47,969.3Z" transform="translate(-404.31 -155.99)"/>
        <path class="cls-3" d="M958.78,500.25a28,28,0,0,0-6.5,7.87C956.65,504.85,961.94,503,958.78,500.25Z" transform="translate(-404.31 -155.99)"/>
        <path class="cls-3" d="M694.62,1017.07a45.78,45.78,0,0,0-1,6.92A28.81,28.81,0,0,0,694.62,1017.07Z" transform="translate(-404.31 -155.99)"/>
        <path class="cls-3" d="M947.83,518.55c0.71-.45,1.2-1,1.85-1.47a24.94,24.94,0,0,1,2.6-9C949,510.53,946.29,513.71,947.83,518.55Z" transform="translate(-404.31 -155.99)"/>
        <path class="cls-3" d="M755.08,532.47a8,8,0,0,1,.85-0.79C755.34,531.39,755.18,531.81,755.08,532.47Z" transform="translate(-404.31 -155.99)"/>
        <path class="cls-3" d="M840.48,422.72a33,33,0,0,1-1.27,5.22C839.81,427.12,840.27,425.57,840.48,422.72Z" transform="translate(-404.31 -155.99)"/>
        <path class="cls-3" d="M985,429.24c0-.8-0.5-0.16,0,0h0Z" transform="translate(-404.31 -155.99)"/>
        <path class="cls-3" d="M1002.56,420.88a4.36,4.36,0,0,0,2.59.32A5.75,5.75,0,0,1,1002.56,420.88Z" transform="translate(-404.31 -155.99)"/>
        <path class="cls-3" d="M963.65,557.06l-0.12.23C964.73,556.85,964.51,556.92,963.65,557.06Z" transform="translate(-404.31 -155.99)"/>
        <path class="cls-3" d="M987.38,428a3.6,3.6,0,0,0-.68.64,5.46,5.46,0,0,0-.81.47,2.21,2.21,0,0,0,.82-0.47A1.06,1.06,0,0,0,987.38,428Z" transform="translate(-404.31 -155.99)"/>
        <path class="cls-3" d="M985,428.2a3.77,3.77,0,0,0,.22-0.73C984.41,427.43,983.91,427.52,985,428.2Z" transform="translate(-404.31 -155.99)"/>
        <path class="cls-3" d="M984.8,430.38a2.54,2.54,0,0,1,1.08-1.28,1.6,1.6,0,0,1-.88.13A6.82,6.82,0,0,1,984.8,430.38Z" transform="translate(-404.31 -155.99)"/>
        <path class="cls-3" d="M694.6,765a5.84,5.84,0,0,1,.61-0.46C694.22,761.13,694.13,762.46,694.6,765Z" transform="translate(-404.31 -155.99)"/>
        <path class="cls-3" d="M895.31,771.11c0-.15-0.08-0.26-0.07-0.4l-0.33.33Z" transform="translate(-404.31 -155.99)"/>
        <path class="cls-3" d="M894.44,782.18c-3.69-6.46-2-8.51.47-11.14l-14-2.22Z" transform="translate(-404.31 -155.99)"/>
        <path class="cls-3" d="M651.4,1066.87l0.64,8.57,0.76,8.93a20.33,20.33,0,0,1-5.79-5.27c-1.57-2-2.79-3.86-3.69-4.92s-1.49-1.31-1.84-.06-0.45,4-.32,9.08c2.6-4,5-2.9,7.31.47s4.46,9.22,6.65,15.08,4.36,11.69,6.42,14.43,4,2.25,5.67-4.36l0.62,6.74,0.68,6.91c-0.7-2.5-1.17-1.16-1.86-3.66,0.54,6.89,1.34,10.15,2.24,11.14s1.91-.21,3-1.9,2.18-3.85,3.32-4.69,2.3-.38,3.51,3.4a16.17,16.17,0,0,1,1.29-1.7c1.56-1.38,2.85-1.88,3.44-1.11s0.44,2.83-1,6.75l4.37-10.32,4.15-10c2.23-3,1.57,2.91-.78,6.07L702.37,1095l0,0.89c0.77-3.38,2-8.09,3.13-12.48l2.93-11c1.6-.52,1.37.59,0.82,2.12s-1.37,3.43-.83,4.3l2.73-7.66,2.54-7.37c1.8,0.79,1.81,4.33.6,8.76a42.87,42.87,0,0,1-5.95,12.85c2.25,3.41,3.89,3.87,5.11,2.86s2.08-3.61,3.07-6.76a57.94,57.94,0,0,1,4-10.38,28,28,0,0,1,9.19-10.08l-6.08,13.09c3.85,1.84,7.16-.86,10.77-4.76,1.81-2,3.71-4.25,5.9-6.61a63.37,63.37,0,0,1,7.75-7.15,53.78,53.78,0,0,0-5.49,2.48,31.25,31.25,0,0,1-7.41,2.61c-4.6.82-7.44-1.38-4.73-9.1a16.65,16.65,0,0,0,4.15-4.9,34.88,34.88,0,0,0,3.7-10c3.41,4.54,6.67-3,11.4-11l2.55,2.56,2.53,2.58c2.19-5.34,2.36-8.23,2.07-10.66a3.57,3.57,0,0,0-.46-1.47c-0.2-.43-0.4-0.87-0.59-1.32a12.6,12.6,0,0,1-.9-3.09c4.28-5.45,9.65-3.74,14.4-2.64,6.87-8.73-11.47,1.75-5.58-10,7.2-6.31,8.23-13.3,10.57-24.83,5.5-4.12,3,3.26,6,2.39l-1.68-7.82c0.86-1.1,2.08.2,2.69,0.86,0.74-5.22-5.73-4.11-3.28-11.5-5.45-5.88,17.87-7,15.46-19.62,2.92-.87,3,3.25,5.72,4.12,2-13.92,2.35-11.53,1.44-24.59l8.71-5.09c-8,2.73-8.75-7.73-9.13-16.71a67.78,67.78,0,0,0-8,1.65l3.13-12c1.74-.58,3.14,1.72,4.59,4.92a26.93,26.93,0,0,0-.27-2.73c4.45-2.16,6.71,1.86,8.41,6.52-1.94.47-4,.87-5.94,1.25,2,4.75,4.59,9.58,8.39,11.28a8.21,8.21,0,0,1,.46-4.28c0.57,1.27,1.19,2.23,2,2.31s0.18-1.81-.3-4.4l8.06,1.95-2.28-2.22,12.4-10.37c-0.75-13.53-5.43-27.86,1.22-44.35,2.53,6.75,7.43,5.83,13.05,9.68-8.65.16-4.68,13.07-10.77,19.94,3.18-3.58,5.37-1,5.67.66L843,861.56c4.51,3.3,5.37-.66,9.58-3-11-3.22.27-14.11,0.95-21.47,3.34,1.64,5.69,5,.62,11.29,11.75-3-4.78-16.59,5.83-20.15-1,1.7-2,2.29-.85,4-0.17-4.26,3.86-9.13,7.64-11.63,1.07-.8,1.95-0.81,2.32.48l-0.24.61-1.09,1.82,1.25-1.73,1.63-3.36L872,815.5c0.81-1.78,1.63-3.69,2.4-5.65a95.63,95.63,0,0,0,3.93-12.13c1.95-8,2.17-15.17-1.62-17.81,1.17,0.36,9.7,6,11.13,7.48L868,753.65c6.58,5,27.26,5.36,27.19,17.07,2.27-2.4,5-5.39,5-12.51-1.88,1.49-12.75.27-12.3-2.68,11.34-3.76,6.57-3.17,17.42-9.15-2.82,2.24-13-6-10.68-10.4,1.42,1.46,11.59,4.51,12.08,6.71l-6.47-16.32c0.82,3.73,9.42,4.63,13.74,3.45-2.74.23,4.44-9.81,4.62-13.35l-4.72,3.72c7.26-12.19-10.52-19.62-4.43-32.19,1.68,2.56,12.81,10,17,4.11-4.54-5.48-22.34-25.23-22-38.5l4.26-.75-0.07-10.33c6.44,9.17,18.37,32.29,22,43.67,4.71-3.71,4.51.34,7.3-7,4.22-1.22,3,6,2.31,8.19l9.24-16c-7.12-2.16-1.29-15.82-7.23-17.6l-0.8,21.34c-7.11-2.17-14.76-18.86-8.45-30.3,4-1.88,11.13,7.46,13.5,8.18-1.67-2.55.39-13.26,2.52-13.65l1.46,6.63c5.4-5.56-4.36-14.72,5.55-19.94,1.62-2.57,12.28-4.49,8.47-6.69-9.69,1.18-34.06-8.22-38.6-13.71,0.94-.74,13.62-11.32,18.8-12.83,8-1.94,11.57,13,18.46,11.4-1.79-1-3-4.45-3.29-5.82,2.83-2.22,5.24,3.66,7.1-3-6.43-4,6.07-12.56-4.55-5.47,0.67-7,4.23-5.94,7-13.3-5.44.4-12.37-13-11.7-20,1.6,1.11,4.48.71,5.81,0.48,6-12.36,12.06-17.8,17.17-29.55,2.13-.37,6.59-5.19,8.52-1.5-0.5-2.22-2.17-4.77-.78-8.48,9-4.48-2.54,8.49,6.92,6.21-3.81-2.17-1.51-11.76-1.79-18-6.87-1.06-6.31,11.44-6,17.69C979.11,519.8,974,507,975.36,493c2.07-10.69,7.33-1.88,6.85-4.1,9.36-17.74-8.2-22,4.5-34.65,8-3.73,10.92,4.35,15.42,4.69-1.35,8.85-8.69,10.76-10.78,16.25l5.42-5.55c0.73,3.31-.19,9.21-3,11.44,3.53-1.49,7.08-9.15,11.08-18,2-4.41,4.11-9.11,6.38-13.47,0.57-1.09,1.15-2.16,1.73-3.2s1.24-2.16,1.88-3.2a61.67,61.67,0,0,1,4.11-5.93,29.76,29.76,0,0,0-1.25-4.84c-0.6-1.29-1.56-1.87-3.23-1l-1,4.42c-1.63.78-2.61,0.52-3.3-.11a6.61,6.61,0,0,1-1.4-2.54c-0.67-1.82-1.2-3.15-3.3-1.09a26.65,26.65,0,0,0-1.18-3.06,55.46,55.46,0,0,1-5.89-5.2,8.79,8.79,0,0,1-1.69-2.65,6.63,6.63,0,0,1-.38-1.52l0-.41c0-.14-0.07-0.42-0.09-0.63q-0.1-.68-0.15-1.38l5.72-4c-0.89.43-1.31,2.19-1.15,4.06,0,0.26,0,.4,0,0.58a4.78,4.78,0,0,0,.07.51,3.89,3.89,0,0,0,.32,1,3,3,0,0,0,1.42,1.42c-1-.49-1.12-1.43-1-2.7,0-.33.1-0.63,0.14-1l0.11-1.4c0.08-1,.18-1.94.24-2.91,0.22-3.89-.27-7.58-5.14-8l-2.14,7.68c-5.46-5-15-10.12-15.83-18.52-5,5.8,1.37,1.5-3.93,9.65,7.35-8.08,6.86,19.74,13.61,8.62-3.21,4.36-3.21,7.11-3,10l0,0.55a1.42,1.42,0,0,1,0,.46c-0.05.15-.11,0.3-0.17,0.46a4.08,4.08,0,0,1-.57,1,7.55,7.55,0,0,1-3.25,2.15c2.23-.38,4-1.44,3.62.68a14.31,14.31,0,0,1,2.23.37,0.62,0.62,0,0,1-.12.15c0.08,0,.17-0.08.23-0.13,0.39,0.09.47,0.1,0.08,0a11.26,11.26,0,0,1,3-1.52,9.26,9.26,0,0,1,5.1,2.56c0.68,2.17,0,5,1.11,6.82-1,1-1.49.51-2.12-.07a3.1,3.1,0,0,0-2.74-1.1s0.68,0.91,1.31,2l0.46,0.78,0.21,0.37,0.09,0.17c0,0.07,0,.16.06,0.24l0.23,1c-4.75-1.44-11.8,6.7-10.69-3.25l-3.6,7.84c-4.54,3.58-8.31,9.56-8.09,14.34-2.58,3.32,1,11.6-1.18,6.82l-2.51,13.64-1.18-.37c-5.83,12-3.29,28.48-17.5,39-0.62,4.62-1,9.49-5.29,15.85l-4.51-.34c-0.91,5.89-10.75,14.24-7.64,18.27-13,1.19-13.33,24.75-19.2,33.27l5,2.55c-3,6.3-4.21,13.08-5.57,21.93l4.74,1.45c0.78,8.46-10.79,16.28-15,27.35-1.42-1.48.22-4,2.1-5.54-15.81,8.59-4.29,30.58-16.79,39.16a7.1,7.1,0,0,1-3.09,7.1,1.58,1.58,0,0,0,.07-0.83,8.14,8.14,0,0,0-.58,1.18c-1.33,1-2.81,1.91-4.16,3a14.57,14.57,0,0,0,3.9-2.39,37.82,37.82,0,0,0-2.08,9.83l-5.48-.65c-0.05.3-.16,0.52-0.2,0.84-3.21,2.53,1.17,3.64,5.59,3.45a17.82,17.82,0,0,0,1,5.71c-9-.68-1.13,10-11.08,10,3.12,4-4.17,18.23,3.67,23.71-1.17-.37-2.13.4-1.43-1.45-2.58,3.33-5.17,6.66-4.18,11.06l-6.87-1.06,4.82,11.75c-5.9,3.36-9,4.48-11.63-2.5,2.23,15.07-1.38,10.86,1.53,24.11l-3.79-2.21c-1.4,3.69,1.49,11.79-2.76,12.56-2.61,1.14-5,3.94-7.34,7.79-1.17,1.93-2.33,4.11-3.49,6.49-0.58,1.19-1.17,2.42-1.76,3.69L837,804.85l-0.8,1.18L835,807.8l-2.86,4.3c-1.94,2.89-4,5.79-6,8.6a81.31,81.31,0,0,1-13.64,14.83c13.18,3.17-10.49,5.81-2.59,11.9-3.26-.51-6.41,1.23-6.66-3.27-3.69,11.35-13.38,12.08-10.59,23.31-3.28-.52-2.42-4.47-4.58-4.44,0.06,1.14.26,4.52-1.92,4.56s-1.24-2.79-1.37-5c-5.9,10.24,1.35,16.26,8.29,21.69-6.71,2.83-7.82,5.66-5.28,12.39-3.54.22-7.94,1.54-4.87-5.2-2.57,3.26-17.07,19-11.36,23.15-2.2.13-3.53,4.59-3.43,5.94-5.33,7.59-6.3,7.94-10.61,16l2.32-1.51c5.23,7.58-2.46,7.4-5.53,14.13l-0.62-.64c-14.19,10.9-1.42,7.69-16.22,17.95l4.94,2.07c8.75,7.39-13.53,8.81-15,19.27l4.41-1.32c0.23,3.26-5,4.29-10.79,5l-4.37.47-2.12.24a4.69,4.69,0,0,1-1,.08l-0.8-.15c-2.06-.4-3.54-0.81-4.08-0.62-1-.29-0.87-1.58-1.2-2.41-2,0-2.47,0-2.36.5a8.12,8.12,0,0,0,1.91,2.33c2,2,5,4.45,4,7.41-1.5-1.12-2.89-3.35-4.22-5s-2.52-2.76-3.24-2.26c-0.59-.47-0.58.22-0.44,1.64a53.21,53.21,0,0,1,.36,6,21.52,21.52,0,0,1-.88,6.5c-0.57,1.58-1.43,2.19-2.36.32,0.56,1.8,1.19,3.47,1.6,5.34a16.62,16.62,0,0,1,.07,6.76c-0.52,1.3-1.33,1.55-2.15,1.29a9.24,9.24,0,0,1-2.32-1.55c-0.7-.5-1.28-0.71-1.83.49s-1.1,3.85-1.83,9.21a20,20,0,0,1-.11-4c-0.92,3.73-2.46,8-4.21,13.36-1.09.7-2.35,1.9-3.54,5.71,1.28-10.41,1.44-15.32,1-17.65s-1.7-2.31-3.06-2.61a3.77,3.77,0,0,1-3.37-2.71c-0.54-1.93,0-5,2.56-10.44l-3.49-7.5,1.34-1.39c-0.45-3.05-1.56-4.06-3.19-4.58s-3.71-.39-5.89-0.54c0.48-2.14,2.27-1.76,3.07-2.13,0-1.24,0-2.35,0-3.34,0-.47,0-0.91,0-1.31l0-.3v-0.14l0-.25-0.21-1a22.35,22.35,0,0,0-2.33-6.4,23.27,23.27,0,0,0-4.27-5.23c-0.47-.45-1-0.91-1.5-1.39-0.26-.22-0.55-0.52-0.81-0.69l-0.76-.42c-1.06-.59-2.28-1.29-3.7-2.22,0,0,1.27-.5,2.56-1s2.59-.87,2.59-0.87c-1.13-.43-1.26-1.93-1-3.75,0.85-1.09,1.91-2.28,2.94-3.47,0.52-.59,1-1.18,1.51-1.77l0.7-.89,0.33-.44c0.14-.25.31-0.62,0.46-0.92,2.49-5.15,4.33-10.92,3.88-16.92a3.73,3.73,0,0,1,1.81,2.4c-0.72-18.87,27.29-36,10.34-48.19L686.1,882.4c-6.06,14-7.53-4.76-12.56.19,0.7-6,10.38-12.89,9.13-5.59l-1.29.79c9,5.7,9.21-16.86,15.8-14.33,8.54-28.61,22.82-54.61,31.71-81.13l-8.64.63,3.39-9.16c2.56-1.87,7-1.37,4.62,5.16,5.45-2.11-.11-12.28-1.71-13,7.23-12,7.33,7.91,8.78,4l1.15-5.59-1.29.93c-1.74-5.38-4.94-6.82-2-14.68,3.14-4.55,5.55-1.08,6.48-3,0.55,0.19,1-.4,1.2-3l4.37-11.51-7.54,2.76c-1.34-6.14,3.82-10.91-4.76-7.69,13.1-4.57,17.68-42.48,22.51-46.31-2.1-8.67.26-15.82,3.62-24.55-2,1.81-9.19,1-5.92-6.43,13.15,7.27,10.56-12.11,22.64-15.09-8.46,3.41,5.27-22.33-7-16.66,3.17-6,5.38,1.28,10.23-2.52-0.61-17,14.2-32.44,18.34-51.85-1.76-.88-5.57,1.38-7-3.53l12.38-7c0.28-4-9.55-6.8-1-11.56-1.86.47-4.65,1.16-4.45-1.52,20.7-34,16.58-77.7,45.36-109.79-5.19,3.94-4.46.44-3.37-3.47-1.65,2.25-4.53-1.5-7.19-1.8l11.93-13.47c-6-5.06,4.87-17-1.24-20.7l-0.38,5.35c-5.73-9.09-20.33,3.71-30.07-.45,6.55,10.22-19.37,15.31-10.49,31.49-2.9,2-2.51-3.31-5.29-2.62,3.33,4.44,3,8.44-1.07,14.71l-0.82-1.12c-5.09,19.67-12,26.61-21.7,47.43l5.48,0c-2.14,4.46-4,4.94-6,6.73,5.83,7.75,4.59-13,11.35-5.45-12.07,3-10.61,32.86-23.42,33.4-2.35,7.16,6.42-.28,4.07,6.88l-3.71.92,3.43,3.09a8.73,8.73,0,0,1-9.48,5c0.68-1,.3-3.48.46-4.78-5.6,4.94-4.22,17.61-6.08,19.33l4.11-6.29c-3.32,20.52-15,43.15-14.7,64.09l2.8-.69c-0.26,15.83-6.25,10.76-9.29,27.27l-0.37-.75a19,19,0,0,1-.49,12.79c-1.47-4.88-7.72,5.85-9.1-.38-0.32,17.15,1.19,8.92,6.61,22L723.92,671c2.4,4.65,4.17,5.53,2.65,13.78-1.27-7.56-7.53,3.18-9.63-5.51-13.79,13.93.73,27.43-14.12,31.11,8.33,11.06,10.55-12.5,11.49-7.49,4.65-2.47,6,8.86,3.3,13.74-1.93,5.24-16.65,4.66-20.68,18.09,0.47-1.31-.32-1.66.16-3-4.33,4.13.6,11-5.81,15.7,5.42,5.51-2.9,7.85,5.08,11.48l2-12.87c0,7.64,7.6,17.24-.75,27.2-1.39-1.42-2.51-5.53-3-8.26-3.51,2.57-.43,7-4,9.63-8-3.63,2.93-15.47-1-24.93-4.65,2.48,1.54,16-6.27,9.4,9.72,9-5.64,12.71.23,24.54l-4.78-2.18c0.32,1.68,1.73,5.39.77,8l-4.93-6.82c3.17,9.08-9.31,12.6-8.54,20.58,4.53-14.77,7-1.4,12.66-6.47,0.89,20.27-16.33,6.3-20.4,27.39,0.17-3,6.27-9.38,7.21-4.34-2.26,3.54-5.79,8-9.16,9.59-3.24,13.8,5.78-.44,7,6.26-7.52,2.66.37,7.4,0.43,13.91L658.67,848c-8.12,14.31,9.25,7.42.93,20l-5.16-8.07L654,867.69l-5.28-3.31c1.78,9.19-.1,11.28-4.15,18.44,4.12-.65,8.85,3.92,6.86,10.77-4.48,3.68-4-4.12-6.32,5.74-2.47-3.18-5.68-6.82.3-9.54-1.51-1-2.48-3.15-4-4.11-5,3.9-4.77,12.3-5.83,15.8,0.61-1.28,1.4-2.8,2.37-3.4l2.58,16.19c-2.6,1.59-3.57-.63-4.52-2.84-0.34,3,1.36,5.7.47,10-3.77-2.38-8.09-3.47-8.16-10l0.34,14.76c-2.07.32-7.09,5.27-8,3.06-2.19,3-1.89,7.64-1.55,12.58a3,3,0,0,1,0,.52l-0.07.78-0.14,1.56-0.29,3.11c-0.2,2.07-.43,4.11-0.73,6.12a52.53,52.53,0,0,1-3,11.78,32.39,32.39,0,0,1,.8,4.06c1.16,0.81,2.56,2.46,4.34,5.8,1,3.82,1.79,7.63,2.54,11.54l0.14,0.73,0,0.18v0.12l0,0.22,0.09,0.89,0.19,1.79c0.14,1.19.3,2.38,0.51,3.57a27,27,0,0,0,2.21,7.05q0.42,0.87.93,1.73,0.26,0.43.54,0.86a2.78,2.78,0,0,1,.15.24l0.2,0.38,0.42,0.76a54.66,54.66,0,0,0,3.84,6s-0.9,3.38-1.69,7.07-1.5,7.63-1.5,7.63c3.41,7.33,4.1,1.78,5.53-2s3.51-6.16,8.41,3.76c1.81,3.43,2.49,5.74,2.53,7.55a6.07,6.07,0,0,1-1.38,4.1c-1.63,2.13-4.2,3.29-4,7.31,3,2.69,7.05,5.54,10.31,9.91a27.64,27.64,0,0,1,4.19,8.38,58,58,0,0,1,2.24,13.91,17,17,0,0,1-2.79-5.82A50.08,50.08,0,0,0,651.4,1066.87Zm78.73-15.08c-0.61,2-1.42,5.39-2.48,8.19s-2.33,4.94-3.64,4.08c-0.2-5.35.29-7.6,1.38-9S728.15,1053.28,730.13,1051.79Zm87.28-161.17c0.62,2.28-1.43,3.89-4.61,5.16A9.66,9.66,0,0,1,817.41,890.62ZM980.39,451a1.34,1.34,0,0,0,.15.31C976.76,454.89,978.18,453.66,980.39,451Zm6-8.2a1.5,1.5,0,0,0-1.84-1.34c1,1.16.17,3.25-1.17,5.43C984.95,446.79,986.33,446,986.41,442.8ZM738.11,746l-1.91,1.42C736.07,742.81,737,744.4,738.11,746Z" transform="translate(-404.31 -155.99)"/>
        <path class="cls-3" d="M813.33,910.57a6.54,6.54,0,0,1-2.92-.77C810.7,911,811.57,911.56,813.33,910.57Z" transform="translate(-404.31 -155.99)"/>
        <path class="cls-3" d="M615.77,970.34c0-.19-0.09-0.36-0.12-0.55a3.32,3.32,0,0,0-1.18-.49Z" transform="translate(-404.31 -155.99)"/>
        <path class="cls-3" d="M967.34,601.63a8.24,8.24,0,0,1-4.07,2.54C964.42,604.78,965.79,604.36,967.34,601.63Z" transform="translate(-404.31 -155.99)"/>
        <path class="cls-3" d="M977.49,414.42l3.5,5.48c-1.31-2.79-.6-4.22-0.35-6C979.52,414.49,978.26,416.25,977.49,414.42Z" transform="translate(-404.31 -155.99)"/>
        <path class="cls-3" d="M989.19,351.35c-0.93-.64-0.75-1.82-1.68-2.45L985.28,350C986.8,353.65,989.62,355.55,989.19,351.35Z" transform="translate(-404.31 -155.99)"/>
        <path class="cls-3" d="M992,402.8c4-2,1.21-5.23-1.11-9.11a2.94,2.94,0,0,1,.27.74C984.85,395.35,988.43,399.08,992,402.8Z" transform="translate(-404.31 -155.99)"/>
        <path class="cls-3" d="M990.38,392.77a13.73,13.73,0,0,1-1.53-3.82C986.33,389.33,988.94,390.7,990.38,392.77Z" transform="translate(-404.31 -155.99)"/>
        <path class="cls-3" d="M987.43,432.89c1.44-.46-5.39-1.92-3.47-1.78-2.7-.91-1.29.18,0.35,1.56a9.85,9.85,0,0,0,2.36,1.62C987.3,434.5,987.71,434.13,987.43,432.89Z" transform="translate(-404.31 -155.99)"/>
        <polygon class="cls-3" points="600.23 238.33 595.62 241.73 600.65 242.53 600.23 238.33"/>
        <path class="cls-3" d="M1012.43,427.34l-0.33-3.09-0.37-3.21c-0.89.26-1.71-.42-2.46-1.26C1010.45,423.54,1010.76,427.51,1012.43,427.34Z" transform="translate(-404.31 -155.99)"/>
        <path class="cls-3" d="M1009.27,419.78c-0.61-1.94-1.4-3.75-2.64-4.5A17.92,17.92,0,0,0,1009.27,419.78Z" transform="translate(-404.31 -155.99)"/>
        <polygon class="cls-3" points="605.15 246.86 604.8 249.23 606.17 254.07 605.15 246.86"/>
        <path class="cls-3" d="M983.67,495.47l-1.61,7.75c1.42,1.47,3.32,0,3.77-3C985.35,498,985.81,495.1,983.67,495.47Z" transform="translate(-404.31 -155.99)"/>
        <path class="cls-3" d="M1006.77,479.86c-1.88,1.48-3.07,1.12-5.2,1.5l6.18,2.91Z" transform="translate(-404.31 -155.99)"/>
        <path class="cls-3" d="M999.33,501.27c1.44,1.46.57,12.49,4,3.28C1002,503.09,1003.57,495.33,999.33,501.27Z" transform="translate(-404.31 -155.99)"/>
        <polygon class="cls-3" points="541.09 449.28 541.78 447.43 531.37 443.28 541.09 449.28"/>
        <path class="cls-3" d="M929.5,710.49c6.08-7.39-5.5-4.73.85-11-1.59-3-5.19,5.16-6.42,2.23C924.31,707.87,921.72,709.93,929.5,710.49Z" transform="translate(-404.31 -155.99)"/>
        <path class="cls-3" d="M923.93,701.67a20.25,20.25,0,0,0-.44-3.27A8.83,8.83,0,0,0,923.93,701.67Z" transform="translate(-404.31 -155.99)"/>
        <polygon class="cls-3" points="448.47 247.92 452.48 243 447.74 245.49 448.47 247.92"/>
        <path class="cls-3" d="M848.29,390.59l7.22,0.84-5.08-5.34C850.33,387.45,850.13,390.11,848.29,390.59Z" transform="translate(-404.31 -155.99)"/>
        <path class="cls-3" d="M754.24,1040.66l-0.78-2c-2.26.08-3.69,2.09-6.58,6.09,0,0,1.78-.93,3.62-2S754.24,1040.66,754.24,1040.66Z" transform="translate(-404.31 -155.99)"/>
        <path class="cls-3" d="M674.46,1152.48l0.75,2.66,0.19-9.5,0.25-9.32Z" transform="translate(-404.31 -155.99)"/>
        <path class="cls-3" d="M629.51,1045.38a54.5,54.5,0,0,0,3.1,7.77,53.24,53.24,0,0,1,3.07,7.7,27.8,27.8,0,0,1-2.12-7.82c-0.35-2.56-.42-4.89-0.52-6.64C632.84,1042.9,632.48,1041.64,629.51,1045.38Z" transform="translate(-404.31 -155.99)"/>
      </g>
      <g>
        <path class="cls-3" d="M984.26,162.14c4.31-1.75.73-5.1,1-6.15C978.8,160.42,985,163.12,984.26,162.14Z" transform="translate(-404.31 -155.99)"/>
        <polygon class="cls-3" points="516.58 50.21 516.93 47.92 508.98 57.15 516.58 50.21"/>
        <path class="cls-3" d="M857.13,238.61c9.59,3.93,22.51-12.9,35.13-16.2l2.69,0.65,2.25-8.25C883.85,222.73,867.84,235.61,857.13,238.61Z" transform="translate(-404.31 -155.99)"/>
        <path class="cls-3" d="M815.45,240.8c3.48,1.65-6.16,6.08,8.35-3.19a14.21,14.21,0,0,1-1.79,0C820.66,238.39,818.76,239.35,815.45,240.8Z" transform="translate(-404.31 -155.99)"/>
        <path class="cls-3" d="M822,237.66c6.61-3.62-5.55,0,0,0h0Z" transform="translate(-404.31 -155.99)"/>
        <path class="cls-3" d="M791.83,255l7.6-6.94c-2.66-.66-10.72,3-8.39.32C782.65,254.35,785.33,255,791.83,255Z" transform="translate(-404.31 -155.99)"/>
        <path class="cls-3" d="M786,264.39l4.06-3.36C789,260.76,787.63,261.14,786,264.39Z" transform="translate(-404.31 -155.99)"/>
        <path class="cls-3" d="M798.71,253.9L790.11,261c1.85,0.47,3.15,2.67,4.06-3.06C794.43,260.44,795.33,257.47,798.71,253.9Z" transform="translate(-404.31 -155.99)"/>
        <path class="cls-3" d="M804.75,252.16c5.74-1,12.63-3.31,5,3.63C826.16,246.21,821.16,242.56,804.75,252.16Z" transform="translate(-404.31 -155.99)"/>
        <path class="cls-3" d="M857.57,247.5l7.68-1.32,4.53-5.28C867.5,243.53,856,245.52,857.57,247.5Z" transform="translate(-404.31 -155.99)"/>
        <path class="cls-3" d="M734.92,279.46c0.21,1.77,5,2.45,6.63,4l5.65-5C743.33,279.13,736.49,281.44,734.92,279.46Z" transform="translate(-404.31 -155.99)"/>
        <path class="cls-3" d="M741.55,283.48L733.09,291C742,286.86,742.94,284.84,741.55,283.48Z" transform="translate(-404.31 -155.99)"/>
        <polygon class="cls-3" points="384.13 116.96 397.44 103.42 381.07 118.62 384.13 116.96"/>
        <polygon class="cls-3" points="293.22 142.3 297 136.03 289.79 146.27 293.22 142.3"/>
        <path class="cls-3" d="M673.09,311.51c2.64-4.94-8.08-2-4.64-5.93-6.46,3.94-11,9.31-15,14.15C658.32,315.71,664.33,313,673.09,311.51Z" transform="translate(-404.31 -155.99)"/>
        <path class="cls-3" d="M640.82,330.22c2.2-1.55,4.39-3.27,6.68-5.13l3.52-2.9,0.91-.76,0.23-.19a0.9,0.9,0,0,0,.17-0.16l0.22-.26,0.9-1.07-1,.82-0.24.21-0.12.11-0.23.16-0.93.66q-1.85,1.33-3.6,2.71A72.12,72.12,0,0,0,640.82,330.22Z" transform="translate(-404.31 -155.99)"/>
        <path class="cls-3" d="M716.07,298.76c-1.22-.52-3.87-2.13-9.85-0.33l6,2.23Z" transform="translate(-404.31 -155.99)"/>
        <path class="cls-3" d="M712.4,300.72l-0.2-.06c-4.22,2-7.16,3.41-8.42,4Z" transform="translate(-404.31 -155.99)"/>
        <path class="cls-3" d="M717,298.28l-1,.48C716.65,299,716.94,299,717,298.28Z" transform="translate(-404.31 -155.99)"/>
        <path class="cls-3" d="M760.9,282.22c-4.54,5.27-15.23,13.88-1.83,11.55C761.72,288.8,754.06,290.15,760.9,282.22Z" transform="translate(-404.31 -155.99)"/>
        <path class="cls-3" d="M724.49,301.09l10.86-4.33c-0.77-1-3.46-1.66-1.21-4.27Z" transform="translate(-404.31 -155.99)"/>
        <polygon class="cls-3" points="315.78 149.02 320.18 145.09 316.16 146.7 315.78 149.02"/>
        <path class="cls-3" d="M666.18,322.23a30.59,30.59,0,0,1-6.19,5.31q-0.87.59-1.78,1.16l-0.92.57-0.47.28-0.65.37-6.4,3.55,3.77-1.56,3.65-1.54q2.37-.91,4.71-1.9c3.11-1.32,6.16-2.74,9.07-4.23C671.11,322.5,672.46,318.83,666.18,322.23Z" transform="translate(-404.31 -155.99)"/>
        <path class="cls-3" d="M688.83,312.14c-0.26.26-.63,0.5-0.87,0.75C688.75,312.94,689.29,312.8,688.83,312.14Z" transform="translate(-404.31 -155.99)"/>
        <path class="cls-3" d="M613,399c0.35-.24.76-0.42,1.12-0.66-0.23-.16-0.47-0.29-0.7-0.47Z" transform="translate(-404.31 -155.99)"/>
        <path class="cls-3" d="M672.35,324.51a15.45,15.45,0,0,0,8.9-6.43,103.49,103.49,0,0,1-10.3,6.15C670.89,325,671,325.45,672.35,324.51Z" transform="translate(-404.31 -155.99)"/>
        <path class="cls-3" d="M623.59,351.95c2-3.32,4-7,6.07-11,0.49-.15,1.09-0.36,1.68-0.56-0.57.1-1.21,0.22-1.91,0.36C626.84,344,623.09,350,623.59,351.95Z" transform="translate(-404.31 -155.99)"/>
        <path class="cls-3" d="M685.86,312.5c0.19-.18.35-0.36,0.57-0.53C684.51,311.83,684.92,312.17,685.86,312.5Z" transform="translate(-404.31 -155.99)"/>
        <path class="cls-3" d="M685.86,312.5a32,32,0,0,0-4.6,5.58,56.88,56.88,0,0,0,6.7-5.19A7.42,7.42,0,0,1,685.86,312.5Z" transform="translate(-404.31 -155.99)"/>
        <path class="cls-3" d="M635.82,426.09c-3.86-2.21-3.55-16,4.45-25.29,0.41-11.64-15.49-9.2-26.16-2.45,1.69,0.93,3.36,1.48,2.19,13.21,3.52-3.08,13.3-22.5,14-12-2.66,15.18-5.39,11.37-9.9,17.69,7.13-4.28,1.41,20.89,10,20.25L632,423.88C633.21,424,633.57,429.26,635.82,426.09Z" transform="translate(-404.31 -155.99)"/>
        <path class="cls-3" d="M621.42,377.67l1-4.67c-2.41,4.89-5.28,8-10.76,13.69-0.45,8.15.57,10.21,1.78,11.18l7.9-21.95Z" transform="translate(-404.31 -155.99)"/>
        <path class="cls-3" d="M632.66,343a1.32,1.32,0,0,1-.17.43c0.88,4.55.53,10.82,1,14.91,0.22,2.05.63,3.58,1.44,4.19s2,0.3,3.85-1.17a63.61,63.61,0,0,0,2.51-10.39,13,13,0,0,0,3.71-4.68c0.82-1.47,1.88-3.09,5.38-5.72-7.1,4-10.19,5.51-11.29,5.81s-0.16-.69,1-1.91,2.53-2.71,2.14-3.31-2.59-.32-8.85,2.12c5.58-3.75,11.15-6.87,16.41-9.77q-9.19,3.72-18.42,7l1-.18,0.15-.08s0,0,0,.06c1.89-.3,2.63-0.26.77,0.3a4.43,4.43,0,0,1-.61.42,2.93,2.93,0,0,1,0,2l-0.47.18c-3.11,7-2,2.72-1.19-1,0.65-.42,1.25-0.83,1.7-1.17a2.05,2.05,0,0,0-.17-0.72l-0.17,0-2.08,1.25-4.36,17-2.11,8.31c-0.84,3.19-1,4.32-1.4,6.17,0.26-.53.52-1.09,0.77-1.67l0.38-.89,0.19-.46,0.24-.63c0.75-2,1.53-4.3,2.36-6.83,1.66-5.06,3.54-11.26,5.93-19.33Z" transform="translate(-404.31 -155.99)"/>
        <path class="cls-3" d="M753,308.29a1.19,1.19,0,0,1-1.14-.65C750.85,308.82,750.54,309.42,753,308.29Z" transform="translate(-404.31 -155.99)"/>
        <path class="cls-3" d="M743.49,309.94c1.16-1.33,1.51-3.63,6.46-5.61,4.75-.83,1,2,1.94,3.31,2.28-2.58,8.43-8.12-1.56-5.62l-1.12,1.3c-8.8,2.66-21.83,2.67-20.72,1.37A33.82,33.82,0,0,0,743.49,309.94Z" transform="translate(-404.31 -155.99)"/>
        <path class="cls-3" d="M692.62,325.5L677,336.07l10.35-.67-1.55-2C695.72,329.45,692.3,327.79,692.62,325.5Z" transform="translate(-404.31 -155.99)"/>
        <polygon class="cls-3" points="205.77 244.31 201.8 240.38 205.12 252.86 205.77 244.31"/>
        <polygon class="cls-3" points="198.71 267.58 194.86 265.36 195.34 272.27 198.71 267.58"/>
        <path class="cls-3" d="M924.08,1321.1l5-2.5A28.66,28.66,0,0,0,924.08,1321.1Z" transform="translate(-404.31 -155.99)"/>
        <path class="cls-3" d="M885.35,1330.26l-0.44,2.32C886.42,1331,886.95,1330,885.35,1330.26Z" transform="translate(-404.31 -155.99)"/>
        <path class="cls-3" d="M416,990.55c-3.19,3.16-7,6.37-9.36,8.87a9.35,9.35,0,0,0-2.25,3.11,2.35,2.35,0,0,0,0,1.36,1.17,1.17,0,0,0,1.23.54l0.92-.42,0.45-.2c0.15,0,.29-0.05.45-0.08l1-.15,2.65-.42A30.9,30.9,0,0,1,416,990.55Z" transform="translate(-404.31 -155.99)"/>
        <path class="cls-3" d="M606.11,1363.34l0.17-2.75c-2.35-.94-4.55-1.85-6.57-2.62C601.66,1359.57,603.83,1361.41,606.11,1363.34Z" transform="translate(-404.31 -155.99)"/>
        <path class="cls-3" d="M626.17,1359l2.27,10.7A51.25,51.25,0,0,0,626.17,1359Z" transform="translate(-404.31 -155.99)"/>
        <path class="cls-3" d="M1024.18,1173.56l-1.7-7.86C1018.27,1174.8,1022.35,1171.83,1024.18,1173.56Z" transform="translate(-404.31 -155.99)"/>
        <path class="cls-3" d="M526.5,660.5A79.58,79.58,0,0,0,518.35,676C523.57,668.92,529.58,663.84,526.5,660.5Z" transform="translate(-404.31 -155.99)"/>
        <path class="cls-3" d="M920.89,1374c3.06-1.64,4.23-2.92,3.88-3.93C921.6,1371.69,919.91,1373,920.89,1374Z" transform="translate(-404.31 -155.99)"/>
        <path class="cls-3" d="M512.1,694.91c0.84-1,1.44-2.06,2.21-3.11a75.6,75.6,0,0,1,4-15.84C514.49,681.16,511.08,687.45,512.1,694.91Z" transform="translate(-404.31 -155.99)"/>
        <path class="cls-3" d="M1144,423.72a7.22,7.22,0,0,1,.58-0.68C1143.89,423,1143.86,423.31,1144,423.72Z" transform="translate(-404.31 -155.99)"/>
        <path class="cls-3" d="M1056.75,224.82c1.61,1.62,3.85,4.55,6,7.28C1062,230.56,1060.24,228.31,1056.75,224.82Z" transform="translate(-404.31 -155.99)"/>
        <path class="cls-3" d="M570.32,515.78c1.32-5-.24-0.94,0,0h0Z" transform="translate(-404.31 -155.99)"/>
        <path class="cls-3" d="M596.12,497.9a3.11,3.11,0,0,0,1.56,2.68A4,4,0,0,1,596.12,497.9Z" transform="translate(-404.31 -155.99)"/>
        <path class="cls-3" d="M524.18,753l-0.16.42C525.39,752.25,525.14,752.45,524.18,753Z" transform="translate(-404.31 -155.99)"/>
        <path class="cls-3" d="M574.82,509.09a44.55,44.55,0,0,0-3.41,5.82A45.54,45.54,0,0,0,574.82,509.09Z" transform="translate(-404.31 -155.99)"/>
        <path class="cls-3" d="M572.35,509.38c0.76-1.62,1.31-2.91,1.85-4.13C573.65,504.38,573,504.77,572.35,509.38Z" transform="translate(-404.31 -155.99)"/>
        <path class="cls-3" d="M568.31,522.68a52.56,52.56,0,0,1,3.09-7.77c-0.63.86-1,1.18-1.08,0.87C569.92,517.24,569.34,519.29,568.31,522.68Z" transform="translate(-404.31 -155.99)"/>
        <path class="cls-3" d="M1149.87,844.9c0.15-.34.26-0.73,0.46-1.1C1148.43,838.57,1148.71,840.85,1149.87,844.9Z" transform="translate(-404.31 -155.99)"/>
        <path class="cls-3" d="M497.55,1110.26c-0.15-.19-0.32-0.25-0.47-0.42l0.19,0.76Z" transform="translate(-404.31 -155.99)"/>
        <path class="cls-3" d="M509.2,1125.06c-8.9-4.27-10.31-8.59-11.93-14.47l-9.41,11.76Z" transform="translate(-404.31 -155.99)"/>
        <path class="cls-3" d="M976.14,1285.82l-9.37,10c0.21-17.21,7.19-26.49-3.41-17.95,4.56,2.84,3.33,9.56.46,17.39-0.36,1-.74,2-1.15,3s-1,2.38-.87,2.23c-0.1.42-.24,0.85-0.36,1.29a8.6,8.6,0,0,0-.37,3,4.42,4.42,0,0,0-.36,2.5A15.08,15.08,0,0,0,962,1312s-1.17-.52-2.17-1.09a18.84,18.84,0,0,1-1.87-1.17c0.8,0,.64-0.9,1.39-0.93a6.73,6.73,0,0,0-2-1.17,4.77,4.77,0,0,0-1.52.3,8.75,8.75,0,0,0-1.7.74c-2.06,1.17-3.35,3-4.75,5.09-2.8,4.11-6,9-16.72,10.5-7.54.67-13.13-.2-8.6-3.14l-15.33,7.55c-4.78.87-4.25-1.93,0.51-2.8l-24.43,7.2,0.08-.47c-3,3.13-10.1,8.61-13.64,11.06-6.79-.55,2.77-2.31.73-3.72l-12.83,6.86c-6.5-2.41,4-8.82,13.54-10.59-16.32-11.36-10.46,6.42-40.12,4.71l12.47-5c-10.34-6.19-19.7-.74-35.57-2.3,4.12,1.83,32.41,5.77,18.44,13-4.45-.07-10.1.76-17.39,5.64-1.34-5.14-8.85-2-18.57.73l-1-7c-10.1,4.57-8.41,7.84-13.89,12.44-12,2.22-15.7-2.48-19.57-6.26-19.16,3.54,15.12,5.29-6.92,12.06-16.35,1.23-26.7,6.73-44.49,15.44-11.58.34,0.9-4.66-3.53-5.64l-8.41,7.85c-2.42.45-2.06-1.41-1.88-2.35-7.69,4.13,1,7-11.46,12-0.64,3.29-5.28,3.31-11.52,2.87a45.78,45.78,0,0,1-7.94-1.21,18.27,18.27,0,0,0-6.58-.26c-2,.35-3.9,1.45-6.51,4-0.78-.84,0-2.13.77-3.54a12.5,12.5,0,0,0,1.92-4.38l-2,1.53-0.94.7a1.31,1.31,0,0,1-.86.44,10.42,10.42,0,0,1-2.15-.65c-1.24-.5-2.2-1-3.19-1.4s-2-.81-3.56-1.4a51.49,51.49,0,0,1-6.72-3.17l-0.06-.51-0.07-.61a8.1,8.1,0,0,0-.12-0.84l-1.19-5.49-1.71-8c0.86,12.66-11.68,2.7-22.34-6.33a107.92,107.92,0,0,0-.42,11.57l-13.13-16.5c-0.16-2.75,3-2,7.15-.44-1.18-1-2.32-1.89-3.28-2.56-1.19-7.77,4.2-6.28,10.17-3.45,0,2.88-.16,5.78-0.32,8.63,6.18,2.49,12.62,4.45,15.74,1.57a19.94,19.94,0,0,1-4.88-5.07c1.66,0.63,3,.89,3.3,0s-2.07-2.13-5.25-4.26l4.71-7.84-3.28.46-8.35-26.18c-16-13.41-34.18-22.92-51.32-48.7,8.64,4.1,9.08-2.9,15.31-5.69-2.5,10.78,13.76,19.68,19.89,34.46-3.2-7.71.53-7.61,2.51-6.26l-19-22.11c5.24-2,.9-7.29-0.5-14.93-7.16,10.08-16.32-15.38-24.66-24.08,2.95-2.35,7.58-1.63,13.31,11.3,0.15-17.64-20.78-11.86-21.59-28.68,1.67,3,2,4.93,4.33,5.26-6.64-5.62-13.41-24.29-8.42-21.67l1.65,3c-9.4-20.9-32-61.87-41.89-60.61,1-.76,11.4-2.52,13.71-2.16l-46.73-21.82c8.79-.49,19.45-21.54,32.2-6.77-1.49-5.37-3.39-12-11.19-20.87,0.69,3.83-6.07,13.56-9.06,9.39,1.55-16.5-.19-10.8-1.29-29.57,1,5.74-13,6-16.69-2,2.3,0.36,10.71-6.35,13.36-4.09l-21-13.82c4.48,3.84,9.76-3.94,10.63-9.91-0.28.78-.95,0.12-1.85-1.4l-0.35-.61-0.33-.59c-0.12-.23-0.25-0.48-0.38-0.74-0.26-.54-0.52-1.14-0.79-1.77-0.53-1.26-1.07-2.61-1.63-3.78-0.14-.29-0.28-0.57-0.43-0.84l-0.22-.39a0.93,0.93,0,0,1,.06-0.39,3.59,3.59,0,0,0,.11-1.27l-0.7.68-0.72.72-0.2.21a0.33,0.33,0,0,0-.14.21l-0.09.42c-0.23,1.13-.37,2.42-0.37,2.42-0.43-1.56-1.75-2.78-1.21-4.07a9.3,9.3,0,0,0-.62-3.58,28.22,28.22,0,0,0-1.68-3.6l-1-1.94-0.54-1c-0.16-.42-0.29-0.89-0.44-1.33-2.36-7.19-4.88-14.41-.71-26,1.49,3.62,12.63,11.91,18,.54-4.22-7.42-21-33.63-18.78-55.79l4.75-2.82,1.32-17.12c5.79,12.85,15.69,46.81,18.1,64.36,5.63-7.89,4.87-1.11,8.91-14.38,4.76-3.59,2.51,8.8,1.42,12.74l12.22-30c-7.48-1,.71-25.78-5.52-26.55L484.23,957c-7.46-1-13.56-25.85-5.14-47.17,4.63-4.6,11.13,8.27,13.62,8.59-1.48-3.62,2.2-22.15,4.58-23.58L498,905.33c6.64-11.22-2.78-22.82,8.73-35.14,2.11-4.87,14-12,10.13-14.23-10.72,5.53-36-1.06-40.25-8.51,1.12-1.58,16.37-23.81,22.23-28.23,9-6.18,10.87,17.35,18.59,12.11-1.82-.94-2.68-6.28-2.81-8.44,3.38-4.73,5.22,4.15,8.14-7.59-6.48-4.26,8.3-23.09-4.23-7.4C520.21,796,524,796.48,528,783.22c-6,2.67-11.74-17-10.07-28.88,1.59,1.26,4.79-.48,6.27-1.34,8.24-22.75,15.54-34,22.69-55.39,2.38-1.4,7.88-11,9.49-5.63-0.24-3.5-1.72-7.12.29-13.78,10.38-10.74-3.92,15,6.71,7.75-3.86-2.2-.07-19,0.46-29.23-7.35.78-8.42,21.32-8.95,31.6-8.82-2.87-12.63-22.32-9.31-46,3.69-18.51,8.24-5.83,8-9.33,12.59-32.89-6-33.55,9.56-59.18,9.25-9.15,11.32,3.19,16.19,2.09-2.67,15.19-10.92,21.06-13.94,31L572,595.6c0.35,5.23-1.44,15.36-4.8,20.1,8.09-7.56,19.63-56.11,32.81-80.35-0.36-5.2.3-13.75-3.2-10.76L594.93,533c-7,6-1.19-17.42-6.71-7.8,0.43-12-.51-25.91,7.14-40.46l7.36-.78c-2-.29-7.14,8.81-6.62,13.78-0.72-7.36,16.48-20.74,10.42-30.55l-8,9.33c0.41-12-1.89-27.87,4.64-40.85-8.38,4.12-.32,3.39-10.92,10.64,12-5.36-11.93,34.78,2.2,24.48-11.87,7.11-9.33,16-21,26.6,2.25,0.3,5.57-3.27.74,7.84a12.36,12.36,0,0,1,1,3.13c-0.17.33-.25,0.44-0.41,0.72,0.16-.2.31-0.34,0.46-0.55,0.15,0.6.21,0.67,0.16-.21,1.84-2.42,3.67-4.26,5.14-4.77,3,7.29-3.21,25.46-2.73,32.45-3.26,6.47-1.49-3.65-5-.68l0.71,10.45c-5-.64-13.77,15.48-11.22-1.44l-5,14.34c-5.44,7.62-10.34,18.94-10.75,26.79-3.26,6.46-.49,18.89-2.2,11.75l-4.57,23.57-1.24-.18c-8,22.11-7.42,48.48-24.32,71.18-1.3,7.9-2.42,16.14-7.9,28.26l-4.87,1.11c-1.78,10.1-13.64,27.61-10.78,33.15-14.36,6.79-17.86,46-25.4,62.32l5.09,2.39c-4.16,11.57-6.35,23.26-9,38.45l5,0.66c-0.29,13.76-14,31-20,50.93-1.35-1.94.78-6.79,3-10-18.39,20.1-8.78,52.34-23.57,71.2a20.78,20.78,0,0,1-4.33,12.92,4.36,4.36,0,0,0,.19-1.41c-0.23.53-.52,1.34-0.79,2.17-1.58,2.09-3.32,4.21-4.94,6.59a30.81,30.81,0,0,0,4.57-5.4,112.57,112.57,0,0,0-3.59,17.08l-5.89.94c-0.1.52-.24,0.91-0.33,1.46a9,9,0,0,0-.77,1.4q-0.37.77-.63,1.43a10.19,10.19,0,0,0-.65,2.21c-0.18,1.19.14,1.82,0.8,2,1.31,0.39,4-.92,6.68-2.76a59.58,59.58,0,0,0-.77,12.48,13.44,13.44,0,0,0-5.7,6.73,29.73,29.73,0,0,0-1.47,4.38c0.83,1.42,1.77,2.87,2.7,4.33a51.41,51.41,0,0,1,4.86,8.83,15.41,15.41,0,0,1,.78,9.44,8.24,8.24,0,0,1,1.47,1.17q0.4,0.38.83,0.85c0.25,0.25.45,0.4,0.69,0.63a34.34,34.34,0,0,1,3,3.32c2.1,2.62,4.45,5.94,6.93,9.15,4.95,6.43,10.39,12.48,15.34,11.86-1,.76-0.63,2.71-2.3-0.34,2.35,6.87,4.69,13.74,10,18.26l-4.59,5.8,15.24,9.78c0.73,10.35.42,15-8.53,8.93,17.58,16.63,11.18,15.09,27.13,28.72l-4.3,1.16c3.34,6.09,13.63,13.26,12.37,18.64-0.21,17.61,34.39,68.76,46.08,107.68,7.77-12.81,3.52,19.1,13.06,15.89-1.6,3.47-.54,9.19-5.87,4.69,12.1,16.66,10,29.36,24,37.89-1.6,3.49-6-1.78-6.59.9,1.35,1.14,5.36,4.49,4.75,7.22s-3.64-1.45-6.32-3.69c10.21,18.19,19.47,15.66,27.92,12.88,1.3,11.26,4.31,15.65,13,19.64-0.78,4.6-.51,11.43-7.57.5l4.13,9.2c0.95,2.07,2,4.32,3.11,6.63l1.73,3.49,0.89,1.74,1,1.86c0.81,1.52,1.74,3.2,2.61,4.74s1.76,3.07,2.63,4.5a85.08,85.08,0,0,0,5,7.43c3.09,4.07,5.67,5.8,6.89,4.45,0.26,2,2.17,4.78,4.31,6.85a17.29,17.29,0,0,0,5.47,3.85,2.19,2.19,0,0,0,.82.51h0.87l1.67,0c1.09,0,2.07.07,3.09,0l5.79-.58c1.76-.19,3.39-0.37,5-0.57l2.34-.31a15.31,15.31,0,0,0,2.36-.43c4.79-1.08,10.19-2.44,19.38-5l-5.65.21a15.14,15.14,0,0,1,5.2-5.29,12.58,12.58,0,0,1,1.45-.71,11.46,11.46,0,0,1,1.32-.48,18.78,18.78,0,0,1,2.91-.59c4.14-.55,9.3-0.38,15.44-2.42l-0.15.93c30.19-1.11,11.7-5.89,41.72-6.06l-2.8-4.75c-0.06-11.67,26.71.34,42.14-7.91l-6.66-1.47c8.06-6,28.79,8.84,38.16,8,2.2,0.48-2.73,2.29-5.31,3.67,25.22,0.73,1.42-7.46,18.65-13.33,4.14,2.83-1.93,10.24,10.09,8,6.62,1.48,31.5-20.17,49.37-17.18-4.25-1.92-8.47-3.84-.8-7.94,12.29-4.07,36.47,2.26,45.65-9.31,1.78,0.38,2.56,1,2.8,1.64,9-4.61,30.23-11.38,34.83-17.56a10.18,10.18,0,0,0,5.35,3.29,15.15,15.15,0,0,0,3.33.46c0.32,0,.54,0,0.94,0l1.3-.12c0.88-.09,1.78-0.23,2.71-0.38,7.42-1.21,16.07-4,24-6.92,2-5.73,3.81-11.42,5.52-16.55,0.85-2.57,1.68-5,2.5-7.27q0.61-1.7,1.22-3.27l0.51-1.31,0.44-1.09c2.36-5.64,5.22-8.82,9.48-6.78l12-27.91,1.22,1.44c9.17-17.13,8.41-25,7.62-32.93,2.93-3.59,3,0,3.61.75,15-24.28,15.55-27.14,18-52.23l6,0.06c-0.16-7.18,25-33.57,30.95-61.47,0.45,0.51,1.17,1.48.94,3.8,7.36-31.07,45.24-61.56,32.06-80.32l4.25-20.78c-12.64,23.58-6.15-7.24-13.75,1.34,3.36-10,16.86-22.11,12.36-10l-1.75,1.41c7.39,8.66,17.3-28.56,23.39-24.94,4.13-9.14,8.45-18.15,12.88-27q3.32-6.66,6.71-13.24l1.7-3.28,0.85-1.64,1.16-2.31,4.83-9.57,0.45-8.65,0.23-4.35,0.21-3,0.85-11.84,1.68-23.49c1.06-15.57,2-31,2.34-46.17l-8.14,5.54,0.74-17.16c1.94-4.48,6.4-5.94,5.86,6.3,4.67-6.37-3.49-20.6-5.23-21,3.65-23.93,9.23,9.52,9.54,2.17l-0.43-10-1,2.24c-3.15-8.15-6.63-8.92-6-23.64,1.77-9.29,5-4.7,5.41-8.36,0.58,0,.87-1.2.33-5.62l1-21.62-6.49,8.55c-3-9.64.67-20.33-6.69-10.47,11.34-14.47,5.3-80.62,8.89-89.56-4.41-13.5-4.11-26.75-3.28-43.16-1.39,4.06-8.57,6.39-7.47-7.76,14.65,5.42,6.82-25.83,17.61-37.1-7.2,10.11-1.08-40.29-11.33-24.4,1.39-11.8,5.53-.63,9.14-9.54-5.25-28.22,4.72-61.92,3.36-96.71-1.93-.57-5,5.2-7.74-2.3l10-18.2c-0.42-3.44-3.18-5.07-5-7.39a7.69,7.69,0,0,1-1.11-1.91,12.75,12.75,0,0,1-.42-3.42c0-2.6.69-5.87,2.45-10.84-1.68,3-4.19,6.91-4.71.74l0.73-6.8c-3-4.74-6.15-9.58-9.45-14.47l-1.24-1.83-1-1.51-1.74-2.62q-1.75-2.62-3.55-5.21c-4.8-6.91-9.82-13.69-15-20.4-10.32-13.41-21.18-26.54-31.83-39.87-21.3-26.65-41.74-54.1-55.3-86.22,2.68,9.73-1.39,5-5.83-.63,2.1,4.24-3.86,2.81-5.4,5.12l-11.73-27.46c-9,.2-19.18-24.42-26.55-22.61l6.55,6.54c-13.92-4.73-4.2,24.63-13.67,29.59,15.7,5.22,10.79,37,35,46.78,1.28,5.24-5.26-1.3-5.6,2.28,7,1.79,11.93,6.68,18,18l-1.76-.47c22.49,27.76,28.21,42.64,50.12,76.36l2.35-5.52c4.66,7.28,4.46,9.72,5.86,13.72,12.28,3.09-14.29-19.54-1.91-17.64-0.76,7.76,8.41,19.88,17.15,31.74,4.37,5.93,8.64,11.8,11.5,17,0.72,1.31,1.34,2.57,1.87,3.79q0.39,0.91.7,1.79c0,0.14.11,0.3,0.14,0.42v0.26q0,0.25,0,.5a5.35,5.35,0,0,1-1.76,3.55c1.5,2,2.75,1.28,3.88.34s2.16-2.08,4.2.45c0,0,0,.19,0,0.34,0,0-.83.73-1.65,1.39s-1.65,1.25-1.65,1.25,1,0.14,2.09.37,2.09,0.53,2.09.53a8.8,8.8,0,0,1-1.13,3.22,7,7,0,0,1-.43.63l-0.11.14-0.12.27-0.24.52a15.16,15.16,0,0,1-1.06,1.85c-1.49,2.2-3.22,3.35-4.6,3.49a14.09,14.09,0,0,0-.23-4.08c-0.12-.74-0.26-1.58-0.38-2.19a4.67,4.67,0,0,1-.29-0.7l-0.34.39-0.15.2a0.54,0.54,0,0,0-.14.32c-0.19.77-.34,1.57-0.47,2.39a44.78,44.78,0,0,0-.47,5.17,96.75,96.75,0,0,0,.32,10.83c0.54,7,1.41,13.14.76,15.07l2.22-12.71c2.46,36.23-2.54,80.34,3.52,115.41l2.5-2.61c4.11,26.77-3.05,21.34-1.42,50.68l-0.57-1.07c2.35,5.9,3.46,13.76,3.05,21.78-2.76-7.45-5.82,13.83-8.85,4.07,4.41,29,3.6,14.38,12.43,33.65l-4.16,4.34c3.59,6.58,5.53,7.15,6.34,21.81-3.3-12.06-6.36,9.24-10.77-4.28-9.42,30.57,8.26,45.76-5,59.64,11.06,14.29,6.7-26.48,9-18.54,3.79-6.55,8.25,11.78,7,21.4-0.42,9.81-14.72,16.45-14.91,41.14,0.09-2.45-.76-2.64-0.67-5.08-3,9.19,3.6,18.16-1.26,29.42,6.73,6.46-.63,14.71,8,16.68l-1.65-22.68c2.07,12.87,12.06,25.08,6.77,46.14-1.72-1.68-3.94-8-5.15-12.35-2.67,6.14,1.5,11.93-1.24,18.3-8.68-2-1.44-27.55-7.86-41.41-3.79,6.58,5.88,26.12-3.44,19.05,11.83,10.13-1.92,24.3,7,41.16l-5.2-1.19c0.77,2.66,3.15,8.18,2.94,13l-6.62-8.92c5.55,13.63-5.48,26-2.55,39,0.29-27.18,6.39-6,10.39-17.43,2.7,14.13.67,19.75-2.46,24.32-1.56,2.28-3.4,4.3-5.06,7q-0.31.5-.61,1l-0.3.55-0.15.28a0.42,0.42,0,0,1-.14.21c-0.38.25-.73,0.5-1.06,0.76a6.91,6.91,0,0,0-1.6,1.62,5,5,0,0,0-1.23,1.36c-0.08.13-.16,0.27-0.23,0.42l-0.53,1.18q-0.8,1.84-1.61,3.94a18.32,18.32,0,0,1,2.3-4.45,3.05,3.05,0,0,1,.19-0.27l0.1-.06,0.21-.12,0.46-.24a9.47,9.47,0,0,1,1.07-.42c1.51-.46,3.39-0.78,3.91,1a18.45,18.45,0,0,1-1.83,1.63,0.86,0.86,0,0,0-.18.22l-0.22.3-0.45.6-0.91,1.2c-0.61.8-1.23,1.58-1.85,2.34a36.13,36.13,0,0,1-7.19,7.08c-9.48,23,6.48-1.2,4.94,9.75-9.34,5-2.79,12.17-5.54,22.91l-4.85-2.16c-15,24.27,6.87,11.47-7.61,32.88l-2.13-12.88-3.87,12.87-4.32-5c-2,15-5,18.61-12.48,30.76,4.77-1.42,8,5.73,2.82,17.19-6.46,6.44-2.56-6.47-9.36,10-1.32-5-3.24-10.79,4.44-15.76-1.23-1.45-1.35-5-2.56-6.46-7.17,6.84-10.5,20.67-13.16,26.54,1.22-2.17,2.73-4.74,4-5.8l-4.18,26.49c-3.52,2.84-3.61-.75-3.7-4.31-1.67,5-1,9.29-3.8,16.45-3.07-3.62-7.31-5.06-4.58-15.78l-6,24.31c-2.39.7-10,9.27-10.08,5.71-8,11.29-6.48,33.84-17.12,48.81,0.36,1.2.3,3.25-.76,7-8,15-19.16,26.4-22.27,47.14l-11.82,7.1c-5,15,15.34-9.92,6.94,15.11-5.58,17.89-8.9,3.51-13.59,8.52-0.36,10,.08,27.93-12.82,40.76C971.54,1294.38,974.44,1290.84,976.14,1285.82Zm-147.81,60.8c3.39-2,9.87-7.1,13.29-4.71C838.9,1348.84,835,1346.8,828.34,1346.62Zm-226.67-13.31c2.85,1.65,4.11,5.87,4.63,11.13A28.38,28.38,0,0,1,601.67,1333.31Zm-45-762.53a2,2,0,0,0,.12.46C552.2,578.58,553.91,576,556.68,570.79ZM564.34,555c-0.15-1.9-.89-2-1.83-1.54,0.89,1.58-.25,5.33-2,9.44C562.21,562.11,563.83,560.27,564.34,555Zm622.13,235.47-1.44,3.37C1183.62,786.1,1185,788.27,1186.47,790.42Z" transform="translate(-404.31 -155.99)"/>
        <path class="cls-3" d="M623.79,1359.39a4.9,4.9,0,0,1-1.78,2.78C623.5,1363,624.42,1362.58,623.79,1359.39Z" transform="translate(-404.31 -155.99)"/>
        <path class="cls-3" d="M1024.5,1175c0.13-.16.19-0.34,0.31-0.51a2.21,2.21,0,0,0-.62-0.94Z" transform="translate(-404.31 -155.99)"/>
        <path class="cls-3" d="M522.21,825.61a17,17,0,0,1-4.78,5.71C518.61,831.92,520.16,830.71,522.21,825.61Z" transform="translate(-404.31 -155.99)"/>
        <path class="cls-3" d="M584.8,464.36l-2.2,11c1.45-5.21,3.16-6.68,4.82-9C586.17,466.24,583.79,467.71,584.8,464.36Z" transform="translate(-404.31 -155.99)"/>
        <path class="cls-3" d="M646.44,382.6c-0.11-1.75,1-3.31.9-5l-2.48-.35C642.82,383.86,643.19,389.1,646.44,382.6Z" transform="translate(-404.31 -155.99)"/>
        <path class="cls-3" d="M604.79,460.08c4.52,0.56,5.28-6.57,7-14.26a9.09,9.09,0,0,1-.43,1.31C606.11,443,605.45,451.55,604.79,460.08Z" transform="translate(-404.31 -155.99)"/>
        <path class="cls-3" d="M612.17,444a42.35,42.35,0,0,1,2.17-6.9C612.25,435.49,612.92,439.76,612.17,444Z" transform="translate(-404.31 -155.99)"/>
        <path class="cls-3" d="M568.48,533c2.25-3.16-4.69-4-2.31-5.43C562.08,521.87,564.93,553.24,568.48,533Z" transform="translate(-404.31 -155.99)"/>
        <polygon class="cls-3" points="216.44 302.69 210.33 303.62 213.17 309.18 216.44 302.69"/>
        <path class="cls-3" d="M597.5,516.08l5.38-11.39c-0.94-.11-0.95-1.79-0.73-3.77C599.55,508.17,595.86,515.85,597.5,516.08Z" transform="translate(-404.31 -155.99)"/>
        <path class="cls-3" d="M602.15,500.92c1.36-3.78,2.44-7.44,2.29-9.85A64.47,64.47,0,0,0,602.15,500.92Z" transform="translate(-404.31 -155.99)"/>
        <polygon class="cls-3" points="212.64 319.44 210.39 322.59 207.24 330.84 212.64 319.44"/>
        <path class="cls-3" d="M554.28,643.39l-2.79,13.45c1.36,1.91,3.62-1.26,4.51-6.32C555.77,647,556.67,642,554.28,643.39Z" transform="translate(-404.31 -155.99)"/>
        <path class="cls-3" d="M581.57,608.93c-2.25,3.15-3.49,3-5.87,4.4l6.35,2.54Z" transform="translate(-404.31 -155.99)"/>
        <path class="cls-3" d="M570.58,647.22c1.37,1.89-1.06,20.51,4,4C573.2,649.28,576,635.8,570.58,647.22Z" transform="translate(-404.31 -155.99)"/>
        <polygon class="cls-3" points="93.49 683.77 94.5 680.45 83.71 677.4 93.49 683.77"/>
        <path class="cls-3" d="M466.33,1020.27c7.63-14.51-5.36-5.82,2.41-18.64-1.32-4.44-6.35,10.48-7.3,6.07C461,1017.85,457.93,1022.22,466.33,1020.27Z" transform="translate(-404.31 -155.99)"/>
        <path class="cls-3" d="M461.44,1007.7a46.7,46.7,0,0,0,0-5.26A19.89,19.89,0,0,0,461.44,1007.7Z" transform="translate(-404.31 -155.99)"/>
        <polygon class="cls-3" points="634.18 34.85 629.74 25.16 630.81 32.78 634.18 34.85"/>
        <path class="cls-3" d="M1019.78,180l4.2-6.27-8.92-1.06C1016.74,174.33,1020,177.58,1019.78,180Z" transform="translate(-404.31 -155.99)"/>
        <path class="cls-3" d="M796.85,1339.52l-0.36,1.86c2,1.42,4.4,1,9.21.1Z" transform="translate(-404.31 -155.99)"/>
        <polygon class="cls-3" points="530.85 1155.21 528.45 1155.64 534.39 1160.83 530.85 1155.21"/>
        <path class="cls-3" d="M978.82,1247.15c-2.28,4.27-3.37,10-5.66,14.31C976.54,1251.41,986.67,1249.35,978.82,1247.15Z" transform="translate(-404.31 -155.99)"/>
      </g>
    </g>
  </g>
</svg>
