<svg id="_6" data-name="6" xmlns="http://www.w3.org/2000/svg" xmlns:xlink="http://www.w3.org/1999/xlink" viewBox="0 0 918.47 1270.43">
  <defs>
    <style>
      .cls-1 {
        fill: url(#linear-gradient);
      }

      .cls-2 {
        fill: #ff9b20;
      }
    </style>
    <linearGradient id="linear-gradient" x1="460.48" y1="1239.19" x2="460.48" y2="14.85" gradientUnits="userSpaceOnUse">
      <stop offset="0" stop-color="#c44600"/>
      <stop offset="1" stop-color="#fb823b"/>
    </linearGradient>
  </defs>
  <title>number6</title>
  <g>
    <polygon class="cls-1" points="701.95 428.34 817.59 322.64 685.26 14.85 300.38 163.91 37.67 818.17 435.99 1239.19 883.29 777.27 600.34 444.97 369.34 801.39 537.89 840.72 463.12 782.47 570.88 632.95 706.54 769.74 435.99 1056.72 229.59 834.48 389.62 245.19 628.66 101.09 723.67 287.57 701.95 428.34"/>
    <g>
      <path class="cls-2" d="M1064.95,616.14c-7.11,6-1.55,7.12-2,8.67C1073.69,613.59,1063.86,615.52,1064.95,616.14Z" transform="translate(-339.52 -172.98)"/>
      <path class="cls-2" d="M1174.68,495.18l3.72,3.89-8.87-14.79c-4.33-7.14-8.38-13.66-8.38-13.66l6.64,12Z" transform="translate(-339.52 -172.98)"/>
      <path class="cls-2" d="M1114.22,354.35c-1.87,15.53,21.64,47.12,29.14,71.64v4.57l10.35,8.06C1140.57,410.56,1120.82,375.26,1114.22,354.35Z" transform="translate(-339.52 -172.98)"/>
      <path class="cls-2" d="M1099.69,277.57c-0.94,5.53-8.92-14.12,6.15,16.72-0.37-1.71-.39-2.25-0.56-3.27C1104,288.2,1102.35,284.29,1099.69,277.57Z" transform="translate(-339.52 -172.98)"/>
      <path class="cls-2" d="M1105.28,291c6.15,13.76-1.54-10.07,0,0h0Z" transform="translate(-339.52 -172.98)"/>
      <path class="cls-2" d="M1076.19,227.79l10.34,17.15c0-4.52-6.58-20.91-2.78-15.4C1074.34,211.43,1074.35,216,1076.19,227.79Z" transform="translate(-339.52 -172.98)"/>
      <path class="cls-2" d="M1062.85,211.26l1.18,2.3,0.57,1.12c0.09,0.17.23,0.46,0.29,0.56l0.22,0.39,0.94,1.65,2.56,4.5a7.74,7.74,0,0,0-1-3.57,16.68,16.68,0,0,0-1.56-2.43l-0.54-.69-0.15-.18-0.21-.31-0.43-.63Q1063.9,212.67,1062.85,211.26Z" transform="translate(-339.52 -172.98)"/>
      <path class="cls-2" d="M1079.47,240.83l-10.85-19.07c0,3.14-2.25,4.43,4.76,8.85C1070.54,229.89,1074.3,233,1079.47,240.83Z" transform="translate(-339.52 -172.98)"/>
      <path class="cls-2" d="M1083.25,252.65c2.83,10.9,7.52,24.54-2.84,7.31C1096.4,294.41,1099.25,287.1,1083.25,252.65Z" transform="translate(-339.52 -172.98)"/>
      <path class="cls-2" d="M1103.88,350.85l3.76,14.58,7.51,10.78C1111.41,370.82,1105.77,349,1103.88,350.85Z" transform="translate(-339.52 -172.98)"/>
      <path class="cls-2" d="M949.84,178.76c-0.55,2,7.83,1.74,10,3.21l13-7.09C965.36,176.54,951.66,180.71,949.84,178.76Z" transform="translate(-339.52 -172.98)"/>
      <path class="cls-2" d="M959.82,182l-19.42,10.59C958.79,185.8,961.64,183.23,959.82,182Z" transform="translate(-339.52 -172.98)"/>
      <path class="cls-2" d="M1053.1,210.66l4,6.86,0.46,0.79,0.37,0.57,0.77,1.2,1.67,2.59,3.63,5.64,9.88,15.36-11.29-18.53-4.15-6.8-4.7-8.44-4.53-8.12Z" transform="translate(-339.52 -172.98)"/>
      <polygon class="cls-2" points="532.13 35.84 542.33 27.75 523.79 41.2 532.13 35.84"/>
      <path class="cls-2" d="M820.08,229.52c7.42-6.31-13.72-.5-5.36-5.85-13.87,6-24.89,13.2-34.82,19.7C790.9,237.63,803.28,233.21,820.08,229.52Z" transform="translate(-339.52 -172.98)"/>
      <path class="cls-2" d="M763,253.76c5.47-2.94,10.92-6.52,16.87-10.39A124.75,124.75,0,0,0,763,253.76Z" transform="translate(-339.52 -172.98)"/>
      <path class="cls-2" d="M905.27,205.28c-1.95-.33-5.95-1.61-17.82,1.79l9.74,1.27Z" transform="translate(-339.52 -172.98)"/>
      <path class="cls-2" d="M897.53,208.36l-0.34,0-17.47,6.48Z" transform="translate(-339.52 -172.98)"/>
      <path class="cls-2" d="M907.3,204.51l-2,.77A1.68,1.68,0,0,0,907.3,204.51Z" transform="translate(-339.52 -172.98)"/>
      <path class="cls-2" d="M1004.26,173c-4.54,2.46-10.14,5.35-15.31,8.1-2.59,1.37-5.07,2.72-7.27,4l-1.58.91-1,.69c-0.65.45-1.25,0.89-1.77,1.29-2.09,1.63-3,2.87-1.85,3.34a8.46,8.46,0,0,0,3.5.09c0.9-.1,1.93-0.24,3.19-0.47q2.36-.52,5.36-1.28c2.54-1.85,3.41-3,3.52-3.81s-0.5-1.35-.74-2-0.09-1.56,1.76-3.16S997.45,176.68,1004.26,173Z" transform="translate(-339.52 -172.98)"/>
      <path class="cls-2" d="M919.42,206.13l22.11-7.41c-0.88-1-5.45-1.16,0-4.68Z" transform="translate(-339.52 -172.98)"/>
      <polygon class="cls-2" points="569.8 38.66 579.9 33.15 571.7 35.9 569.8 38.66"/>
      <path class="cls-2" d="M801.84,243.45c-8.64,5.54-18.85,9.68-30.32,14.48,12.76-4,25.79-8.46,38-13.2C810.69,242.69,815.09,238.14,801.84,243.45Z" transform="translate(-339.52 -172.98)"/>
      <path class="cls-2" d="M848.49,226.79c-0.61.35-1.42,0.72-2,1.06C847.93,227.72,849,227.44,848.49,226.79Z" transform="translate(-339.52 -172.98)"/>
      <path class="cls-2" d="M657.35,302.11c0.73,0,1.4.09,2.14,0.09a8.72,8.72,0,0,1,.13-0.92Z" transform="translate(-339.52 -172.98)"/>
      <path class="cls-2" d="M811.9,244.74a58.4,58.4,0,0,0,19.64-9.41c-6.82,3.14-14.11,6.29-22,9.4C809,245.66,809,246.12,811.9,244.74Z" transform="translate(-339.52 -172.98)"/>
      <path class="cls-2" d="M732,268.15c5.22-1,11-2.32,17.11-3.86C743.8,264.75,733.26,266.34,732,268.15Z" transform="translate(-339.52 -172.98)"/>
      <path class="cls-2" d="M842.88,227.85c0.44-.25.83-0.49,1.32-0.74C840.78,227.37,841.34,227.67,842.88,227.85Z" transform="translate(-339.52 -172.98)"/>
      <path class="cls-2" d="M842.88,227.85a105.62,105.62,0,0,0-11.34,7.48c5.55-2.56,10.64-5.07,15-7.49A18,18,0,0,1,842.88,227.85Z" transform="translate(-339.52 -172.98)"/>
      <path class="cls-2" d="M640.21,347c-1-1.27-1-4.66-.09-9.83,3.58-2.61,9.74-5.84,16.94-8.75a111,111,0,0,1,22.67-6.55c19.68-11.13.87-19.2-20.24-19.62,0,1,.19,1.93-2.22,3.93a48.11,48.11,0,0,1-5.88,4l-1.11.65-0.59.34-0.91.47-4.06,2c-2.89,1.44-6.16,3-9.86,4.81,3.09-.56,9.06-2.18,15.68-4l7.58-1.78c2.53-.58,5-1.14,7.37-1.62,9.28-1.89,15.42-2.36,7.08,3-13.53,6.41-19,8.16-24.85,9.48-5.37,1.12-8.83.9-17.93,3.19-0.17.24-.42,0.68-0.67,1.14A3.55,3.55,0,0,1,630,327a0.38,0.38,0,0,1,.36.06,0.19,0.19,0,0,1,.08.25c1.72-.12,1.92.32,1.12,1.13,0.26,2-.38,6-1.28,10.67l-1.46,7.36-0.73,3.76-0.34,1.82-0.25,1.63c-1.28,8.62-1.8,16.26,2.31,14.93l7.39-25.94c0.6,0.17.42,2.79,0.59,4.49S638.48,349.74,640.21,347Z" transform="translate(-339.52 -172.98)"/>
      <path class="cls-2" d="M700.56,286.77l8.64-3.92c-10.34,3.19-18.18,4.36-32.69,6.32-13.93,7.68-16.4,10.37-16.88,12.11L703.34,285Z" transform="translate(-339.52 -172.98)"/>
      <path class="cls-2" d="M748.85,267.47c-5.19,7.09-25.67,17.19-10.83,16.94,25.8-10.35,16.73-10.73,31.48-18.65-41.41,17.3,11.06-7.12-20.13,2.09,7.93-3.94,15.23-7,22.14-9.92-7.74,2.38-15.26,4.53-22.42,6.36l1.07-.1,0.19-.08s0,0,0,.07c2-.14,2.74,0,0.59.44a7.51,7.51,0,0,1-.84.43,5.29,5.29,0,0,1-1.25,2.39c-12.47,3.78-2.35-.4,1.25-2.39a3,3,0,0,0,.25-0.87h-0.18l-41,18.65C718.3,280,729.36,275.6,748.85,267.47Z" transform="translate(-339.52 -172.98)"/>
      <path class="cls-2" d="M967.73,208.2c-1.45.12-1.52-.22-1.74-0.5C963.49,209.28,962.61,210,967.73,208.2Z" transform="translate(-339.52 -172.98)"/>
      <path class="cls-2" d="M949.46,212.21c2.81-1.79,4.67-4.54,14.74-7.93,9.1-2,.78,2.13,1.79,3.41,5.51-3.49,19.66-11.26.11-6.17l-2.73,1.75c-17.46,5-41.27,7.9-38.56,6.15C931.28,211.5,936.72,212.65,949.46,212.21Z" transform="translate(-339.52 -172.98)"/>
      <path class="cls-2" d="M848.38,241.43l-34.06,15.68,19.25-3.06-1.79-1.95C852,245.32,846.6,244.15,848.38,241.43Z" transform="translate(-339.52 -172.98)"/>
      <path class="cls-2" d="M652.51,301.46l2.82-6.46-8.8,7.2-10.37,6.63-4.54,2.94,12.17-5.82,2.31-1.1,0.57-.27,0.5-.24,0.66-.35,2.37-1.27Z" transform="translate(-339.52 -172.98)"/>
      <polygon class="cls-2" points="265.53 175.85 262.16 172.57 259.81 185.46 265.53 175.85"/>
      <path class="cls-2" d="M755.29,950.76s-0.16.82-.27,1.56-0.19,1.42-.19,1.42A7.22,7.22,0,0,0,755.29,950.76Z" transform="translate(-339.52 -172.98)"/>
      <path class="cls-2" d="M785.47,904.73l-0.74-2.8C783.72,905.66,783.63,907.4,785.47,904.73Z" transform="translate(-339.52 -172.98)"/>
      <path class="cls-2" d="M710.11,1382.91c2,3.61,4,7.4,5.9,11l2.75,5.16,1.3,2.37,0.63,1.12,0.15,0.27,0.3,0.42,0.62,0.87a107.63,107.63,0,0,0,8.32,10.48c2.09,2.16,3.32,2.7,3.41,1,0,0-.83-2.62-1.56-5.12s-1.37-4.92-1.37-4.92q-2.5-2.41-4.84-4.74l-3.26-3.24c-1.75-1.77-3.35-3.49-4.83-5.16A113.57,113.57,0,0,1,710.11,1382.91Z" transform="translate(-339.52 -172.98)"/>
      <path class="cls-2" d="M1151.47,868.16l1.94,4.5c3.76,1.91,7.29,3.71,10.48,5.28C1160.13,875,1155.9,871.68,1151.47,868.16Z" transform="translate(-339.52 -172.98)"/>
      <path class="cls-2" d="M1129.11,872.36l-11.34-18.07A185.59,185.59,0,0,0,1129.11,872.36Z" transform="translate(-339.52 -172.98)"/>
      <path class="cls-2" d="M868.17,811.18l5.16-11.31L878.92,788c-10.87,15.1-13.5,19.81-13.43,21.27S868.23,809.06,868.17,811.18Z" transform="translate(-339.52 -172.98)"/>
      <path class="cls-2" d="M421.09,811.69a308.5,308.5,0,0,0-15.52,30.93C414.32,828.18,423.14,817.25,421.09,811.69Z" transform="translate(-339.52 -172.98)"/>
      <path class="cls-2" d="M713.77,921.7c-5,9.23-6.27,13-5,13C713.61,925.78,716.11,920.25,713.77,921.7Z" transform="translate(-339.52 -172.98)"/>
      <path class="cls-2" d="M390.71,879.67c1.35-2.08,2.47-4.21,3.76-6.36a300.12,300.12,0,0,1,11.1-30.69C399.1,853.27,392.68,865.87,390.71,879.67Z" transform="translate(-339.52 -172.98)"/>
      <path class="cls-2" d="M747.54,375.28c1.09-.41,2.33-1,3.35-1.35C750.86,373.19,749.48,374,747.54,375.28Z" transform="translate(-339.52 -172.98)"/>
      <path class="cls-2" d="M1040.8,468.48a42.34,42.34,0,0,1,.41-4.4c-0.62-1.11-1.5-2.79-2.37-4.42a20.19,20.19,0,0,0,2.13,4.46C1040.9,465.13,1040.83,466.63,1040.8,468.48Z" transform="translate(-339.52 -172.98)"/>
      <path class="cls-2" d="M530.2,529.64c3.55-9.69.12-1.71,0,0h0Z" transform="translate(-339.52 -172.98)"/>
      <path class="cls-2" d="M566.41,490.12c-0.32,2.23-.31,4,0.62,4.69A7,7,0,0,1,566.41,490.12Z" transform="translate(-339.52 -172.98)"/>
      <path class="cls-2" d="M380.13,985.74l-0.35.82C381.94,983.68,381.55,984.19,380.13,985.74Z" transform="translate(-339.52 -172.98)"/>
      <path class="cls-2" d="M538,516c-2,3.38-4.1,7.33-6.23,11.71C532.91,525.91,534.83,522.37,538,516Z" transform="translate(-339.52 -172.98)"/>
      <path class="cls-2" d="M535.13,517.14c1.52-3.22,2.68-5.77,3.79-8.19C538.67,507.44,537.77,508.32,535.13,517.14Z" transform="translate(-339.52 -172.98)"/>
      <path class="cls-2" d="M525.09,543.07c2.13-5.5,4.38-10.52,6.68-15.31-1.06,1.76-1.62,2.45-1.57,1.88C529.14,532.47,527.65,536.47,525.09,543.07Z" transform="translate(-339.52 -172.98)"/>
      <path class="cls-2" d="M692.11,1161.15c-0.36-.6-0.82-1.24-1.18-1.92C682.41,1153,685.74,1156.09,692.11,1161.15Z" transform="translate(-339.52 -172.98)"/>
      <path class="cls-2" d="M900.27,1251.47c-0.3.38-.39,0.65-0.66,1l1.19-1Z" transform="translate(-339.52 -172.98)"/>
      <path class="cls-2" d="M923.49,1222.39c-6.71,15.46-13.47,21.4-22.69,29.11l18.41,0.77Z" transform="translate(-339.52 -172.98)"/>
      <path class="cls-2" d="M880.76,986.24L856.4,976.15c11.76,0.1,22.1,1.16,29.32,1.9l-30.81,64.52c-11-6.55-14-8.37-4.14,4.17a1.75,1.75,0,0,1,1.22-.42l34.82-72.91c-10.64,11.07-98.06-22-104.8-8.67l-8-3.48a20.34,20.34,0,0,1-1.67-1.5l-0.64-.65a3.21,3.21,0,0,0,1.71.1,4.63,4.63,0,0,1,.73-0.08h0.2l0.14,0,0.36,0.07c0.49,0.1,1,.23,1.6.38l-1.36-.63-0.33-.15a0.83,0.83,0,0,1-.24-0.13l-0.16-.17c-0.22-.22-0.42-0.42-0.61-0.6a5.69,5.69,0,0,0-1.05-.8,3,3,0,0,0-2-.35c-1.47.21-3.35,1.17-5.87,2.18a37.7,37.7,0,0,1-9.43,2.59,34.37,34.37,0,0,1-12.8-.76c0.47-.69,1.05-1.49,1.72-2.35a47.92,47.92,0,0,1,7.74-7.7c2-1.41,3.18-1.42,3.31,0l0.35-1.6c0.23-1,.59-2.4,1-3.94s1-3.2,1.41-4.52l0.77-2.24c1.39-1.88,2.44-2.17,2.85-1.6s0.23,1.89-1,3.48l1.62-2.84L771.23,923l13.34-21.68,0.16,0.56c2-7.36,7.9-23.14,11-30.73,8.84-9.68-2.2,6.3,1.16,4.54l12.3-25.62c9.5-7.52-.06,14.12-11.11,30.15,26.83-14,9.57-21.66,47.77-64.59L832.94,839c16.44-9.79,25.16-28.89,46-51.26-6.2,4.49-43.93,43.31-30.42,15.61,5.63-6.62,12.26-15.86,18.71-31.34,4.54,2.76,12.21-11.47,22.92-28.55l5.16,5c10.15-19.4,6.21-19.9,10.52-32.38,13.79-20,21.11-21.27,28.07-23.57,1.38-2,2.5-3.68,3.4-5.09,0.45-.7.84-1.34,1.18-1.9l0.25-.41a0.31,0.31,0,0,0,0-.09,1.16,1.16,0,0,0,0-.14,1,1,0,0,0-.42-0.93,3.1,3.1,0,0,0-1.35-.54,7.75,7.75,0,0,0-.95-0.11,0.18,0.18,0,0,0-.15,0l-0.24.16-0.49.33-1,.67c-2.63,1.77-5.2,3.3-5.62,1.94-0.21-.68.12-2.09,1.25-4.56l0.46-1,0.26-.53,0.14-.27a1.27,1.27,0,0,0,.1-0.21q0.16-.48.4-1.05a29,29,0,0,1,1.33-2.68,40.24,40.24,0,0,0,5.63-6.76,66.77,66.77,0,0,0,4.56-8.49c3.45,2.6,7.64,4.9,14.88,10.3,1.47,2.67,1.83,4,1.66,4.62s-0.86.65-1.61,0.55a9.28,9.28,0,0,0-2.17-.22c-0.58.08-.91,0.46-0.78,1.39,0,0,.52.07,1.35,0.24l0.69,0.15,0.38,0.09,0.1,0,0.18,0.12,0.38,0.25,3.17,2.14,8.64,5.82c3.08,3.83.74,3.74-.44,3.69,12.62,11.47,6.26-3.5,25,15.51,10.55,0.43,26.77,48.9,54.8,68.26,3.73,7.47-5.82-.19-6.29,3.47,33.67,30.63,28.29,26.75,58.25,49.94l17,27c-11-21.09,13-2.57,33.7,13.88-3.39-7.92-6.25-14.73-8.5-19l29.75,29.11c2.37,4.56-2.18,2.95-8.82-.32,2.27,1.77,4.45,3.44,6.21,4.69,7.63,13-.45,9.75-10.32,4.22-2.22-4.74-4.34-9.52-6.37-14.19-9.89-5-19.71-9.24-21.46-4.95a73.28,73.28,0,0,1,10.26,9.11c-2.62-1.28-4.52-1.91-4.25-.51s4.34,3.83,10.1,7.83l0.14,12.26,3.85-.28,15.71,22.23,10.8,15.29,1.06,1.5,0.49,0.69a1.47,1.47,0,0,1,.14.22l0.09,0.16,0.59,1.06,0.5,0.91a165.53,165.53,0,0,1,19.41,11.37,59.24,59.24,0,0,1-4.3,11.34c-1.08,2.24-2.36,4.66-3.86,7.27q-1.12,2-2.41,4.06l-3.43,5.06a497,497,0,0,1-35.11,45.06c6.5-15-4.46-8.89-8.78-14.23,8.44-3.53,16.18-12.62,24.72-23.58,4.27-5.48,8.74-11.42,13.6-17.36L1183,965l1-1.31c0.67-.86,1.35-1.7,2.06-2.52a47.87,47.87,0,0,1,4.67-4.74c-3.66,3.23-5.72,3.92-6.84,3.57a2.28,2.28,0,0,1-1.28-2.56s-0.68,1.29-1.91,3.45l-0.49.85-0.27.46a3.72,3.72,0,0,1-.27.38l-0.35.45-2.95,3.84-6.4,8.34L1152.48,998c-3.11-4.8-11.41,5.78-23.41,14.85,15.73-.41-24.24,35.58-37.93,54.57-3.65-1.54-2.51-8.16,17.79-27.83-27.65,16.62-18.73,37.94-45.08,55,4.74-5,7.73-7.3,8.27-10.57-8.85,13.87-38.13,40.35-34,31.46l4.73-5c-32.8,32-97.05,100.11-95.09,111.53-1.19-.52-3.93-12.16-3.36-15.46l-34.24,80.61c-0.76-10.76-33.73-4.22-10.58-34.67a186,186,0,0,0-32.71,34.29c6-4.55,21.25-5.24,14.7,2.58-25.84,13.82-16.92,10.59-46.32,30,9-6.82,9.43,10.85-3.12,23.23,0.56-3.29-10-7.59-6.41-13.14l-21.63,40.12c3-4.71,1.46-6.88-2-7.29a18.7,18.7,0,0,0-6.31.59,33.76,33.76,0,0,0-3.62,1.1c-0.61.22-1.22,0.46-1.82,0.72a0.7,0.7,0,0,1-.33.07l-0.28,0-0.53.06c1.37,0.07-.77,2.45-3.9,5.5s-7,6.57-9.64,9.46a14.55,14.55,0,0,0-2.3-2l2.29,4q2-.81,4.41-2a46.64,46.64,0,0,0-4.43,4.51,25.53,25.53,0,0,0-10-5.82c-3.38-1.13-7-1.93-11.36-3.5l-1.64-.62-0.85-.34c-0.15-.06-0.27-0.11-0.44-0.19l-0.51-.26c-1.36-.71-2.73-1.45-4.12-2.24a102.06,102.06,0,0,1-8.65-5.49,128,128,0,0,1-20.2-18.17c5.94,2.57,21.52-.14,5.48-19.35-12.47-4-57-15.89-90.4-44.12l-3.1-8.55L604,1254.29c21.2,8.53,75.82,37.08,103.37,54.84-10.65-15.43-.44-6.69-19.76-26.62-4.27-9.45,14.14,7.45,19.9,13.25l-42.82-48.45c-3.4,7.17-39.35-30.8-42.13-24.77l53.8,45.71c-3.41,7.14-43.14-15.06-73.66-49.21-5.86-10.49,15.55-2.72,16.69-5.11-5.93-2.57-33.4-28.22-35-32.52l16.22,11.39c-15.5-20.43-35.71-23.48-51.63-50.58-6.92-8-14.78-29.47-19.21-27.8,5.72,18.33-10.93,38.71-23.43,34.72-2.13-3.08-32.29-45.87-37.56-57.5-7.16-17.2,29.42,8.15,23.36-6.52-1.91.93-10.33-4.35-13.66-6.71-6.38-9.25,7.71-1-9.54-17.86-8.21,2.22-33.26-36.08-12.44-3.93-17.77-15.67-16.11-19.29-35.4-39.18,1.27,4.87-6,3.18-15.81-1.68-2.45-1.22-5.07-2.63-7.74-4.19s-5.44-3.29-8.34-5.29a168.77,168.77,0,0,1-17.05-13.46c0.68,0.14,1.15,0,.89-0.86,0.95-.16,2.31-1.27,3.63-2.54s2.61-2.7,3.48-3.67c4.64-11.09,8.79-20.52,12.92-29.69s8-17.42,11.79-25.67c7.65-16.52,15.07-32.68,23.51-53.6,3.23-3.18,13.38-22.56,12.92-12.76,1.18-6.52,1-13,6.06-26,16-22.57-10.63,29.16,4.26,13-3.39-3.25,7.82-35.64,12.68-55-8.52,3.15-18.26,42-23.13,61.43-8.64-3.37-4.79-39.05,8.79-84.41,11.82-35.63,11.62-12.84,12.82-19.37,27.73-64.71,7.3-61.68,35.3-113.42,14.12-19.32,11.3,3.41,17.18.23-9.3,29.16-20.95,42.09-28.43,61.38l12.09-22.59c-1.79,9.74-8,29.21-13.72,38.87,12.17-16.06,45.24-110,70-158.53,1.76-9.69,6.05-25.91.91-19.48l-5.64,16.25c-10.31,12.88,5.93-32.46-4.24-13.11,5.48-22.64,10.21-48.58,24.8-77.68l8.53-3.14c-2.09-.09-11.62,18.19-13.12,27.41,2.26-13.67,27-42.77,24.34-59.81L578,449.42c5.48-22.74,9.49-52,22.18-77.84-11.06,9.66-1.76,6.44-16.61,22.49,15.6-12.82-27.79,68.11-7.73,45.5-16.2,16.09-17.07,32.25-34.45,54.81,2.38,0,7.57-7.42-2.44,14.57a31,31,0,0,1-.15,5.65c-0.33.66-.46,0.89-0.76,1.45,0.26-.42.49-0.71,0.74-1.14-0.08,1.1,0,1.21.27-.43,3.05-5,5.87-8.86,7.72-10.15,0.27,13-14.18,48.59-16.56,61.62-6.32,12.9-.14-6.51-5.25-0.14l-3.55,19.47c-5.3-.06-21.8,32.25-11.91-0.14l-11.52,28.1c-9.23,15.56-19.42,38-23.14,52.82-6.33,12.9-8.41,35.61-7.35,22.59L452.53,734l-1.31-.05c-18.09,43.38-28.45,92.83-56.76,139.36-4.74,15.15-9.42,30.89-20.58,54.93l-5.89,3.2c-1,3.22-2.45,6.9-4.11,10.82-0.83,2-1.71,4-2.64,6.05l-2.93,6.46c-6.43,14.76-13.4,30.43-18.82,43.55,9.87,10.65,18.19,18.94,22.95,21.79a62.2,62.2,0,0,0,4,7.08q1.27,2,2.8,4.12l1.58,2.19,0.41,0.56c0.11,0.16.15,0.24,0.23,0.36l0.42,0.69a120.73,120.73,0,0,0,8.69,11.89c6.86,8.42,15.61,17.7,24.87,27.09,18.53,18.78,39.1,38,50.64,51.67l5-2.85c16.67,18.08,34,34.12,56.63,54.75l2.29-4.75c21,16.34,44,51.56,72.93,81.45-3.32-.76-10.21-8.77-14.52-15,26.08,43.79,78,70.66,103.09,109a81.41,81.41,0,0,1,18.7,19.84,16.7,16.7,0,0,0-2.11-1.84c0.75,0.87,1.91,2.13,3.12,3.4,2.79,4.19,5.59,8.58,8.83,13.14a104.46,104.46,0,0,0-7.11-11.36c6,6.23,15.51,15.36,25.27,23.87a32.6,32.6,0,0,0,1,4.88c0.59,2.55,1.32,5.24,1.32,5.24,1.24,1.21,2.19,2.24,3.49,3.48a70.45,70.45,0,0,0,7.59,8.56c1.75,1.55,2.73,1.86,3.1,1.26,0.74-1.21-.89-6-3.3-11.45a202.53,202.53,0,0,0,18.47,14.88c2.91,7.68,8.9,14.63,15.41,21.14,5.63-6.13,11.58-13.29,17.36-19.17s11.54-10.64,17.87-13a55,55,0,0,1,4.94-7.16c1.15-1.49,2.45-3.1,3.86-4.82l2.2-2.66,0.57-.69,0.23-.28,0.18-.24,0.76-1c4.1-5.2,9.29-11.37,14.32-17.61,10.07-12.48,19.53-25.23,18.56-30.95,1.19,0.54,4.24-1.79-.54,3.27,10.76-9.58,21.51-19.15,28.58-30.25l9.08,0.31,15.32-28.83c16.21-10.84,23.42-14.85,14,2.35,26.05-38.38,23.63-28.72,45-62.13l1.81,4.39c9.54-10.09,20.79-30.11,29.21-33.62,27.56-16.56,107.77-109.65,168.79-161.59-20,2.19,29.91-22.64,25-31.82,5.41-1.23,14.37-8,7.28,3.09,4.12-4.93,8.08-9.31,11.89-13.29l3.1-3.2L1219,990l8.45-8.42c11-10.86,21.28-20.63,30.55-30.24-5.11-6-10.43-11.87-16.14-17.63a225.22,225.22,0,0,0-18.35-16.67c-1-3.47,2.16-1.53,5.4.81s6.5,4.93,5.15,1.95c-2.09-1.95-6.17-5.72-10-9.69-1.93-2-3.8-4-5.4-6l-0.3-.37-0.24-.3-0.33-.45c-0.21-.3-0.4-0.6-0.58-0.9a8.27,8.27,0,0,1-.79-1.72c-0.66-2.16.79-1.44,3.05,0.33l0.88,0.71c0.12,0.08.39,0.34,0.64,0.58l0.76,0.73,3.23,3.15c2.22,2.17,4.53,4.43,6.64,6.4q-4.43-5.13-8.45-9.62l-1.87-2.07-1.15-1.2-2.22-2.27c-2.9-2.91-5.56-5.36-8-7.4a47.71,47.71,0,0,0-12.45-7.95c-7-2.78-11.58-1.22-15.9.47-10.5-18.73-17.76-26.36-32-34.21-2.57-7.45-8.22-18.71,9.32.29-9.1-11.34-54.36-70.33-60.67-66.9-1.59-4.63-12.77-15.81-15.88-18.19-20.82-25.11-22.2-27.7-43.47-51.65l4.88,7.5c-14.66-4.13-18.7-19-36.21-38h1.13c-8.43-12.26-13.82-19.49-17.67-24.2-1-1.18-1.83-2.2-2.62-3.1l-1.14-1.27L985.87,651c-1.75-1.88-3.21-3.35-4.65-4.8a129.79,129.79,0,0,1-10.58-11.86c-2.47-3.08-5.49-7-9.46-12.33s-8.88-12.06-15.32-21l1.28,5.58L948.3,612c-1.4,3-4.54.75-9.14-4.88a138.32,138.32,0,0,1-10,12.56c-4,4.59-8.62,9.81-13.65,15.83s-10.41,12.79-15.54,20l-3.4,4.86q-1.41,2.07-2.72,4.17a89,89,0,0,0-4.68,8.45l9.19-8.63c-6.81,17.65-41.09,35-52.4,49.86-3,2.86,2.16-6.23,4.62-11.37-32.1,37.2,2.36,9-16,40.36-6.77,3.59-3.27-12.39-17.13,7.72-9.14,8.57-28.35,66-52.47,90.07,6.4-4.6,12.77-9.15,5.42,6.16-6.59,11.11-18.36,24.28-29.12,37.74a208.76,208.76,0,0,0-14.6,20.17q-1.54,2.49-2.87,5l-0.65,1.23-0.16.31-0.25.46-0.5.91q-1,1.81-1.88,3.57a80.29,80.29,0,0,0-5.43,12.95c-3.4,3.79-5.23,5.23-6.11,5.27-7.08,13.15-19.3,33.83-29.08,51.42,11.11,1.94,21.6,3.66,30.44,4.84s16,1.84,20.63,1.7c1,2.56,4.65,5,10.39,7.44a162.79,162.79,0,0,0,22.16,6.9c12,3.09,26.6,5.32,40.67,7.37,28.15,4.11,54.06,7.52,51.93,15.65l16.8,3.66,91.52,19.93L890,997.52l-34.73-26.24,2.31-.38q-3.9-3.22-7.43-6l-2.65-2.08-1.62-1.21a69.21,69.21,0,0,0-6.14-4,96.28,96.28,0,0,0-12.12-5.75c0.18-2.1.1-4.1,0.23-6.39,2.4-2.35,3.34-2.5,3.86-2.11s0.59,1.34,1,1.54l7.33-8.33,1.49-1.72c0.53-.62.77-0.86,1.72-2.08l4.47-5.75c5.63-7.34,10-13.45,13.89-19.54,7.79-12.18,13.72-24.3,24.22-46l7.32-.82a31.82,31.82,0,0,1,3.2-5.38c1.16-1.59,2.71-3.43,4.49-5.39,3.57-3.95,7.91-8.26,12-12.49,4.79,6,9.33,11.64,14,16.55l1.79,1.83,2.38,2.34q3.82,3.74,7.72,7.36c5.2,4.82,10.49,9.43,15.83,13.72-0.83.05-2.39,0-6-2.62,14,11.5,27.8,26.08,41.06,41.07,3.32,3.75,6.6,7.52,9.85,11.27l0.61,0.7c0.18,0.21.47,0.54,0.5,0.59l0.49,0.67,0.94,1.32,1.77,2.53c2.27,3.27,4.12,6.05,6,8.47-4.28,3.68-7,6.53-8.73,10q-0.32.66-.6,1.35l-0.26.7-0.12.36,0,0.09-0.11.18-0.22.36a53.11,53.11,0,0,0-3,5.55A27.38,27.38,0,0,0,993.86,972l-24.77,33.4c37.77-37.82.82,11.7,18.28-2-13.56,16.09-41.61,35.42-24.65,15.93l3.49-2.26c-1-14-48.21,45.79-52.35,39.91-25.62,27.45-51.58,54.1-77.47,80.26l-38.71,38.92-4.81,4.83-1.2,1.21-0.43.42-0.31.3-1.25,1.18-4.87,4.62-9.21,8.72c-4.71-5.6-9.13-10.83-13.4-15.79l-0.91-1-1.78-2-3.57-4-7.13-7.88-14.28-15.63,1.82,13.79-23-25.48c-4.76-7.88-3.62-13.15,12.81,5-5.43-12.55-30.77-27.51-32.52-26.84-30.26-37.37,19.63,7.35,9.75-3.56l-14-14.24,2.37,3.94c-13.43-9.63-17-8.31-36.72-30.16-11.5-14.76-2.87-10.38-7.63-16,0.46-.36-1-2.36-7.48-8.41L611,1017.05l7.12,17c-15.35-11.92-27.45-30-19.13-10.51a44.59,44.59,0,0,0-2.68-5.33l-0.89-1.5-0.47-.77a3,3,0,0,1-.19-0.33l-0.15-.29q-0.61-1.16-1.29-2.35a110.14,110.14,0,0,0-6.5-9.86q2.26-5.81,4.27-11.92c0.51-1.41,1.76-5.67,2.76-9l3.11-10.73C601,957,605,941.94,608.75,928c7.41-27.89,13.54-51.49,16.68-57.92,2.57-27.14,9.6-52.71,18.75-84.26-3.42,7.53-11.59,10.38-3.32-16.73,11.51,13.86,19.77-48.39,36-67.71-12.15,17.91,19.43-78.19,1.38-49.82,7.35-22.5,5.7.06,13.75-16.34,9.23-55.8,36.08-118.7,52.45-186.32-1.59-1.56-7.49,8.91-6.36-6.24l1.37-2.38,0.69-1.19a2.36,2.36,0,0,1,.3-0.45l0.28-.35q1.1-1.37,2.15-2.58a48.67,48.67,0,0,1,4-4.13,61.31,61.31,0,0,1,9-.69,5,5,0,0,0,.39-0.37l0.09-.1,0.21-.17,0.45-.37c0.58-.5,1.1-1,1.58-1.49a24.32,24.32,0,0,0,2.43-3c1.39-2,2.45-4,3.94-5.95,3-3.94,7.66-7.79,20.15-11.39-3.88.44-9.67,1.07-2.1-4.22,33-16.9,65.34-35.7,97.53-55.25,16.09-9.78,32.14-19.74,48.21-29.75l6-3.75,5-3.12,7-4.48,14.41-9.09q3.28,6.18,6.56,12.55l3.25,6.38,3.63,7.25Q985.4,346,995.54,367.72c13.47,29,25.94,58.32,36.69,88.35-2.58-9.2-2.37-11.06-.69-9a43.1,43.1,0,0,1,3.46,5.52c0.71,1.26,1.46,2.66,2.25,4.14l1.59,3a4,4,0,0,1-.18-1.39,1.84,1.84,0,0,1,.11-0.5c0-.08.06-0.14,0.1-0.21a1.38,1.38,0,0,1,.08-0.27c0.26-.65,1-0.66,1.8-0.62,1.5-.16,3.56.29,4.49-0.77q1.11,3.78,2,7.2-1.32,3.77-2.58,7.16l-0.31.84c-0.05.15-.1,0.25-0.16,0.44l-0.2.7-0.8,2.81-1.6,5.61-6.41,22.45c5.58,11.54-9,61.46-3,68.5l1.55-18.32c4.4,25.37,23.25-31,33.12-25.82-1.55-8.68.15-18.49,3.07-29.27,1.46-5.39,3.23-11,5-16.85l1.37-4.42c0.06-.2.11-0.34,0.18-0.59l0.2-.77,0.41-1.55,0.82-3.15c1.09-4.24,2.19-8.65,3.24-13.19-2.15-5.22-4.51-10.62-7.06-16.09l-1.57-3.35-1.39-2.86q-1.43-2.86-3-5.67a105.27,105.27,0,0,0-15.53-21.31c-2.57-9.79,6.86,6,6.63.15-9.18-8.08-16.24-19.87-26-43.44l2.3,2.05c-10.89-20.59-19.29-37.59-26.88-53.75l-14.81-31.48-17.33-37.17c-11.88,6.52-25,13.76-40,22.12L925,273.36l-6.07,3.41-1.55.87-1.09.6-2.06,1.12-17.42,9.56,7.78,1.39c-15.12,8.31-19.08,8.78-26.67,11.83-12.87,17,41.71-24.62,30.77-7.85C883.64,297,804.48,356.94,785,354.6c-22.76,13.64,9.77,1.15-13,14.78l-7.71.84-3.57,7.06c-15.25,8.38-24.87,9.42-26.85,7.39,3.78-1.9,9.87-6.85,13.62-9.39a123.67,123.67,0,0,0-16.08,8l-2.13,1.25-3.29,2-7.17,4.39c-4.77,2.95-9.51,5.93-14.08,8.85l-4.37,18.15-2,8.24-0.39,1.67L697.84,429l-0.49,2.23c-1.27,5.78-2.32,10.15-3.19,12.08l4.31-12,0.8-2.24,0.39-1.1,0.55-1.67,2-6.21,2-6-7.9,32.28q-3.46,13.8-7.23,28l-15.45,57.49c-10.32,38.53-20.13,76.89-26.09,111.5l3.76-4.48c-9.61,52.74-13.82,40.58-27.16,97.72v-2.21c-0.71,12-3.62,27.42-8.1,42.83,1.1-15-12.7,25.42-10.69,5.84-10.46,57.17-3.8,28.65-5,68l-6.26,7.44c0.15,13.55,1.75,15.11-4.91,43.65,2.92-24.1-10.89,16.41-8.31-10.77-11.74,27-15.76,48.8-18.89,66.73-0.78,4.48-1.51,8.73-2.28,12.75-0.39,2-.79,4-1.22,5.88l-0.66,2.83-1,3.74a150.23,150.23,0,0,1-11.49,30.08c0.91,1.72,1.76,3.49,2.57,5.33,7.92,5.35,10.58,5.91,10.52,4.18s-3-5.92-7.1-11c1.8-5.3,3.65-11.41,5.39-17.46l2.51-8.89,2-7.2c2-7.26,3.18-11.46,2.62-6.57,3-5,3.81-1.29,3.28,6.08-0.07.92-.15,1.9-0.26,2.92l-0.17,1.57-0.28,1.94c-0.4,2.64-.87,5.42-1.39,8.23-1,5.64-2.3,11.46-3.68,16.91,2.79,2.9,5.29,5.65,7.39,8.17a74.66,74.66,0,0,1,9.6,13.81c2.28,4.46,4.44,9.42,7.24,15,5.61,11.26,13.79,25.2,30.67,43.22-3.3-3.64-4.16-3.3-7.45-6.93,10.47,15.5,27.5,23.88,39.5,43.68C661.9,1131,668,1148.21,676.87,1145l-32.31-31.82c19.15,17.27,43,28,68.17,62.35-3.53-1.22-13.79-8.87-20.62-14.34,6.54,10.82,17.45,16.3,24.25,27.49-8.87,3.25-38.85-39.05-62.44-54.69,6.34,12.23,40,33.85,23.72,30.13,11.16,3.2,19.16,12.37,28.05,23,4.45,5.33,9.12,11,14.52,16.53q2,2.07,4.2,4.09,1.09,1,2.22,2l1.14,1c0.41,0.36.68,0.55,1.33,1.15a166.35,166.35,0,0,0,14,11.45s-1.23.59-2.52,1.12-2.61,1-2.61,1c3.08,2.72,7.84,6.63,12.92,11.08a192.1,192.1,0,0,1,15.5,14.89s-4.74-2.62-10-5.8-11-6.83-11-6.83A191.48,191.48,0,0,1,760.88,1253c4.91,5,9.67,10.34,14.48,16,4.88-4.72,9.8-9.22,14.84-13.79s10.18-9.19,15.38-14,10.47-9.9,15.63-15.21c2.58-2.65,5.13-5.37,7.62-8.13l1.1-1.28,1-1.26q1-1.27,2-2.59l-7.6,8c-3.17,3.31-6,6.18-8.41,8.64-4.89,4.94-8.39,8.28-10.87,10.45-5,4.33-5.85,3.95-5.74,2.32s1.23-4.5.64-5.54-2.8-.32-8.86,4.72c34-41.1,37.86-40.27,49.09-46.39,10.19-5,21.48-10.38,46.32-38.56-6.44,7.9-28.46,25.62-19.32,12.39,10.59-9.66,25-22,33-26.52,33.33-37-9.15,1.87,3-15.74,16.25-8,14.87-19.55,28.35-36.81l4,3.53c41.36-38.91,2.26-18.52,40.27-52.84l-9.45,20.74,16.87-20.67,0.63,8.14c16.6-24.13,23.62-29.9,44.31-49.38-3.62,1.12-4.73-1.21-2.81-6.11a33,33,0,0,1,2-4.15q0.65-1.15,1.46-2.41l0.84-1.29,0.22-.33,0.33-.45,0.7-.92c3.81-5,8.56-10.59,14.51-17,4.77-3.94,7.09-5.4,8.25-5.75s1.18,0.35,1.54.54,1.08-.18,3.73-2.79,7.27-7.5,15.29-16.24L1073,940l3.53,2.28a58.81,58.81,0,0,1-8.72,14.61,90.25,90.25,0,0,1-8.66,9.3,124.61,124.61,0,0,1-12.43,10.2c-0.06,1.33-1.48,4-3,6.86s-3.13,5.74-3.43,7.31c7.47-6.28,15.85-14.43,24.11-23s16.38-17.42,23.61-25.47c-9.78-9.42-18.52-17.66-24.28-23.44,5.71,6,12.42,13.21,15,16.88l-10.78-9.24-22.64-19.24-11.48-9.66-6.73-5.11-6.49-4.91c-4.3-7.17,1.37-3.72,7-.3-7.77-7-14.6-10.43-25.74-21,5.86-.21,8.35-4,25.11,10l-38-31.53c-1-3.65-14.1-21.55-8.49-18.13q-2.1-2.56-4.54-5.1-1.22-1.27-2.51-2.55l-2.82-2.72c-6.55-6.36-13.55-12.84-20.69-19.29s-14.42-12.88-21.66-19.27-14.44-12.73-21.54-19.14c-6.49,10-12.89,19.64-19.33,28.83s-12.93,17.95-19.74,26.38A61.94,61.94,0,0,1,864,820.7c-0.91,1.59-2,3.42-3.3,5.51l-2.1,3.35-0.28.45-0.19.31-0.34.57-0.72,1.2c-10.32,13.49-21,25.56-31.35,38.78-5.2,6.61-10.33,13.5-15.34,21-2.5,3.75-5,7.65-7.41,11.74l-0.46.77-0.23.39-0.41.64L800.22,908l-3.26,5.2q-3.24,5.22-6.37,10.52l-4.74,4.51c-2.88,2.75-6.79,6.53-10.84,10.5s-8.22,8.11-11.42,11.3l-5.38,5.4c-1.94,2.88-3.47,5.22-4.6,7.05,6.43,4.41,8.73,5.35,9.07,4.6s-1.25-3.15-2.71-5.51c3.57-3.22,7.15-6.37,9-7.23s2.08,0.53-.87,6.06c4.86,2.94,12.34,8,22.94,15.7,12,8.56,18.46,13.73,22.07,17.22s4.19,5.17,3.77,6.25-1.92,1.51-2.34,2.6a2.68,2.68,0,0,0,.52,2.34c0.15,0.26.39,0.59,0.57,0.85a7,7,0,0,0,.41.69,13.54,13.54,0,0,0,1.32,1.63c11.19,5.46,28.13,13.18,45,25.28l20.55-43a151.54,151.54,0,0,1-32.31-9.8C862,981.27,870.35,984.4,880.76,986.24ZM848,804c-3.17,6.93-8.45,21.4-14.07,24.32C833.48,817.77,839.53,813.79,848,804ZM1180.8,918.35c-5-3.13-9.92-10.29-14.73-19A112.29,112.29,0,0,1,1180.8,918.35ZM492.09,636.15a5.53,5.53,0,0,0-.06.84C483.85,651.82,486.83,646.59,492.09,636.15Zm15.14-31.52c0.62-3.53-.16-3.58-1.4-2.48,0.34,2.76-2.49,10.07-6.17,18.21C501.88,618.57,504.45,614.74,507.23,604.63Zm136.09,451.49,3.6,5.92C635.37,1051.85,639.3,1054.06,643.32,1056.13Z" transform="translate(-339.52 -172.98)"/>
      <path class="cls-2" d="M1131.84,872a5.38,5.38,0,0,1,.1-4.32C1129.35,866,1128.52,866.66,1131.84,872Z" transform="translate(-339.52 -172.98)"/>
      <path class="cls-2" d="M866.37,815.21c0.43-.52.81-1.07,1.23-1.59a6.79,6.79,0,0,0,.57-2.44Z" transform="translate(-339.52 -172.98)"/>
      <path class="cls-2" d="M484.58,1073.17c4.38,5.74,6.43,9.32,7.53,11.95C493.32,1084.51,491.88,1081.38,484.58,1073.17Z" transform="translate(-339.52 -172.98)"/>
      <path class="cls-2" d="M567.76,429.67l-7,21.26c3.78-10.13,6.3-13.28,9.12-18C568.49,432.9,565.24,436.19,567.76,429.67Z" transform="translate(-339.52 -172.98)"/>
      <path class="cls-2" d="M715.62,308.07c2.81-1.79,6.43-2.57,9.2-4.35l-1.72-2C710.18,306.92,701.83,312.29,715.62,308.07Z" transform="translate(-339.52 -172.98)"/>
      <path class="cls-2" d="M591.83,417c4.81,0,8.62-13.56,13.69-28.39-0.34.88-.63,1.72-1,2.57C600.42,384.61,596.11,400.86,591.83,417Z" transform="translate(-339.52 -172.98)"/>
      <path class="cls-2" d="M606.73,385.22c1.61-4.56,3.34-9.17,5.29-13.47C610.38,369.12,609.35,377,606.73,385.22Z" transform="translate(-339.52 -172.98)"/>
      <path class="cls-2" d="M521,562.45c3.83-6.46-3.56-6.45-.31-9.67C518.48,543,508.6,601.28,521,562.45Z" transform="translate(-339.52 -172.98)"/>
      <polygon class="cls-2" points="270.69 237.78 263.48 240.94 264.34 250.73 270.69 237.78"/>
      <path class="cls-2" d="M560.38,524l10.74-22.64c-1,0-.31-3.14.76-6.92C566,508.64,558.65,523.91,560.38,524Z" transform="translate(-339.52 -172.98)"/>
      <path class="cls-2" d="M571.88,494.41c3.09-7.41,5.82-14.55,6.65-19C577,479.43,573.65,488.18,571.88,494.41Z" transform="translate(-339.52 -172.98)"/>
      <polygon class="cls-2" points="259.48 270.13 255.66 276.57 248.7 292.81 259.48 270.13"/>
      <path class="cls-2" d="M459.2,773.15l-8.71,25.92c0.72,3.28,4.56-3.19,7.65-12.9C459.35,779.61,462.45,769.94,459.2,773.15Z" transform="translate(-339.52 -172.98)"/>
      <path class="cls-2" d="M504,702.14c-3.81,6.43-5.14,6.43-8.37,9.62l6,3.31Z" transform="translate(-339.52 -172.98)"/>
      <path class="cls-2" d="M475.78,776.63c0.75,3.23-9.72,38.8,2.78,6.52C477.85,779.88,486.57,753.92,475.78,776.63Z" transform="translate(-339.52 -172.98)"/>
      <polygon class="cls-2" points="160.47 943.73 155.63 938.75 148.18 947.17 160.47 943.73"/>
      <path class="cls-2" d="M767.23,1360.18l-0.43-.77a2.43,2.43,0,0,0-.16-0.21l-0.21-.26-0.42-.5-0.8-.95c-1-1.22-2-2.27-2.84-3.17a33.44,33.44,0,0,0-4.14-3.83c-2.19-1.63-3.4-1.68-4.52-1.67-2.25,0-4.17.26-13-11.51-7.15-3.7,14.43,19.24,7.42,15.16,3.86,3.07,7.13,5.9,9.84,8.24,1.36,1.17,2.58,2.22,3.66,3.12l0.2,0.17a0.73,0.73,0,0,0,.12.08l0.2,0.12,0.39,0.21a5.42,5.42,0,0,0,.71.3,1.7,1.7,0,0,0,2.13-.59A19.76,19.76,0,0,0,767.23,1360.18Z" transform="translate(-339.52 -172.98)"/>
      <path class="cls-2" d="M748.12,1352.48c-2.47-2-5.14-4-8.08-6.08A69.59,69.59,0,0,0,748.12,1352.48Z" transform="translate(-339.52 -172.98)"/>
      <polygon class="cls-2" points="684.07 367.57 678.59 387.78 684.36 375.08 684.07 367.57"/>
      <path class="cls-2" d="M1025.71,581.29l-7.8,3.76,4.48,13.33C1022.79,593.68,1023.57,584.57,1025.71,581.29Z" transform="translate(-339.52 -172.98)"/>
      <path class="cls-2" d="M891.49,763.28L890.91,761c-3.31,1.69-6.07,5.71-11.63,13.73Z" transform="translate(-339.52 -172.98)"/>
      <path class="cls-2" d="M763.5,953.11l-0.8-.34a44.41,44.41,0,0,0-3.85,2.42,31.13,31.13,0,0,0-3.18,2.57s1.8-1.2,3.77-2.36S763.5,953.11,763.5,953.11Z" transform="translate(-339.52 -172.98)"/>
      <path class="cls-2" d="M785.26,994.32c7.41,5.95,15.86,12.16,24.18,18.27l3.39,2.37,3.18,2.26c2.09,1.51,4.11,3,6,4.59a80,80,0,0,1-10.78-9l-0.54-.54-0.27-.27-0.53-.48-2.06-1.87-3.79-3.5-6.31-5.94c-3.67-3.45-6.33-5.84-8.32-6.92S786.07,992.4,785.26,994.32Z" transform="translate(-339.52 -172.98)"/>
    </g>
  </g>
</svg>
