<svg id="_9" data-name="9" xmlns="http://www.w3.org/2000/svg" xmlns:xlink="http://www.w3.org/1999/xlink" viewBox="0 0 989.83 1274.52">
  <defs>
    <style>
      .cls-1 {
        fill: url(#linear-gradient);
      }

      .cls-2 {
        fill: #ff9b20;
      }
    </style>
    <linearGradient id="linear-gradient" x1="498.86" y1="1243.51" x2="498.86" y2="4.1" gradientUnits="userSpaceOnUse">
      <stop offset="0" stop-color="#c44600"/>
      <stop offset="1" stop-color="#fb823b"/>
    </linearGradient>
  </defs>
  <title>number9</title>
  <g>
    <polygon class="cls-1" points="479.2 416.22 665.1 438.71 440.82 829.39 137.93 425.31 602.75 4.1 958.79 416.95 682.77 1104.38 305.18 1243.51 38.92 909.57 300.13 825.75 185.59 933.68 356.8 1098.76 639.4 959.85 792.52 421.69 602.29 128.53 314.42 425.75 436.77 639.72 569.28 478.37 479.2 416.22"/>
    <g>
      <path class="cls-2" d="M785,627.48c-9.86-1.6-6.86,3.41-8.44,4.05C793.22,632.53,784.69,626.25,785,627.48Z" transform="translate(-301.14 -183.73)"/>
      <path class="cls-2" d="M930.86,634.6l-2.06.7-2,.71q7-.83,15.38-1.5-0.05,1.37-.21,2.92l0.88-3.25Q936.54,634.34,930.86,634.6Z" transform="translate(-301.14 -183.73)"/>
      <path class="cls-2" d="M882.64,735.11c7-4.36,13.7-16.61,20.62-30.58,3.46-7,7-14.4,10.65-21.46,1.83-3.53,3.7-7,5.61-10.24l1.44-2.41c0.34-.54.64-1,1-1.5,0.66-1,1.34-1.9,2.06-2.81l1.62-1,1.67-1.1a28.56,28.56,0,0,0-1.31-4.08,17.88,17.88,0,0,0-1.77-3.28c-1,2-2,4-3,6.21l-1.54,3.35-0.79,1.74-0.4.88-0.73,1.46-12.32,24.47C897.32,710.75,889.44,725.48,882.64,735.11Z" transform="translate(-301.14 -183.73)"/>
      <path class="cls-2" d="M827,797.88c5.17-2.88-6.57,16.71,10.36-16.13-1.21,1.44-1.65,1.81-2.4,2.62C833.38,787.27,831.09,791.23,827,797.88Z" transform="translate(-301.14 -183.73)"/>
      <path class="cls-2" d="M835,784.37c7.88-14.18-7.5,7.93,0,0h0Z" transform="translate(-301.14 -183.73)"/>
      <path class="cls-2" d="M799.22,850.19l8.27-19.88c-3.78,3-13.6,19.26-11.23,12.48C786.65,862.54,790.45,859.52,799.22,850.19Z" transform="translate(-301.14 -183.73)"/>
      <path class="cls-2" d="M794.11,870.61l4.51-10.18C797,861.74,795.31,864.15,794.11,870.61Z" transform="translate(-301.14 -183.73)"/>
      <path class="cls-2" d="M808.2,838.86l-9.58,21.57c2.64-2.06,5-1.07,4.6-9.78C804.28,853.47,804.65,848.33,808.2,838.86Z" transform="translate(-301.14 -183.73)"/>
      <path class="cls-2" d="M815.85,827.93c7.45-9.54,16.09-22.43,7.77-2.48C843,789.46,835.25,791.94,815.85,827.93Z" transform="translate(-301.14 -183.73)"/>
      <path class="cls-2" d="M885.77,746l10-12.74,4.61-13.33C898,726.55,883.14,745.61,885.77,746Z" transform="translate(-301.14 -183.73)"/>
      <path class="cls-2" d="M741,943.45a6.43,6.43,0,0,0,2.08,2.65c0.93,0.74,2.06,1.23,2.89,1.95,0,0,.32-1.52.54-2.88s0.36-2.57.36-2.57a20,20,0,0,1-3.23,1.94A2,2,0,0,1,741,943.45Z" transform="translate(-301.14 -183.73)"/>
      <path class="cls-2" d="M746,948s-0.46,2.25-1.15,4.88-1.54,5.57-1.54,5.57c2.1-3.32,3.21-5.77,3.51-7.36A2.92,2.92,0,0,0,746,948Z" transform="translate(-301.14 -183.73)"/>
      <polygon class="cls-2" points="498.63 694.52 512.71 657.89 494.98 701.05 498.63 694.52"/>
      <path class="cls-2" d="M732.92,941.5a6.58,6.58,0,0,0,1.7-1,6.76,6.76,0,0,0,1.33-1.45,5.14,5.14,0,0,1-.61.7,5.31,5.31,0,0,1-1.69,1.1,7,7,0,0,1-2.15.48,9.28,9.28,0,0,1-1.13,0,11.06,11.06,0,0,0,1.35.16A7.38,7.38,0,0,0,732.92,941.5Z" transform="translate(-301.14 -183.73)"/>
      <path class="cls-2" d="M702.08,901.47c8.5,6-3.81-14.12,4-6.92-10.2-12.66-20.72-22.11-30.2-30.62C685,873.73,693.2,885.26,702.08,901.47Z" transform="translate(-301.14 -183.73)"/>
      <path class="cls-2" d="M660.47,849.31c4.59,4.85,9.81,9.52,15.46,14.63A143.55,143.55,0,0,0,660.47,849.31Z" transform="translate(-301.14 -183.73)"/>
      <path class="cls-2" d="M734.95,958.94c-0.25-2-.61-6.9-2.13-10.79,0,0-.14,1.78-0.1,3.78s0.21,4.19.21,4.19Z" transform="translate(-301.14 -183.73)"/>
      <path class="cls-2" d="M733,956.41l0-.29c-2.18-3.08-3.63-5.19-4.24-6.1Z" transform="translate(-301.14 -183.73)"/>
      <path class="cls-2" d="M735.46,959.66l-0.51-.71C735.07,959.89,735.19,960.29,735.46,959.66Z" transform="translate(-301.14 -183.73)"/>
      <path class="cls-2" d="M765.27,929.81c-1.16,3.33-2.77,7.49-4.27,11.5-0.75,2-1.47,4-2.09,5.79l-0.23.67-0.11.33a1.36,1.36,0,0,0-.08.27l-0.13.79c-0.08.52-.15,1-0.2,1.48-0.18,1.85,0,3.21,1,3.2a4.27,4.27,0,0,0,2.25-1.21,23.46,23.46,0,0,0,1.77-1.66c0.86-1,1.84-2.22,2.93-3.61C768.26,937.13,758.31,949.89,765.27,929.81Z" transform="translate(-301.14 -183.73)"/>
      <path class="cls-2" d="M738.28,973.22l1.37,2.15,5.55-7.89c-0.29-.74-0.87-1.27-1.2-2.24a8.2,8.2,0,0,1,.06-4.52q-1.88,6-4.49,13.32Z" transform="translate(-301.14 -183.73)"/>
      <path class="cls-2" d="M734.37,970.49s1,0.77,2,1.45,1.89,1.27,1.89,1.27l-2.79-4.37s-0.26.44-.54,0.85S734.37,970.49,734.37,970.49Z" transform="translate(-301.14 -183.73)"/>
      <path class="cls-2" d="M682.71,886.32C674.58,878.89,667.33,869.5,659,859c7.87,12,16.36,24.2,24.82,35.46C686.24,895.16,692.07,898.52,682.71,886.32Z" transform="translate(-301.14 -183.73)"/>
      <path class="cls-2" d="M713.64,929.76c-0.54-.53-1.15-1.27-1.66-1.77C712.55,929.42,713.16,930.44,713.64,929.76Z" transform="translate(-301.14 -183.73)"/>
      <path class="cls-2" d="M580,753.53c0.24,0.74.35,1.45,0.59,2.2a8.55,8.55,0,0,1,.95-0.09Z" transform="translate(-301.14 -183.73)"/>
      <path class="cls-2" d="M684.61,896.91A67.49,67.49,0,0,0,700,914.6c-5.21-6.17-10.58-12.83-16.1-20.14C682.79,894.14,682.34,894.27,684.61,896.91Z" transform="translate(-301.14 -183.73)"/>
      <path class="cls-2" d="M636.66,821.21c2.58,5.09,5.73,10.68,9.13,16.49C643.69,832.42,638.83,822.07,636.66,821.21Z" transform="translate(-301.14 -183.73)"/>
      <path class="cls-2" d="M710.85,924.31c0.38,0.39.74,0.73,1.14,1.17C710.66,922,710.54,922.69,710.85,924.31Z" transform="translate(-301.14 -183.73)"/>
      <path class="cls-2" d="M710.85,924.31A121.25,121.25,0,0,0,700,914.6c4.24,5,8.3,9.59,12,13.4A20.34,20.34,0,0,1,710.85,924.31Z" transform="translate(-301.14 -183.73)"/>
      <path class="cls-2" d="M531.94,739.68c4.63-1.09,24.86,19.18,35.79,41.56,17.06,17.31,19.08-3.88,12.88-25.51-2,.54-3.37,1.59-20.3-16.69,3.3,8.37,28.53,47.34,12.83,33-21.48-24.92-14.9-22.45-22.63-36.6,3.8,14.11-31.37-28.68-33.47-18.17l19.51,21.35C535.9,739.77,528.05,732.6,531.94,739.68Z" transform="translate(-301.14 -183.73)"/>
      <path class="cls-2" d="M608.58,793.78l6.55,7.84c-6.37-9.76-10-17.46-16.42-31.77-11.88-12.3-15.29-14.15-17.15-14.21l29.63,40.54Z" transform="translate(-301.14 -183.73)"/>
      <path class="cls-2" d="M642.61,838.24c-8.57-3.53-24.87-21.91-20-6.84,18.21,23.75,15.75,14.4,28.12,27.48-29.91-37.94,10.43,9.52-8.35-20C648.73,846,654.05,852.66,659,859c-4.76-7.3-9.21-14.44-13.25-21.29,0.18,0.42.3,0.71,0.43,1.06l0.14,0.18s-0.06,0-.08,0c0.77,2,.89,2.79-0.24.71a8.69,8.69,0,0,1-.68-0.75,5.57,5.57,0,0,1-2.73-.68c-7.61-11.78-.34-2.49,2.73.68a3,3,0,0,0,.93,0,1.5,1.5,0,0,0-.06-0.18l-31.09-37.15C620.74,810.21,628.54,820.38,642.61,838.24Z" transform="translate(-301.14 -183.73)"/>
      <path class="cls-2" d="M762.49,974.11c-1,.86-1.14.47-1.4,0.23C760,977.45,759.6,978.9,762.49,974.11Z" transform="translate(-301.14 -183.73)"/>
      <path class="cls-2" d="M751.86,986.89c0.66-1.81,1.11-3.87,2-6.41a43.24,43.24,0,0,1,4.74-9.47c2.52-3,2.93-2.54,2.77-1.09s-0.86,3.88-.28,4.43c1.24-3.43,3.41-8.91,3.74-11.46s-1.11-2.27-6.17,4.22l-1,3a81.51,81.51,0,0,1-5.94,7.25,51.18,51.18,0,0,1-5.47,5.19c-3.25,2.61-5.41,3.24-6,2.62-0.3-.87-0.35-1.27-0.18-1.2l0.14,0.56c1.11,2.25,2.31,3.75,4,4.33S748.24,989.06,751.86,986.89Z" transform="translate(-301.14 -183.73)"/>
      <path class="cls-2" d="M699.27,933.29l-26-30.84,9,18.88,1.35-2.31C696.59,937.93,696,932.15,699.27,933.29Z" transform="translate(-301.14 -183.73)"/>
      <polygon class="cls-2" points="278.01 564.7 285.22 565.97 265.6 551.59 278.01 564.7"/>
      <polygon class="cls-2" points="246.13 523.17 250.77 522.11 240.39 512.62 246.13 523.17"/>
      <path class="cls-2" d="M398.14,1051.08l11.15-4C404,1048.8,400.58,1050.05,398.14,1051.08Z" transform="translate(-301.14 -183.73)"/>
      <path class="cls-2" d="M315.4,1104.74l4.95,2.76C314.89,1102.57,312,1100.3,315.4,1104.74Z" transform="translate(-301.14 -183.73)"/>
      <path class="cls-2" d="M1219.62,595.89l1,2,0.5,1,0.25,0.49a1.49,1.49,0,0,1,.18.42c0,0.59,0,1.16,0,1.69a13.25,13.25,0,0,1-.39,2.81c-0.4,1.59-1,2.55-1.11,3.07-0.7.64-.41,0.89,1.51,0.62a43.81,43.81,0,0,0,5-1.71l0.68-.36a19.07,19.07,0,0,1-3.88-4,15.37,15.37,0,0,1-1.16-1.95l-0.24-.5-0.06-.13-0.21-.3-0.44-.64Z" transform="translate(-301.14 -183.73)"/>
      <path class="cls-2" d="M881.28,1327.1l5.23-.39c3.37-3,6.54-5.76,9.35-8.3C891.49,1321.06,886.5,1324,881.28,1327.1Z" transform="translate(-301.14 -183.73)"/>
      <path class="cls-2" d="M876.69,1349.84l-22.39,5A214.09,214.09,0,0,0,876.69,1349.84Z" transform="translate(-301.14 -183.73)"/>
      <path class="cls-2" d="M583.62,1167.51l13.31,6.09C581.36,1158.62,586.51,1167,583.62,1167.51Z" transform="translate(-301.14 -183.73)"/>
      <path class="cls-2" d="M747.81,364.53a357,357,0,0,0,29.44-22.79C762.13,351.75,748.65,358.41,747.81,364.53Z" transform="translate(-301.14 -183.73)"/>
      <path class="cls-2" d="M392,1097.92c2.61-1.2,3.65-2.26,2.93-3C391.52,1096.4,390.32,1097.35,392,1097.92Z" transform="translate(-301.14 -183.73)"/>
      <path class="cls-2" d="M809.08,312.87c-2.27,1.4-4.33,3-6.58,4.45a347.66,347.66,0,0,1-25.25,24.42C788.43,334.36,800.51,325.12,809.08,312.87Z" transform="translate(-301.14 -183.73)"/>
      <path class="cls-2" d="M686.32,575.58c-1,.74-2.12,1.73-3.08,2.36C683.44,578.66,684.65,577.46,686.32,575.58Z" transform="translate(-301.14 -183.73)"/>
      <path class="cls-2" d="M868.49,697.42c-2.16,2.87-5.14,6.62-8.46,10.74l-7.83,9.68a74.22,74.22,0,0,0,5-5.73l2.18-2.75,2.76-3.54Q865,702.07,868.49,697.42Z" transform="translate(-301.14 -183.73)"/>
      <path class="cls-2" d="M509.17,586c-8,7.69-1,1.57,0,0h0Z" transform="translate(-301.14 -183.73)"/>
      <path class="cls-2" d="M461.37,603.81c0.7-1.35,1-2.55,0-3.16A2.93,2.93,0,0,1,461.37,603.81Z" transform="translate(-301.14 -183.73)"/>
      <path class="cls-2" d="M871.09,216.6l0.73-.64C868.73,217.5,869.28,217.24,871.09,216.6Z" transform="translate(-301.14 -183.73)"/>
      <path class="cls-2" d="M495.33,595.58c3.48-2.37,7.37-5.23,11.47-8.49C504.85,588.36,501.35,590.92,495.33,595.58Z" transform="translate(-301.14 -183.73)"/>
      <path class="cls-2" d="M498.51,595.74c-3,2.41-5.29,4.34-7.5,6.17C490.5,603.45,491.76,603,498.51,595.74Z" transform="translate(-301.14 -183.73)"/>
      <path class="cls-2" d="M520.45,575.39c-4.65,4.32-9.19,8.13-13.65,11.7,1.84-1.22,2.69-1.64,2.36-1.12C511.53,583.73,514.87,580.57,520.45,575.39Z" transform="translate(-301.14 -183.73)"/>
      <path class="cls-2" d="M1019.61,812.89c0.34-.67.67-1.45,1.08-2.17C1021.85,799.41,1020.81,804.22,1019.61,812.89Z" transform="translate(-301.14 -183.73)"/>
      <path class="cls-2" d="M1184,849.3c0.15-.5.13-0.8,0.27-1.26l-0.78,1.46Z" transform="translate(-301.14 -183.73)"/>
      <path class="cls-2" d="M1172.43,887.63c0.82-18,5.09-26.66,11.05-38.13l-17.68,7.12Z" transform="translate(-301.14 -183.73)"/>
      <path class="cls-2" d="M596.71,998.32l-13.88,2.57-13.92,2.45c10.61-3.85,20.41-6.81,27.53-8.93l45.27-13.48L612.13,1021c-4.68,6.35-7.77,10.57-8.14,11.64s2-1,8.07-7.3c-0.17-.65.13-1.75,1-3.39l25.9-51L596,993.16c-7.75,4-33.57,10.38-57.69,16.49s-46.47,12.16-46.8,17l-9.27,1.33-9.28,1.28c5.16-1.22,5.8-2,10.91-3.2-18.18,2.08-24.12,5.4-31.07,9.79s-15,9.73-37.54,15.07c-15.84,3.39-27.32,4.44-17.15.17l-5.28,1.91-2.56.93-4.46,1.55-10,3.49-26.07,9.23c-1,.25-1.86.56-2.69,0.81l-2.27.67c-1.39.39-2.54,0.67-3.45,0.85-1.82.36-2.68,0.32-2.57,0s1.19-1.05,3.23-2c1-.46,2.28-1,3.77-1.56s3.41-1.05,5.46-1.62l-3.36,1c-0.55.17-1.14,0.32-1.66,0.52l-1.57.58-6.27,2.31-12.49,4.6-24.79,9.11,20.17,24.6-1-.52c5.38,4.88,13.33,12.46,20.77,19.56l18.83,18.08c0.64,1,1.2,1.92,1.62,2.63,0.29,0.55.52,1,.68,1.36a1.76,1.76,0,0,1,.32,1.19c-0.18.22-1.08-.6-2.17-1.68-3-3.17-7.22-8-6.4-5.45l4.81,5.13,0.55,0.58,0.28,0.3,0.21,0.21,0.85,0.84,1.84,1.81,4,3.94,10.87,10.73c2.34,6-1.15,4.73-6.8-.18A121.93,121.93,0,0,1,361,1157q-1.29-1.42-2.59-2.91l-1.3-1.5-0.65-.77-1-1.2c-2.64-3.22-5.25-6.5-7.73-9.72,0.87,2.58,1.81,5,2.79,7.38q0.74,1.75,1.5,3.4l0.77,1.63a12.13,12.13,0,0,1,.64,1.4,34,34,0,0,0,3.35,6.93c2.52,3.93,5.64,6.78,9.55,10.31,7.82,7.06,18.8,16.84,34.46,43.46l-19.34-21.22c4.89,19.72,21.23,35.29,37.29,63.9-2.63-7.73-30-59-6.58-35.57,4.9,8,12.11,17.85,25.53,29.87-4.05,3.44,7.78,16.19,21.55,33l-6.43,3.23c16.22,17.08,17.86,13.4,28.94,22.22,15.76,20.88,14.88,28.52,15.13,36.19,25.23,33.44-11.2-28.06,20.74,9.87a341.56,341.56,0,0,0,29.56,37.71c5.24,5.84,10.78,11.72,16.85,18l4.65,4.8,7,7.63,14.91,16.28c5.1,7.32,7.59,11.32,8.25,13,1.16,0,.84.47-0.36,1.28-1.22-.52-3.94-3-5.81-4.37s-2.89-1.72-.46,2.28l5.5,4.84q13.34-7.22,25.09-13.86c7.5-2.62,5.34,0,4.12,1.39,6.68-3,10-5,11.8-6.53a14.15,14.15,0,0,0,3.14-3.85c1.08-2.24,3.22-4.83,16.34-10.68,4.56-9.94,59.05-9.69,89.26-30.2,8.88-1.14-2.46,5.5,1,7.14,43.61-22.23,37.65-18.35,72.41-39.44l33.5-7.42c-25.27,3.68,2.52-13.22,27-27.7-9.2.67-17.07,1.19-22.21,1.95l40.56-19c5.46-.78,2.07,3-3.77,8.33,2.65-1.6,5.16-3.13,7.09-4.41,15.87-3.07,9.51,3.6.15,11.24-5.58.58-11.15,1.05-16.58,1.48-8.86,7.82-16.9,15.83-13.32,18.9a84.53,84.53,0,0,1,13.07-6.84c-2.3,2.09-3.67,3.7-2.18,3.9,1.68,0.17,5.51-2.9,11.73-7.11l12.23,3.85,1.23-3.77,56.47-15.58,6.17-3.75,1.53-.94,0.4-.24,0.59-.31,1.18-.63,4.63-2.48c6.09-3.28,11.84-6.48,17.31-9.58q2.16-8.87,4.09-17.21l1.9-8.23,0.22-1,0.14-.78,0.28-1.56,0.57-3.15c1.53-8.43,3.24-17.16,5.31-26.4a571.87,571.87,0,0,1,18.07-63.26c-0.79,17.41,7.4,6.78,13.39,10.15-13.44,14.1-16.29,48.78-30.45,80.12,7.39-16.35,8.94-11.48,8.28-6.83l16.74-59.3c4.66,3.36,8.73-10.52,16.83-24.51-14.73,7.12,10.21-45.12,16.36-69.51,4-.06,5.29,6.9-6.88,34.79,20.21-28.05,4.15-45.06,23-73-2.69,6.93-4.7,10.43-4,13.86,3.41-17.32,21.63-55.71,20.9-45.25l-2.69,6.9c19.59-45.27,56-139.26,50.06-149.57,1.31,0,8.06,10.2,8.7,13.67l3.57-93.37c4.57,10.19,33.41-10.3,22.39,29.35a215.42,215.42,0,0,0,18.67-47.47c-4,7-18.22,14.2-14.83,3.76,19.49-24.54,12.21-17.57,33.09-49.09-6.07,10.5-12.79-6.57-5.35-24,0.64,3.45,12.12,3.17,10.76,10.09l6.12-48.43c-2.33,11.77,9,5.84,16.14-2.66-4.08,3.64,15.42-37.8,19-49.94l-10.12,17.5a172.75,172.75,0,0,0,6.5-16.81c0.81-2.52,1.51-4.9,2.1-7.18l0.42-1.69,0.21-.85,0.32-1.15q0.63-2.27,1.16-4.4a144.17,144.17,0,0,0,4.22-27.12c-7.82-5.69-15-10.66-22.27-16.58l-2.73-2.28-2.66-2.29c-1.72-1.5-3.48-3.12-5.3-4.89-3.64-3.54-7.5-7.69-11.66-12.64,6.11,3.18,22.24,1.7,5.85-19.68-12.84-5.2-58.72-21.44-93-53.68l-3.12-9.16-26.57-24.49c21.82,10.7,78,45.11,106.27,66-10.86-17-.39-7-20.16-29.41-4.32-10.21,14.54,9,20.43,15.5L1174,450.82c-3.58,7.18-40.36-35.44-43.29-29.41l55.15,52.21c-3.59,7.14-44.42-19.38-75.63-57.55-6-11.42,16.09-1.5,17.29-3.89-6.1-3.18-34.23-32.25-35.82-36.86l16.65,13.25c-15.81-22.59-36.67-27.51-52.86-57.09-7.07-8.93-15-32-19.58-30.59,5.73,19.57-11.67,39.36-24.55,34.13-2.17-3.39-32.92-50.52-38.24-63.09-7.23-18.52,30.31,11,24.2-4.79-2,.8-10.63-5.41-14.05-8.15-6.5-10.18,8-.34-9.68-19.41-8.5,1.61-34-40.41-12.82-5.16a139.84,139.84,0,0,1-17.53-20.22l-0.81-1.12-0.41-.57-0.53-.71-2.3-3c-1.59-2.09-3.31-4.33-5.27-6.81-3.91-4.95-8.79-10.85-15.28-18.25,1.78,4.05.38,5.16-2.56,4.75s-7.37-2.27-11.91-4.49c-4.37,6.29-8.87,12.57-13.05,18.13s-8.08,10.47-11.68,14.4c0-1.26-1.31-1.58-3-1.38a25.35,25.35,0,0,0-5.28,1.45c-39,34.47-62,50.71-98.07,83.27-4.53,1.66-23.37,15.77-18.15,6.67-4.28,5.67-7.33,11.87-18.31,22.06-25.83,14.66,24.07-23.17,2.46-14.11,1.53,4.5-24.66,30.47-38.64,46.81,9.38,0.58,37.39-32.14,51.39-48.5,6.3,6.81-14.72,39-49.45,76.25-28.34,28.8-17,7.3-21.29,13C623.8,451.7,644.09,457.38,593,494.66c-22.47,12.38-8.73-8-15.7-7.4,22.85-23.73,39.9-31.09,56.24-46.22l-22.2,16.34C617.74,448.9,633,433.07,643,426.3c-19.07,10.12-95.53,85.2-142.14,120.82-6.37,8.44-18.27,22-10.39,18.07l13.15-13c15.8-7.88-21.36,28.26-2.52,14.19-7,8.36-14.27,17.38-22.48,26.67l-0.77.87c-0.15.16-.22,0.26-0.3,0.36l-0.24.3-1,1.19-1.91,2.32c-1.28,1.53-2.57,3-3.92,4.47a95.27,95.27,0,0,1-9.1,8.66c1.39,2,2.69,4.12,3.95,6.37a22.71,22.71,0,0,0-2.54,2.23,24.55,24.55,0,0,0-2.23,2.65c0.57-.31.11-2-0.91-4.24a50.1,50.1,0,0,0-4.48-7.61,28.28,28.28,0,0,0,6.07-6.62c-1,1.86-3.52,4-7,6.53,1.44,2.57,2.86,5.54,4.52,8.84s3.55,6.89,5.72,10.42c1.08,1.76,2.22,3.49,3.41,5.12l1,1.33,1.1,1.4q1.1,1.37,2.23,2.63a29.35,29.35,0,0,0,9.32,7.37l-5.47-11.2-2-4.11c-0.15-.31-0.34-0.68-0.45-0.93l-0.25-.65-0.44-1.17-0.84-2.34q1.17,1,2.36,2l0.59,0.49,0.3,0.24,0.16,0.13,0.22,0.22,1.77,1.73,7.35,7.1c5,4.83,10.22,9.87,15.4,15.16,10.36,10.58,20.63,22.18,29.06,35.2-3.12-15.27-4.89-5.25-11.85-27.53,1.84,10.54-10-5.36-20.93-20.07-2.74-3.68-5.44-7.28-7.85-10.38-1.21-1.55-2.35-3-3.39-4.21-0.52-.62-1-1.2-1.48-1.72l-0.68-.75c-0.1-.11-0.24-0.26-0.31-0.32l-0.15-.11c-0.8-.54-1.52-0.71-2.07-0.23a2.31,2.31,0,0,0-.63,1.27,6.77,6.77,0,0,0-.14,1.13,3.25,3.25,0,0,0,.24,1l0.43,1.35-0.39-1.39-0.2-.68a0.56,0.56,0,0,1,0-.26V625c0-.93,0-1.76-0.08-2.51a19.5,19.5,0,0,0-.58-3.83c-0.56-2.19-1.59-4.06-2.24-6a32.06,32.06,0,0,1,4.91-2.41,17.7,17.7,0,0,1,6-1.24c-1-.58-2.51-0.67-2.95-1.15-0.21-.25-0.14-0.61.44-1.23a11.45,11.45,0,0,1,1.24-1.1l1-.76,3.42-2.87a35,35,0,0,1,2.91-5.28c0.63-.49.86-0.65,1.41-1.05-0.44.28-.8,0.47-1.24,0.77,0.61-1,.64-1.13-0.45.29-2.62,1.71-5.06,3.2-7.13,4.31q-0.78.42-1.48,0.76a1.92,1.92,0,0,1-.32.14l-0.18,0-0.36,0a6.25,6.25,0,0,1-1.29-.06,6.55,6.55,0,0,1,.27-1.46l0.06-.19c0.05-.1.14-0.22,0.21-0.33l0.47-.69,1-1.44c1.44-2,3.18-4.11,5.12-6.37,3.88-4.52,8.56-9.49,13.32-14.43,9.52-9.88,19.35-19.62,23.64-25.3,12.14-9.57-3.06,6.23,4.77,2.33L544.57,537c4.85,2.27,35.87-21.42,10.9,5.11l24.37-21.79C596,509.43,616.32,492.47,627,480c12.14-9.56,25.19-30.21,17.83-18.32l35.94-36.7,1.18,0.59c37.91-33.51,71.68-76,120.53-108.22C814.29,305,826.3,292,848.36,273.92l7-.56c7.6-7.89,20.48-18.12,32-27.58l4.23-3.51,1-.86c0.32-.26.78-0.66,0.76-0.63l0.52-.36a11.82,11.82,0,0,0,1.73-1.46,6.81,6.81,0,0,0,1.84-4,12,12,0,0,0,3.4,2.93,16.84,16.84,0,0,0,2.55,5.28,11.49,11.49,0,0,0,.76.87l0.42,0.42,0.11,0.1,0.66,0.74,1.44,1.61c3.85,4.31,7.8,8.65,11.75,13,15.8,17.25,31.61,34,41.23,46.47l5.18-2.54c17.05,20.25,34.83,38.44,58,61.86l2.41-4.75c21.57,18.81,44.91,57.45,74.56,91.05-3.42-1.08-10.47-10-14.85-16.84,26.52,47.82,79.9,80.25,105.46,122.32a94.24,94.24,0,0,1,19.13,22.25,19.3,19.3,0,0,0-2.16-2.1c0.77,1,2,2.38,3.2,3.81,2.85,4.6,5.69,9.41,9,14.44a120.08,120.08,0,0,0-7.23-12.43c3.09,3.5,7.05,7.83,11.5,12.5l0.84,0.88c0.19,0.19.28,0.26,0.42,0.39L1226,598l1.73,1.52q1.8,1.55,3.86,3.23a19.66,19.66,0,0,1-2,1.72,20.32,20.32,0,0,1-2.25,1.44l0.23,0.21-0.18.73c-1,1.14-1.35,1.83-1.33,2.32a1.05,1.05,0,0,0,1.17.82c1.42,0.15,4-.56,6.85-2.36a64.75,64.75,0,0,0-.38,9.51c-1.18.07-2.6,1.58-3.73,3a27,27,0,0,0-3.05,5,107.19,107.19,0,0,0-4.72,12.81c-3,9.15-6.2,18.75-13.25,24.05,0.64,10.33-22.88,66-16.95,76.31-1.31,0-3.37,3.56-.66-3.42-6.75,14-13.5,27.9-16.22,41.76l-8.7,3.58-4.18,34.71c-11.45,17.51-16.84,24.51-14.05,3.68-10.92,48.62-12.08,38.15-20.34,79.92l-3.28-3.52c-5.42,13.94-8.9,38.3-15.61,45.32-20.15,28-62.73,153.16-101.87,230,18.11-10.68-20.2,34.9-12.24,41.76-4.68,3.51-10.73,14-8,.09a356.58,356.58,0,0,1-14.66,37.27l-3.44,7.63-1.65,3.67c-0.17.39-.18,0.38-0.25,0.52l-0.17.34-0.34.68a30.28,30.28,0,0,0-2.15,5.55,19.2,19.2,0,0,0-3.81,2.66c-0.64.56-1.3,1.2-2,1.93a2.22,2.22,0,0,1-.31.29l-0.67.44L956,1274q-1.35.91-2.71,1.89c-5.76-1.12,7.26-7.41,2.45-7.56-3.07,1.83-12.15,7.29-17.06,7.16s5.14-4.6,11.19-8.24c-41.82,16-42.84,26.29-42.86,35.64-22.72,3.95-33.14,8.41-46.52,19.47-8.4,0-21.8,1.78,3.94-8.81-14.83,5-91.14,29.1-90.2,36.25-5.22,0-20.7,7.07-24.29,9.26-33.09,11.74-36.21,12.21-68.32,24.76l9.36-2.23c-9.84,12.67-26.24,11.68-52,22.25l0.45-1.08-7.94,2.12-0.86.23-0.64.15-1.23.29-2.29.56c-2.9.72-5.24,1.34-7.22,1.91a62.87,62.87,0,0,0-8.49,3c-2.38-2.57-3.86-3.43-6.66-6.92a86.19,86.19,0,0,1-5.27-7.53c-0.79-1.34-2.94-4.48-5-7.63s-4.46-6.9-7.12-11.13l-2,6c-12.53,2.49-29.49-47.73-55.63-73.55l5.85,12.18c-15.46-13.16-22.66-53.18-34-69.71-1.95-4,5.53,4.4,9.89,8.71-27.42-45.15-9.63-1-35.23-30.53-1.57-8,13.2,1.34-2.64-19.64-5.81-12.11-57-52.05-73.75-84.54,2.68,8,5.33,15.89-7.66,3.06q-1-1.16-2-2.41l-1-1.26-0.59-.78c-0.78-1.05-1.53-2.18-2.26-3.33-1.46-2.31-2.8-4.74-4-7.08s-2.23-4.61-3.19-6.7-1.85-4-2.85-5.86a39.32,39.32,0,0,0,9.25-3.58,14.9,14.9,0,0,0,3-2.28,14.11,14.11,0,0,0,2.83-2.47c2.5,0,3.6.42,4.09,0.91,1.19-.52,2.66-1.1,4.33-1.74l2.67-1c0.14-.05.19-0.06,0.4-0.15l0.63-.28,1.28-.57,2.62-1.15,22.24-9.69c14.92-6.54,28.82-12.82,34.31-16.66,11.34,3.2,41.75-10.1,70.07-21.73s54.39-22,55.35-18.24L604,1018l-8.87-15-37.95,31.35,0.61-1.84c-16.56,12.89-27.31,22.09-34.93,29.68-3.82,3.79-6.86,7.16-9.5,10.34-1.32,1.59-2.54,3.13-3.71,4.65-1.68,2-3.33,4-4.87,5.93-5.41,4.07-6.71,4.41-6.51,3.49s1.88-3.06,2-3.67L487.73,1093c-1,.81-2,1.59-2.91,2.41l-2.55,2.44-4.91,4.72c-6.38,6.14-12.09,11.72-17.26,16.83,15.28,15.32,27.3,26.52,40.4,37.52l0.31,0.26,0.22,0.18,0.44,0.34,0.89,0.69,1.8,1.39,3.74,2.82c2.56,1.9,5.27,3.87,8.19,5.95,5.84,4.16,12.51,8.79,20.52,14.32l0,7.62c6.09,3.67,20.49,20.53,39.31,41.09,9.41,10.28,19.92,21.48,31,32.43q4.17,4.1,8.46,8.14l4.3,4,5.74,5.28c8.67,8,17.28,15.54,25.42,22.28-0.78.12-2.34,0.08-7.85-4.17,3.56,3,7.11,6.11,10.73,9.35,11.37-6.11,22.87-11.9,34.74-17.61l4.47-2.14,3.38-1.58,6-2.75q6.08-2.72,12.23-5.35c16.39-7,32.94-13.61,48.09-20,30.29-12.85,54.95-25,61.33-38.72l37.73-24c-52.29,24,3.88-11.51-18.8-4,19.78-11,55.11-20.42,30.62-7.24l-4.34,1c-2.3,6.9,14.14-.16,31.37-8.07,8.61-4,17.43-8.12,24.19-10.86,1.69-.68,3.25-1.28,4.66-1.76l2.37-.83c0.82-.28,1.59-0.53,2.29-0.73,2.8-.8,4.58-0.94,4.83-0.08l16.47-8.13,7.78-27.16,5.7-19.46q5.74-19.41,11.61-38.65,11.72-38.47,23.63-76.26c15.77-50.41,31.38-100,45.53-149l-11.08,9.54,10.56-35.44c4.45-8.82,9.62-10.8,2.08,14.47,8.18-12.09,8.43-43.6,7-44.8,17.26-48.79,3.5,22,8,6.79l5.31-20.85-2.23,4.41c1.61-17.67-1.32-20.11,7.73-50.5,7-18.85,7.59-8.54,10-16.05,0.55,0.2,1.53-2.29,3.54-11.58l13.41-44.62-11.21,16.18c2.64-20.72,12.31-42-.5-23.34,2.51-3.55,5.24-9,8.1-15.79q1.07-2.55,2.17-5.36l0.14-.35,0.16-.41,0.35-1,0.71-2,1.44-4.1c1.93-5.59,3.95-11.64,6-18.06-2.38-4-4.88-8.08-7.48-12.32l-7.61-12.3c-3.91-6.34-8-12.84-12.18-19.37-8.34-13.06-17-26.21-24.92-38.32-15.9-24.21-29.11-44.24-31.94-51-19.63-21.74-35.09-45.73-53.87-75.7,3.67,8.1.55,16.4-15.32-9.66,9.22,0.67,3-11.92-6.17-28L948.43,350l-0.91-1.58-0.46-.79-0.64-1.07-2.67-4.49c-3.58-6-7.2-12.24-10.67-18.46-6.95-12.43-13.34-25-17.84-36.79,2.63,6.09,2.49,7.35.73,5.74s-5.21-6.18-9.44-12.12c-11.68,13-28.39,30.68-38.64,42.61-5.12,6-8.56,10.44-9,12.26s2.14,1,8.38-3c-2.92,2.8-5.21,4.88-7,6.39-0.9.76-1.68,1.38-2.36,1.88q-0.51.37-.94,0.66a5,5,0,0,1-.68.37c-1.59.74-2.14,0.21-2.6-.5-0.93-1.43-1.53-3.61-9.49,2.12-38,47.48-95.54,93.31-146.24,148.43,0.58,2.19,11.43-4.76,2.32,8.78l-34.45,21.67c-9.61,11.28-1.45,17.55-25.07,32.28,3.82-1.61,9.55-4,3.09,3.56q-5.23,4.75-10.42,9.57l-5.18,4.84-2.58,2.43-3.54,3.44c-9.53,9.27-19.2,18.81-28.9,28.49,6.87,12.51,14,25.22,21.14,38l7.82,13.85,7.61,13.32c10.2,17.74,20.6,35.45,31.06,53.18l31.36,53.28,21.63,37.49c7.19,12.55,14.35,25.15,21.53,37.93,10.84-13,21.73-25.9,32.84-38.87l16.88-19.55,4.3-4.93,2.16-2.47,1.53-1.7,6.13-6.74c16.4-17.92,33.27-35.38,50.77-52.18-15.71,13.21-7.45,2.59,2.22-9.41-7,7.17-3.55-3.21-6.83-3.35l5.11-4.92,1.28-1.23,0.64-.62c0.21-.2.41-0.39,0.71-0.71l3.38-3.46,13.93-14.37q14.28-14.8,30-31.28L894,652.66c-12-3.84-31-16.83-49.81-29.7l-5.51-3.76L833.89,616c-3.14-2.08-6.13-4-8.85-5.6-5.44-3.2-9.8-5.14-12.13-4.63l17,10.18c-13.14-4.08-8.17,4.9-1.06,15.7,1.76,2.69,3.77,5.57,5.32,8.16a40,40,0,0,1,3.53,7c1.47,4.12.79,6.8-2.27,7.9,6.62,1.59,12.84,5.62,17.58,9.84-4,4-8.71,8.11-13.19,11.84l-6.53,5.39-3.05,2.55-1.46,1.25-0.71.62a10.68,10.68,0,0,0-.84.79C815.3,699,804,712.74,796.5,729.62c-8.42,6.86,3.14-9.18-2.36-6.32a74.07,74.07,0,0,1-10.43,19.27c-2.53,3.51-5.52,7.26-9.06,11.37q-2.65,3.08-5.73,6.46l-3.2,3.46-0.84.89-0.42.45-0.21.22-0.14.13L763,766.62l0.17-1.09,0.1-.73a1.57,1.57,0,0,1,.11-0.4c-8.73,11.17-16.29,20.07-22.78,27.14-5.72-11.17-10.45-21.41-14.85-31.29-0.13-.37-0.91-1.87-1.48-3l-1.83-3.61-3.75-7.4-8-15.65c-5.57-10.86-11.67-22.66-18.6-35.81l-1.35,8.14c-8.61-16.46-9.13-20.66-12.31-28.85C661,659.49,704,719.54,686.76,707c-1.12-9.91-10.39-28.19-21.47-48.29-5.54-10-11.53-20.55-17.18-30.69l-2.32-4.3c-0.72-1.36-1.41-2.69-2.06-4-1.3-2.59-2.44-5-3.29-7.14a46.91,46.91,0,0,1,8.16-5.62c2.44-1.24,4.55-1.72,6.35-1.37l0.68-.72,0.66-.75c0.88-1,1.59-1.79,2.15-2.48a9.37,9.37,0,0,0,1.81-2.83c0.29-1.11-1-.88-2.25-0.65-2.54.46-5.08,0.91,4.87-9.32l7.61-3.17,2-8.11c13.52-13,23-16.91,25.49-15.5-3.4,3-8.43,9.81-11.64,13.47C706,560.81,733,525.5,739.7,520.38l-20.53,18.31c26-29.05,56.34-59.92,86.11-90.86,14.89-15.47,29.64-31,43.64-46.25,7-7.65,13.82-15.24,20.37-22.76q4.91-5.64,9.62-11.22l2.3-2.74,1.11-1.54,2.26-3.18s-0.86,0-1.78.08-1.9.2-1.9,0.2a169.68,169.68,0,0,1,12-14.52,69.31,69.31,0,0,1,8-7.47c2.23,4.34,4.13,8.51,6.81,13.4,1.34,2.45,2.89,5.08,4.82,8.09,1,1.51,2,3.11,3.25,4.86l5.84,8.43-1.74-1.61c8.93,9.26,19.15,22.74,28.32,37.39-11.09-11.8,11.64,28.2-2.42,12.4,38,49.64,20,23.78,50.09,53.35l1.74,10.19c10.74,9.76,13,9.68,31.06,35.56-17-19.79,5.74,20.26-13.91-1.52,12.25,25.91,25.22,43.86,36.49,58.48,5.63,7.31,10.84,13.79,15.31,20l1.49,2.08q0.47,0.65.92,1.3c0.59,0.87,1.14,1.75,1.63,2.62a19.56,19.56,0,0,1,2.09,5.13,20.56,20.56,0,0,1-5.8,6.35,11,11,0,0,0,2.49,3.66,1,1,0,0,0,1.19.36,2.53,2.53,0,0,0,1.22-.68c1.63-1.51,3.38-5.63,5-10.3-1.26-2.21-2.7-4.54-4.06-6.7l-4.4-6.88c-3.15-4.92-4.5-7.24-1.56-3.86-1.72-5.16.66-4.26,4.88-.15,1.05,1,2.22,2.25,3.47,3.64l1.64,1.74q0.82,0.89,1.69,1.88c2.31,2.63,4.82,5.75,7.24,9a119.72,119.72,0,0,1-4,14.91c-0.14.48-.37,1.18-0.57,1.78s-0.43,1.22-.66,1.82c-0.46,1.2-1,2.38-1.52,3.54-1.09,2.32-2.33,4.59-3.7,6.9-2.73,4.62-6,9.41-9.44,15.17-7,11.52-15,26.9-22.15,52.5,1.5-5.07.77-5.65,2.27-10.71-8.21,18.35-6.92,38.56-18.1,60.75,2.83,15-9,30.37-1.75,36.54l11.41-47.46c-5.37,27.21-2.67,54.94-19.89,97.39-0.71-3.89.77-17.56,2.08-26.87-6.12,12.11-5.39,25.13-11.7,37.69-7.3-6.17,14.4-57.52,16.11-87.83-7.45,12.74-9.27,55.62-14.27,38.72,5.68,23.86-15.8,50-16.83,87.1l-4.37-3.71c-0.77,5.7-1.63,17.73-4.63,27.78l-1.32-20.11c-2.42,29.61-20.24,52.66-24.87,80.41,15.87-56.35,9.65-10.92,20.09-33.68-13,71.35-24.5,36.19-44.21,114.63,2.29-10.73,14.26-38.66,11.9-21.54-5.25,14.5-12.73,33.5-18,41.83-13.6,51.81,7.42-6.44,4.27,16.37-5.46,7.76-6.69,14.18-7.06,21.44-0.09,1.82-.13,3.69-0.17,5.64l0,1.49a2,2,0,0,0,0,.34l0,0.2,0.09,0.4c0.11,0.55.22,1.12,0.31,1.73a33.4,33.4,0,0,1,.09,8.9l-0.5.37-4.4-3.75c-1.69.6-3.12,1.14-4.35,1.65-0.62.26-1.18,0.51-1.71,0.75l-0.76.37-1.1.55a78.71,78.71,0,0,0-9.37,5.43c-4.34,3-5.38,5.07-6.27,7-1.77,3.85-2.89,7.29-28.45,17.56l17.6-16.85-24.87,14.34,2.64-8c-26,17.76-35.21,21-63.36,33,8,0.22.67,10.4-23.52,22.47-17.93,5.3,7-9.08-27,8.5,6.3-6.79,13-14.71,30.08-17.69,0.77-2.31,6.19-6.74,7-9.06-19.42,5.51-45.14,21.27-57.57,27.44,4.88-2.18,10.74-4.74,14-5.51l-46.6,31.11c-8.73,2.07-3.21-2.43,2.26-6.87-4.92,2.74-8.86,5.52-13.39,8.58-2.27,1.53-4.69,3.12-7.45,4.82l-2.14,1.29-1.13.66-0.14.08-0.07,0-0.13.09-0.26.18q-1.07.71-2.35,1.44c0.24-2.52-.2-4.74-0.05-6.94-0.23-.42.72-1.4,1.5-2.27a34,34,0,0,1,3.19-2.94,95.94,95.94,0,0,1,11.21-7.67l-10.61,6.46-5.3,3.23-0.66.4-0.31.19-0.07.08-0.3.3-0.63.62q-2.6,2.53-6.38,5.63l-0.87-.41c-0.21-1.51-1.3-4.35-1.63-6.41s-0.08-3.51.82-3.74a4,4,0,0,0-.47-0.9l0,0L661,1236l-0.52-.52-1-1-2.17-2.08c-2.95-2.78-6.13-5.56-9.49-8.37-6.71-5.62-14.11-11.33-21.71-17.28-15.19-11.88-31.18-24.67-44-39.37-2-.8-5.51-3-11.89-8.34-10.4-10.57-19.81-21.19-29.69-31.79l-3.73-4-0.94-1-0.47-.5-0.11-.12,0,0-0.06-.08-0.47-.6c-0.62-.79-1.26-1.55-1.94-2.27a29.63,29.63,0,0,0-5.14-4.3c0.2-1.61.2-3.4,0.46-5.78l0.11,0,0.14-.06,0.27,0c0.41-.07,1-0.16,1.67-0.24a29.59,29.59,0,0,1,4.68-.22,20,20,0,0,1,4.09.56,0.17,0.17,0,0,0,.14-0.07l0.17-.12,0.33-.24,0.61-.44,1-.71,0.86-.62c10.35-13.76,3.77-8.6-1.29-6s-8.52,2.88,9.67-19c12.82-15.56,16.12-17.5,17.43-16.83s0.8,4.16,5.83-.73c3.81-5.84,8.6-13.12,14.43-21.08s12.67-16.62,20.37-25.44l23.9-27.41L598,999.39a336.07,336.07,0,0,1-33.25,7.67C576.35,1003.3,585.77,1001.43,596.71,998.32Zm-185,223.47c-5.92-5.65-18.69-16.15-19.94-22.74C402.29,1202.48,404.47,1209.88,411.71,1221.78Zm530.9,93.59c-5.05,3.72-14.1,6.14-24.67,7.89A130,130,0,0,1,942.62,1315.37ZM596.45,501.05a6.29,6.29,0,0,0,.47-0.78C611.71,489.66,606.4,493.36,596.45,501.05Zm-29.38,23.51c-2.3,3.08-1.61,3.46.07,2.94,1-2.75,7.23-8.49,14.6-14.66C578.82,513.61,574.58,516.15,567.06,524.57Zm519.35,184-3.34,6.65C1086.12,699,1086.19,703.78,1086.41,708.6Z" transform="translate(-301.14 -183.73)"/>
      <path class="cls-2" d="M877.44,1347.12a5.64,5.64,0,0,1-4.25-1.5C870.5,1347.55,870.8,1348.55,877.44,1347.12Z" transform="translate(-301.14 -183.73)"/>
      <path class="cls-2" d="M581.16,1166.38c0.28,0.33.59,0.61,0.87,0.93a2.85,2.85,0,0,0,1.59.2Z" transform="translate(-301.14 -183.73)"/>
      <path class="cls-2" d="M989.62,254.08c4.47,6.36,6.56,10.25,7.67,13.08C998.54,266.64,997.08,263.26,989.62,254.08Z" transform="translate(-301.14 -183.73)"/>
      <path class="cls-2" d="M493.45,627.63L491,624.75l-2.49-3-0.69-.82-0.09-.1,0,0-0.05,0-0.11-.09-0.45-.38c-1.2-1-2.53-2.23-2.53-2.23a7,7,0,0,1,1.72,3.06c0.07,0.25.09,0.43,0.18,0.73l1,1.91,2,3.78C490.19,626.41,488.87,621.66,493.45,627.63Z" transform="translate(-301.14 -183.73)"/>
      <path class="cls-2" d="M592.44,814.44c2.63,2.42,4.53,5.92,7.14,8.3l1.4-2.25C591.86,808.6,584,801.42,592.44,814.44Z" transform="translate(-301.14 -183.73)"/>
      <path class="cls-2" d="M492.7,656c-2.43,4.21,7.84,15.37,18.61,28.36-0.62-.8-1.23-1.55-1.79-2.39C517.49,682.24,505.07,669.1,492.7,656Z" transform="translate(-301.14 -183.73)"/>
      <path class="cls-2" d="M513.78,687.43c3.28,4,6.55,8.21,9.43,12.4C526.4,699.91,519.84,694.46,513.78,687.43Z" transform="translate(-301.14 -183.73)"/>
      <path class="cls-2" d="M533.75,558.75c-6.69,4.52.12,7.6-4.45,9.29C526.49,578.24,564.17,527.17,533.75,558.75Z" transform="translate(-301.14 -183.73)"/>
      <polygon class="cls-2" points="187.98 492.04 188.76 483.9 179.54 479 187.98 492.04"/>
      <path class="cls-2" d="M478.62,578.71L458.34,595c1.15,0.21-.68,2.58-3,5.26,2.81-2.48,5.72-5,8.47-7.33s5.29-4.51,7.53-6.48C476.24,582.14,479.4,579.1,478.62,578.71Z" transform="translate(-301.14 -183.73)"/>
      <path class="cls-2" d="M455.33,600.27c-3.84,3.39-7.48,6.73-10,9.37a52.23,52.23,0,0,0,4.13,4.39l-3.36-4.31C448.84,607.1,452.65,603.34,455.33,600.27Z" transform="translate(-301.14 -183.73)"/>
      <polygon class="cls-2" points="164.57 463.57 160.72 456.51 149.61 441.03 164.57 463.57"/>
      <path class="cls-2" d="M693.85,385.09l20.72-20.9c1-3.41-5.76,1.11-13.37,9C696.88,378.9,689.29,386.77,693.85,385.09Z" transform="translate(-301.14 -183.73)"/>
      <path class="cls-2" d="M617.85,433.6c6.66-4.49,7.88-3.94,12.42-5.6l-3.92-5.66Z" transform="translate(-301.14 -183.73)"/>
      <path class="cls-2" d="M680.3,374.86c0.9-3.37,28-32.67.64-7.34C680,370.91,659.23,391.85,680.3,374.86Z" transform="translate(-301.14 -183.73)"/>
      <polygon class="cls-2" points="703.97 117 699.02 111.4 691.23 119.53 703.97 117"/>
      <path class="cls-2" d="M1290.67,590.82c-9-11.41-14.6-17.81-18.21-21.27s-5.31-4.14-6.84-4.66a12.64,12.64,0,0,1-2.39-1,8.15,8.15,0,0,1-2.39-1.48c-1.91-1.63-4.66-4.86-9.16-11.36-3.67-2.23,0,3.09,3.71,8.36,1.85,2.63,3.7,5.26,4.64,6.92,0,0.08.15,0.25,0.24,0.39l0.25,0.4c0.15,0.25.28,0.48,0.38,0.67a1.51,1.51,0,0,1,.26.8c-0.07.27-.65,0-1.89-1,8,7.78,14.64,14.79,19.6,19.8s8.33,8.13,10.16,8.49c0.14,0.44.51,0.39,1.15-.19C1291,595.32,1291.2,593.75,1290.67,590.82Z" transform="translate(-301.14 -183.73)"/>
      <path class="cls-2" d="M1259.26,567.55c-0.26-.26-0.37-0.35-0.54-0.5l-0.48-.43-1-.86-2-1.74q-2.07-1.76-4.33-3.56c2.25,2.08,3.95,3.57,5.27,4.68,0.66,0.55,1.23,1,1.72,1.39l0.69,0.52C1258.82,567.22,1259,567.3,1259.26,567.55Z" transform="translate(-301.14 -183.73)"/>
      <polygon class="cls-2" points="545.3 429.1 528.19 414.45 537.96 425.76 545.3 429.1"/>
      <path class="cls-2" d="M806.34,595.25L806,586.38l-14.74-2.32C795.65,586.67,804.08,591.74,806.34,595.25Z" transform="translate(-301.14 -183.73)"/>
      <path class="cls-2" d="M439.26,1279.4l2.41,0.26c-0.71-3.87-3.87-8.05-10.19-16.45Z" transform="translate(-301.14 -183.73)"/>
      <path class="cls-2" d="M423.76,1038.57l-5.12,1.14,5.55,1.29,5.53,1.23Z" transform="translate(-301.14 -183.73)"/>
      <path class="cls-2" d="M565.39,1083.73c6.63-8.14,13.65-18.52,20.36-26.64a160.79,160.79,0,0,1-17.41,19.59C564.23,1080.76,562.54,1082.75,565.39,1083.73Z" transform="translate(-301.14 -183.73)"/>
    </g>
  </g>
</svg>
